100000
0.000279
0.016702
284.613373 266.326996 268.359558 273.585358 
0.000000 0.000000 0.000000 0.000000 
214.190491 202.872208 193.338638 268.626801 
208.953110 245.210281 213.980637 207.561096 
222.831482 211.999512 212.368103 203.108780 
219.642288 221.199249 217.159286 222.760010 
217.985779 215.588303 221.041519 221.218201 
219.694214 220.957962 222.955673 223.189499 
250.507492 236.987610 235.059143 239.296463 
233.071014 238.391220 230.947754 237.659302 
249.357498 248.282120 256.152435 258.827972 
232.223190 232.011475 238.103302 239.949432 
255.740601 259.604004 254.908157 254.926086 
272.004730 282.681854 280.865173 291.397980 
599.723267 503.759796 579.868164 606.184753 
898.220154 861.198547 1023.898010 1679.285889 
1024.775391 1234.367310 1393.958984 1415.573853 
1170.142212 815.822266 1859.031494 1944.001221 
248.128189 213.452423 202.464996 211.468811 
209.635971 232.531677 212.895096 222.756561 
223.260757 208.730347 205.181015 214.584030 
214.298569 213.269653 213.570969 212.231171 
208.679276 207.450150 206.604599 206.638779 
209.298187 212.420090 210.607910 212.200836 
216.022949 265.425964 217.270859 217.293152 
220.762207 219.552887 261.779785 219.591385 
235.500366 228.107956 233.147964 234.593887 
252.899811 248.644333 256.124451 255.259750 
288.064850 267.722778 274.020142 254.505936 
308.779877 314.641205 285.367157 292.723022 
500.579468 565.825684 499.736816 519.430542 
835.895508 441.853424 768.246460 944.979431 
1276.127930 0.000000 0.000000 1979.666992 
1441.353516 0.000000 0.000000 0.000000 
0.000000 46.491547 0.000000 0.000000 
227.584534 239.084091 244.870392 216.770706 
204.998199 200.065536 207.319824 206.142593 
223.836151 233.374176 229.183258 233.744522 
232.408936 594.218811 215.751877 223.503693 
334.278625 319.920135 355.402924 329.757904 
315.419434 503.185913 330.118134 296.870026 
243.530289 242.819519 285.560303 240.506744 
297.201630 261.691650 267.594452 241.304459 
283.400940 290.168732 283.712585 285.999481 
331.966034 341.159943 307.640045 305.154388 
433.065765 763.674316 1077.144043 553.045349 
1197.635864 0.000000 1097.960815 0.000000 
957.296814 0.000000 0.000000 0.000000 
0.000000 0.000000 0.000000 0.000000 
0.000000 0.000000 0.000000 0.000000 
714.243774 532.207581 651.267578 542.240845 
850.315369 449.628540 466.494324 438.558716 
677.396423 391.144531 400.568909 412.899719 
370.800781 672.627930 315.717163 313.270752 
537.121521 794.548218 617.107544 547.905212 
378.768768 395.161438 404.150208 596.494507 
229.309875 224.845612 236.559601 228.958282 
425.274994 447.603516 505.072174 520.973755 
772.899597 774.726501 831.056946 592.115784 
0.000000 1044.152588 0.000000 0.000000 
1163.951050 0.000000 0.000000 0.000000 
0.000000 0.000000 0.000000 2128.697754 
0.000000 0.000000 0.000000 0.000000 
0.000000 0.000000 0.000000 0.000000 
0.000000 0.000000 0.000000 0.000000 
0.000000 0.000000 0.000000 0.000000 
191.099136 210.658051 267.084839 193.197159 
197.079300 204.346420 209.474167 256.060516 
199.658005 197.012482 198.241394 219.005539 
194.986023 202.097290 203.649704 278.535034 
201.611526 270.768707 194.666672 193.385742 
197.357620 244.898575 169.711258 195.273849 
219.538925 197.341965 192.126053 195.385529 
224.175293 187.868103 194.308090 172.031815 
250.041855 203.473465 203.350983 203.969650 
211.004807 209.906845 209.854156 244.540939 
231.730698 211.102921 210.799545 211.383499 
221.428635 220.444702 218.828476 217.649048 
220.957932 214.198990 226.512344 221.132599 
232.472061 225.908020 241.359955 229.435928 
251.015854 248.305969 277.920410 246.556396 
297.975494 282.714661 289.959564 285.099426 
263.614624 186.165237 188.883423 187.340256 
194.490234 187.645721 200.947510 242.870087 
186.954315 196.712418 192.489685 231.229492 
226.856354 199.948196 193.594086 194.701401 
196.371567 191.676804 227.493515 192.445572 
206.088196 195.053268 194.533997 213.181046 
209.717941 208.674683 220.861130 207.435318 
207.756165 204.921570 237.045532 209.206497 
217.291382 210.213669 212.423477 222.257111 
258.833679 215.182831 211.741943 211.592712 
235.371948 212.036575 218.756287 217.931641 
218.836121 219.320221 213.991913 219.954193 
241.195023 235.137283 245.287827 229.998642 
263.606812 268.299744 275.606384 280.185242 
417.316467 417.244019 398.611359 452.109100 
788.741455 680.630005 677.952148 780.044617 
431.705841 0.000000 483.179749 0.000000 
197.762833 197.025284 198.545547 198.091034 
187.485306 211.834290 230.914612 203.430969 
242.796616 225.384979 219.612671 221.329193 
222.546967 202.385437 240.665939 233.782608 
510.988617 239.162125 246.443634 227.146713 
287.048737 230.253006 248.616852 239.483627 
253.811386 247.483978 253.705811 271.253632 
249.745667 254.253403 247.636047 314.501617 
278.845428 245.330811 255.942596 258.800201 
298.412354 289.440125 253.735229 291.586975 
273.800812 274.631104 301.739532 317.943268 
333.738251 344.327148 337.566742 302.030029 
398.274323 409.438965 422.699738 390.623291 
0.000000 0.000000 0.000000 0.000000 
0.000000 0.000000 0.000000 0.000000 
611.655273 0.000000 0.000000 0.000000 
0.000000 0.000000 983.858398 0.000000 
392.304565 389.090240 469.759918 750.175598 
608.166626 404.076630 466.046875 361.360870 
513.766541 685.430176 620.898682 570.209717 
497.284729 483.875793 641.206604 532.331055 
580.669189 392.694824 381.865082 380.350739 
540.436951 350.608948 367.798950 351.435577 
417.882690 325.891571 639.694275 410.390198 
519.166870 538.292786 517.930359 489.997559 
1696.326172 0.000000 696.938965 1758.818604 
1560.363281 617.250488 1532.450073 0.000000 
0.000000 0.000000 695.829407 0.000000 
0.000000 0.000000 0.000000 0.000000 
0.000000 0.000000 0.000000 0.000000 
0.000000 0.000000 0.000000 0.000000 
179.274902 278.342651 205.852859 186.147552 
173.076218 171.504929 264.793365 171.342087 
236.830185 185.520691 195.019592 193.805740 
187.623810 190.100388 163.070541 215.609299 
185.176849 187.828201 184.254700 212.666580 
184.534225 215.987137 186.292831 176.996841 
189.095001 174.957596 193.993561 230.117844 
199.898911 184.330093 199.649033 282.017212 
186.843887 206.876572 180.766479 289.489746 
191.139450 271.871765 206.377838 188.504135 
267.052277 268.540710 275.980774 269.234314 
326.345245 310.331726 359.180237 316.247498 
343.418030 314.929993 309.087860 316.377014 
285.586090 326.726776 303.374878 296.786316 
317.229095 286.648926 283.566803 300.714081 
194.907974 208.330414 196.136490 284.565826 
189.479736 277.516357 188.431290 191.531921 
258.725250 191.495087 191.377304 185.261810 
183.835327 179.633148 179.258759 231.273224 
203.163757 190.738876 218.727234 189.596664 
186.333923 164.201569 186.621902 213.278000 
184.668015 207.723007 177.388092 181.360107 
186.332367 227.766174 334.452606 172.673645 
217.502243 222.462769 406.388275 209.373276 
194.629532 209.001389 287.697998 201.725830 
232.897018 219.542206 347.008179 207.143158 
257.163483 261.969269 258.603180 255.614151 
363.659027 372.188690 341.810486 326.928772 
321.140503 360.555176 325.780975 300.028961 
289.204224 196.743637 217.465576 202.215027 
193.921082 196.972977 188.511261 273.012360 
215.244980 196.684433 204.610886 195.653885 
0.000000 0.000000 0.000000 0.000000 
199.698517 225.359375 199.691605 203.657104 
214.554352 192.276047 180.715729 182.017181 
226.194336 192.973694 191.006363 192.179840 
193.804749 215.291046 190.768555 190.993576 
412.146881 238.787842 240.778000 253.274734 
312.252686 576.537598 310.299286 632.609802 
535.844910 541.104492 538.982971 606.379456 
540.589539 518.107239 510.125671 583.094910 
510.547668 502.510895 537.826294 510.047333 
515.228882 470.087250 293.041870 296.968842 
245.309555 244.691742 238.882599 254.104050 
219.573669 237.440842 215.600296 222.857834 
220.964188 216.834839 248.768127 232.358810 
253.541687 243.376831 234.681183 230.114365 
0.000000 0.000000 0.000000 0.000000 
0.000000 0.000000 0.000000 0.000000 
2767.828369 1520.672119 1714.457397 2680.334961 
290.280945 406.957794 573.867371 367.778168 
680.872559 621.252930 597.060852 562.034485 
653.073364 661.440735 686.576660 666.730835 
603.185425 614.816223 658.294800 601.675598 
304.309387 386.884888 309.836334 769.327271 
361.949066 272.916992 314.232208 548.857727 
260.537598 291.581329 568.736938 304.638519 
519.663269 558.763428 513.997681 519.104553 
399.364258 389.950806 385.102478 401.413971 
547.161865 624.952515 519.479309 363.875214 
462.410278 557.528809 418.127258 442.087677 
0.000000 1150.941650 0.000000 0.000000 
0.000000 0.000000 0.000000 0.000000 
0.000000 0.000000 0.000000 0.000000 
196.218826 197.207642 265.469543 198.937347 
245.804794 187.166885 177.563080 188.132721 
198.055466 196.043442 235.422882 166.453644 
204.653900 268.139282 206.004776 207.595032 
241.225906 216.964828 220.545578 217.724442 
201.817261 224.979309 201.353851 208.296829 
237.428955 230.761642 239.129929 232.660202 
246.206741 255.941406 284.281250 257.223541 
229.436050 276.737305 235.840897 239.587891 
329.542297 239.570648 245.976761 243.633804 
294.976013 197.519379 223.052277 221.959396 
220.380005 208.245453 224.168213 275.593811 
216.040604 215.468826 263.957520 213.596359 
260.345123 276.039154 252.689072 262.149689 
209.172684 215.178192 257.862396 200.747498 
197.413986 220.765945 197.364365 198.745667 
197.175507 204.165131 199.482117 222.045364 
240.677719 192.656967 185.314102 186.772110 
184.460632 222.287796 194.063705 190.329391 
234.360764 203.607880 194.530212 194.229904 
215.121475 214.174240 232.665497 215.848526 
220.528427 213.344833 256.979218 209.931107 
239.578476 244.340851 321.835327 250.021454 
302.136169 320.930725 324.598572 306.134338 
307.700317 353.785431 298.290100 292.782593 
286.568939 388.655334 284.753082 318.804565 
197.851074 199.627319 197.188141 340.231842 
230.541412 286.766632 227.632126 222.445984 
293.042877 239.739960 224.492645 229.238632 
292.555237 214.230148 215.925369 216.886612 
210.372055 209.762680 279.991394 205.886719 
232.278381 199.228104 198.129654 202.416077 
0.000000 0.000000 0.000000 0.000000 
245.853195 212.354126 215.026535 211.988068 
197.138672 199.161835 231.934555 194.688248 
227.006195 227.253998 233.105362 226.381256 
257.139709 234.520477 229.489288 222.291687 
265.080597 245.541290 248.901688 241.940292 
276.910156 282.939514 310.959259 307.799194 
486.189453 337.996277 320.188538 326.240387 
352.827942 319.963379 474.122131 317.750275 
282.166290 295.414337 282.373627 417.656342 
259.769043 370.767365 257.192200 264.553131 
361.367645 269.448212 249.539368 242.881088 
238.104126 286.238831 246.874557 239.018295 
294.731323 231.650879 228.732544 225.390091 
236.237839 237.231354 239.333755 243.732849 
0.000000 0.000000 0.000000 0.000000 
0.000000 0.000000 0.000000 0.000000 
320.328796 554.956909 515.495728 594.529053 
352.711365 303.171387 350.656250 310.467957 
515.955872 79.749481 670.237976 527.362305 
844.598633 1230.061646 730.699158 715.389526 
315.026123 328.201141 333.058563 326.181580 
262.967499 290.923828 285.573517 458.683411 
318.917603 406.864044 504.846588 306.792969 
291.764069 337.871979 314.089050 613.557556 
470.068512 313.937836 323.218903 316.707886 
338.639099 331.324829 479.703247 352.547028 
592.194214 426.726318 557.373840 445.858887 
345.629669 347.793182 320.988007 404.064636 
664.780090 550.510132 469.915833 1003.685059 
0.000000 0.000000 0.000000 0.000000 
0.000000 0.000000 0.000000 0.000000 
191.693085 192.106613 196.412170 221.255966 
188.135391 190.104034 193.442368 227.171616 
202.246597 196.315811 202.397156 274.778961 
210.299561 292.624969 213.342163 223.908157 
214.771866 221.147995 278.429932 214.065231 
337.607025 231.522415 262.127258 249.752411 
255.039536 263.942047 341.088287 243.483994 
341.147095 236.072418 253.575897 286.169006 
219.766754 268.110870 225.649750 238.598785 
189.763977 253.045563 188.855164 188.117813 
199.586670 250.413223 199.510391 197.748306 
187.479370 176.622055 176.088791 253.780869 
233.746094 197.916977 194.467392 201.150482 
236.052658 200.652359 198.670792 201.774277 
204.758026 200.996536 189.443924 228.397293 
189.796783 235.782776 195.433105 187.968704 
199.824081 199.904160 193.416840 225.986801 
204.589279 234.057648 206.718155 217.487427 
193.843674 255.302963 188.375961 209.727844 
300.695831 228.675674 232.635025 230.887466 
254.276459 257.301666 320.242340 248.679382 
340.767670 271.710938 266.539703 249.825165 
350.164032 310.082092 298.023132 286.121277 
347.858582 315.112366 340.223175 310.306824 
241.072647 325.001526 263.965088 247.310913 
230.404312 180.274841 184.152054 191.703644 
199.563141 200.556961 196.199051 229.169693 
205.111526 227.282059 201.701950 207.259735 
209.093552 197.042999 209.132980 225.278137 
273.353516 208.213791 202.652618 202.806702 
210.966537 249.466019 212.275375 203.631302 
224.564362 206.746460 208.683060 205.971008 
0.000000 0.000000 0.000000 0.000000 
244.693375 215.551208 218.847198 209.668060 
209.807495 209.160568 252.544357 208.485962 
317.750153 254.776993 272.892212 256.642548 
314.065918 262.678772 269.371429 250.918381 
290.271576 293.434143 352.489166 318.190094 
266.231445 287.591888 367.817108 285.993988 
320.324646 286.575470 325.675873 369.945221 
335.426666 355.305176 247.016266 244.418564 
224.559891 241.755798 228.496292 220.131195 
219.896118 266.669647 214.957855 224.460098 
226.956299 232.737762 216.659164 221.989685 
260.200623 211.791077 211.431808 213.504135 
224.554962 273.227356 216.902512 222.673996 
336.697449 371.350952 394.557526 330.514252 
0.000000 0.000000 0.000000 0.000000 
0.000000 0.000000 0.000000 0.000000 
0.000000 0.000000 0.000000 2135.960205 
519.004578 422.288818 442.814056 399.775238 
341.604340 367.058777 334.149536 303.537964 
375.032135 379.680328 341.074615 338.580353 
297.732727 285.827881 349.861511 300.359283 
309.715607 314.974152 375.524414 321.244080 
305.085510 286.594574 285.234558 374.632965 
451.669342 292.922119 263.769745 255.245834 
359.809692 283.978241 233.244186 265.509827 
337.203094 679.821411 420.397156 342.738129 
407.080963 386.637115 384.361877 825.038452 
326.095520 318.971741 407.326355 347.951172 
392.531036 393.457733 348.947968 326.230103 
0.000000 0.000000 0.000000 2167.779297 
0.000000 0.000000 0.000000 0.000000 
201.478806 205.940186 198.648193 212.873825 
206.827011 201.793320 204.511368 228.419891 
209.830124 247.162567 217.521835 205.127411 
204.577209 215.733398 203.960983 238.228775 
204.367844 238.317764 199.503494 201.291977 
242.177811 212.499893 198.697525 192.886459 
208.893692 195.099091 254.647339 210.076874 
220.346909 225.123489 214.999649 235.444031 
235.548660 227.851425 233.049347 243.668106 
182.525635 239.608292 179.389679 178.160263 
213.627106 222.386551 234.302872 217.231339 
182.905502 191.988541 257.353851 192.822083 
181.479294 223.976837 186.353149 183.131760 
194.071777 182.908936 184.646255 268.930145 
183.385498 203.904282 253.516586 184.364075 
267.790680 182.882431 199.565506 197.642197 
201.307343 205.609116 226.345657 203.064423 
210.994400 204.650833 203.773834 228.924988 
239.393951 221.533920 217.502075 217.842133 
207.915298 244.147247 218.971634 224.336441 
258.559784 219.584213 208.027512 212.303131 
260.302887 210.372772 216.224014 228.835770 
214.888535 229.951935 229.674957 278.612671 
216.347748 239.952698 264.098297 283.240448 
220.436905 224.938507 254.611816 239.829422 
194.429047 181.352783 183.795395 222.629822 
242.833450 223.523911 216.012695 221.003860 
188.217361 235.266937 192.925644 185.934692 
195.156128 244.973465 189.866058 195.415359 
192.869156 182.712646 243.937225 200.511780 
191.126404 188.122726 218.205826 192.065216 
191.181580 276.622375 186.525497 203.828476 
0.000000 0.000000 0.000000 0.000000 
220.181015 232.639389 240.804703 228.100174 
212.887466 213.984100 241.267609 217.138809 
267.547607 212.284012 210.904617 213.616959 
295.872864 213.045090 207.163528 218.738510 
234.988831 341.673767 245.899612 229.551697 
258.406464 241.782700 346.371857 268.000153 
261.089600 418.113098 281.406769 301.474518 
253.794785 218.114136 269.906677 229.621429 
200.194855 268.252747 198.023026 203.484665 
191.503510 194.456238 195.809219 230.915222 
238.038803 239.598846 253.821655 229.492233 
201.418213 252.265625 205.293701 197.899200 
255.674088 180.003036 201.298645 212.624924 
235.882080 231.029953 242.581451 236.250977 
0.000000 490.176971 223.265656 611.314819 
0.000000 0.000000 0.000000 0.000000 
0.000000 0.000000 0.000000 0.000000 
592.540771 538.389526 666.250916 558.737671 
392.551575 554.103149 457.648926 441.944092 
660.066345 411.987610 404.561401 419.866119 
276.999359 348.800354 272.654663 268.696655 
503.425232 285.277893 324.995209 289.070526 
484.786957 306.039001 289.697327 285.646362 
352.309601 467.063538 334.552887 260.814514 
379.000916 241.658188 291.983429 277.517731 
258.729095 276.967957 330.478485 277.956665 
356.048157 502.573364 352.872589 343.042328 
355.063721 325.403961 350.166565 515.922424 
321.043274 356.873047 346.621002 208.485611 
0.000000 0.000000 0.000000 0.000000 
0.000000 0.000000 0.000000 0.000000 
242.596390 261.977966 260.054810 261.663574 
250.448624 243.527481 247.979996 257.031799 
223.720291 216.004181 215.234436 218.279800 
198.566635 259.735229 206.634750 196.000168 
205.968170 206.918167 204.822830 219.831772 
200.714920 239.304916 198.603271 195.115372 
188.991394 193.275391 187.348907 228.900314 
188.354553 188.361237 248.760254 189.346359 
189.103836 254.725128 185.819077 187.961090 
183.778198 258.820251 185.167252 184.094482 
262.222137 253.959015 276.424957 263.697052 
180.410049 183.552185 180.500031 242.202194 
191.110306 254.840836 186.379639 185.976257 
230.472382 243.984573 232.025146 254.305420 
206.241989 214.191956 204.443069 209.000885 
198.324646 189.325989 227.133728 200.809708 
452.458740 570.226501 483.744354 390.100403 
302.631775 277.625946 300.946198 283.092010 
217.719299 220.175781 286.014709 217.406082 
211.119080 175.205750 206.492477 227.330505 
207.504593 201.338882 201.093552 224.588913 
232.933228 189.879654 189.979080 183.062775 
218.164490 186.421570 186.810867 186.965561 
185.418228 242.617950 191.583206 184.287857 
238.164810 186.112274 191.910828 194.344757 
249.725693 264.057281 251.335342 249.138550 
183.994644 188.363419 183.206787 223.795837 
236.554092 191.663528 192.846176 190.798111 
192.802383 224.407135 185.032944 187.043869 
246.870255 263.827667 241.274750 250.890778 
200.069183 211.843796 196.120529 192.068573 
186.048141 186.477707 195.594894 214.185593 
0.000000 0.000000 0.000000 0.000000 
578.834595 1271.737549 0.000000 1375.011719 
376.666901 422.409912 414.994476 441.219910 
285.433899 323.918396 283.899963 298.387482 
251.653641 252.455536 247.604050 252.603348 
228.883255 227.484619 299.144135 215.188889 
217.720337 218.693573 217.091980 277.616364 
242.082840 218.848297 245.313110 278.663452 
218.519897 222.489517 221.386948 277.708069 
216.266998 217.440506 225.118500 240.750748 
200.563431 194.245926 205.363464 215.273788 
222.137756 218.886261 217.643600 218.739944 
274.621033 220.763031 220.025085 220.100983 
201.091080 209.503967 206.637222 203.215408 
294.232788 284.359161 330.081909 580.220093 
43.811073 0.000000 0.000000 0.000000 
0.000000 0.000000 0.000000 0.000000 
0.000000 0.000000 0.000000 0.000000 
0.000000 0.000000 0.000000 0.000000 
1489.449463 0.000000 1843.982910 1583.823608 
635.291626 151.727936 321.360687 179.873001 
507.877197 506.594788 635.260437 0.000000 
349.050659 369.599670 583.241089 329.724731 
311.967712 311.322021 364.754791 312.114990 
368.681274 248.899933 257.188293 252.433075 
278.503845 265.655212 271.931091 458.774353 
333.097717 331.696136 350.332458 561.944702 
282.521759 327.946472 297.084290 356.720673 
363.822876 367.053101 605.995300 433.147491 
519.197083 354.544830 422.029816 310.861877 
556.167236 154.449753 0.000000 0.000000 
184.964249 0.000000 0.000000 0.000000 
846.255066 694.504150 890.074219 924.957214 
558.903809 569.997070 572.715576 573.668701 
307.336060 323.312866 270.966003 266.128815 
202.070770 194.369064 265.435730 191.827850 
266.423401 252.221344 271.592407 263.121765 
254.252625 254.920959 256.198700 248.996048 
242.786362 245.922302 253.688614 244.530655 
248.739868 249.477982 247.530090 247.987549 
205.427765 228.908920 306.147766 225.011688 
237.570160 220.425949 213.486542 211.247879 
226.072968 198.927673 197.996323 204.927612 
204.258240 257.981689 196.597412 182.332916 
224.699249 228.885727 226.697617 225.563644 
216.412033 228.521622 229.973282 218.084457 
219.729507 220.139130 215.822922 234.197372 
214.840500 257.244019 229.016022 213.351639 
1967.946655 0.000000 1091.201416 1788.551025 
983.372559 1123.963013 1461.582764 893.130249 
380.547150 381.708710 470.301025 438.870483 
302.804596 293.158478 306.059540 305.397797 
268.335999 273.016266 271.039490 263.357147 
249.182236 244.200974 244.010040 242.283051 
221.830917 220.428513 256.767029 219.766098 
210.619919 286.291962 213.877106 219.503876 
248.762665 210.725876 208.947845 207.999725 
250.158661 227.777740 255.213745 370.940063 
215.898300 216.081131 216.231369 212.337982 
219.320297 218.791122 219.599335 218.664948 
213.310654 211.335983 211.309525 226.613907 
222.232773 223.281357 218.312347 238.949860 
202.693970 212.144379 195.919891 264.482147 
223.975540 227.026001 233.288986 228.970856 
0.000000 0.000000 0.000000 0.000000 
0.000000 0.000000 0.000000 992.020813 
0.000000 1066.270874 0.000000 1910.938843 
547.381714 842.496094 495.235748 525.671997 
308.594299 287.186981 318.545258 305.814606 
267.334198 243.509186 261.827393 273.508514 
228.431732 220.551773 295.250275 226.276962 
302.528778 306.187927 295.996246 314.564392 
324.534485 286.959656 267.066101 261.783051 
259.831848 328.952667 257.444733 262.765625 
253.573822 379.556519 242.745270 255.096558 
603.067444 229.283737 234.453506 237.466522 
206.953278 215.569504 202.601349 221.322800 
217.304611 209.697174 212.242218 212.517426 
313.020569 655.434753 216.028290 1233.576660 
463.898956 0.000000 0.000000 0.000000 
35.366505 0.000000 0.000000 0.000000 
0.000000 0.000000 0.000000 0.000000 
452.596497 0.000000 0.000000 0.000000 
806.358398 0.000000 0.000000 0.000000 
0.000000 0.000000 0.000000 0.000000 
1605.994873 0.000000 0.000000 0.000000 
672.903625 559.823608 113.440521 794.141663 
480.762695 514.740417 363.503540 453.204285 
270.686493 244.164169 318.703857 466.112366 
520.827576 308.463898 321.871460 342.943329 
426.437897 273.956024 297.771881 277.068146 
485.946564 635.081482 295.394287 368.898682 
273.282959 247.512512 530.849731 319.070831 
263.677185 284.016022 270.468842 258.039215 
459.823700 545.495178 0.000000 415.200195 
626.793396 0.000000 161.486420 0.000000 
286.491028 275.095184 286.383606 278.031525 
0.000000 0.000000 0.000000 0.000000 
213.383667 202.574234 204.339401 254.919373 
219.802429 233.441666 200.301697 209.690308 
231.128250 209.689835 212.789795 210.374695 
211.101791 209.429550 214.665512 210.914154 
217.755371 220.121368 222.885147 214.749481 
225.550537 222.001419 220.899780 221.975235 
245.471252 246.343689 248.606903 243.484756 
239.815765 237.669785 244.560928 234.348389 
256.491394 260.381927 248.675095 248.375977 
233.059906 235.727066 229.820343 227.464493 
257.606903 256.351105 260.833832 258.419983 
329.696686 314.067078 324.216614 313.726501 
504.054138 607.434692 507.560120 479.814819 
986.055725 979.785217 814.537109 299.854218 
1814.037720 1524.957764 1435.383057 1432.757690 
1106.911377 292.395325 1472.472290 1365.917725 
225.432114 213.436920 222.563477 206.204102 
207.078934 237.192001 203.661636 202.829208 
218.341415 210.560760 209.409271 203.762161 
209.437775 206.516510 210.164688 207.944229 
209.417221 210.692734 211.555313 211.945007 
212.152039 208.523758 210.476227 208.886505 
214.370956 261.460449 213.018738 212.756699 
217.898087 218.853607 236.770416 219.264893 
240.903442 239.183762 233.634583 231.040543 
248.888977 253.225082 244.581772 245.155777 
248.657394 265.969360 264.142303 278.420807 
274.865326 291.109406 298.046234 291.374512 
488.394257 677.542236 480.270386 472.934540 
743.154541 1074.597778 795.965576 646.842957 
1185.772949 782.831665 0.000000 0.000000 
1708.438599 1243.296021 0.000000 0.000000 
0.000000 2478.721191 0.000000 0.000000 
231.129684 219.741013 238.256973 240.895386 
207.624893 211.574219 208.240005 206.597687 
227.399750 222.027542 225.180725 221.893982 
224.429443 618.089722 228.184036 231.821487 
320.768219 318.108276 291.953827 311.421509 
320.555634 532.531555 320.564636 330.500244 
234.871567 235.709015 293.361115 237.945007 
269.356842 262.573822 258.126709 284.264496 
274.115875 272.899170 277.412384 277.393127 
341.209198 333.071045 364.514221 368.171539 
924.657288 613.635437 266.015778 772.752686 
0.000000 0.000000 1180.866333 0.000000 
2699.788330 0.000000 362.932129 0.000000 
0.000000 0.000000 0.000000 0.000000 
0.000000 0.000000 0.000000 0.000000 
177.086227 423.376892 647.050232 456.723328 
858.258179 522.151123 462.206177 505.431915 
689.941284 350.007324 464.698639 320.895355 
254.283615 672.186462 254.481262 233.544434 
622.337097 704.220642 574.428223 562.655701 
395.360168 366.167114 369.887238 595.051514 
235.637756 241.130020 255.728333 236.657455 
614.958923 550.690613 479.533997 475.038513 
557.462219 556.886353 507.012085 782.009399 
1415.124756 1662.093994 0.000000 2781.292480 
1665.671997 0.000000 0.000000 0.000000 
0.000000 0.000000 0.000000 110.337692 
0.000000 0.000000 0.000000 0.000000 
0.000000 0.000000 0.000000 0.000000 
0.000000 0.000000 0.000000 0.000000 
0.000000 0.000000 0.000000 0.000000 
206.184967 197.499329 267.737885 203.005325 
201.131668 201.095184 197.429138 249.390030 
196.812775 200.981735 195.133057 220.795181 
191.552612 193.376083 196.414658 276.880432 
204.822586 267.961853 194.941208 211.427002 
195.835739 249.515472 205.461700 196.654694 
219.496338 193.843063 199.319550 196.001144 
216.550476 211.789597 198.178009 204.007660 
256.609344 204.089157 198.581223 199.795090 
208.481415 215.089615 211.027725 240.080795 
231.483597 215.073257 215.414749 218.617447 
231.095978 219.069733 217.206223 217.365723 
213.840683 219.362488 223.477905 212.272629 
212.403549 217.986649 224.899002 215.258896 
258.635315 250.985641 288.097076 250.671051 
283.358459 297.447327 290.557922 294.529053 
257.952606 190.800247 183.317978 191.239105 
192.204193 192.850021 196.812149 246.185837 
187.340393 197.517029 189.447189 231.392731 
226.984894 191.492905 191.764145 195.375458 
198.301331 196.835251 230.774460 196.010406 
200.279297 208.593323 196.476089 216.120743 
195.628342 196.135162 216.433029 198.214661 
207.829803 209.878571 232.151154 206.019196 
226.878540 214.237732 209.878555 230.568970 
256.666595 211.578369 213.494446 214.849075 
225.198090 223.233093 219.503052 216.892380 
219.065735 218.486389 225.317596 225.010468 
223.393494 229.698807 219.479721 234.806488 
303.853821 298.985291 292.701355 287.945007 
454.465057 453.991821 478.045502 424.569763 
818.358032 926.177551 972.744324 859.828186 
349.858307 0.000000 46.752769 0.000000 
197.604050 198.816406 202.344772 198.531982 
219.071808 195.676865 230.277573 203.332581 
256.663757 209.136536 216.412827 214.038437 
233.492233 252.196136 266.111420 270.803284 
506.819946 251.165146 223.787674 241.919861 
300.533417 251.728470 233.023300 244.359222 
281.380554 287.999359 281.179718 263.138916 
253.190582 234.357422 245.929672 263.810211 
295.227600 260.608429 262.576660 247.760803 
249.877289 296.145813 295.382263 253.932953 
301.569305 292.621857 276.912262 301.960541 
348.307404 334.000885 343.608582 373.207092 
371.336975 362.316437 345.650177 377.109741 
1510.065430 0.000000 0.000000 0.000000 
0.000000 0.000000 0.000000 0.000000 
0.000000 0.000000 0.000000 0.000000 
0.000000 0.000000 492.410187 0.000000 
410.020996 410.085022 314.994904 374.199951 
468.644318 426.109894 372.393860 470.530762 
590.819519 680.588928 598.900574 501.767120 
517.958557 496.814941 658.139587 564.704895 
647.848206 397.122955 372.082123 379.240631 
586.446716 342.369843 332.154419 336.955963 
351.073212 364.550476 563.838623 301.466797 
518.722412 462.370758 492.629700 510.401367 
581.345825 0.000000 1515.084473 0.000000 
2007.295044 0.000000 2017.946533 728.793274 
0.000000 1398.456909 978.096252 64.585114 
0.000000 0.000000 0.000000 0.000000 
0.000000 0.000000 0.000000 0.000000 
0.000000 0.000000 0.000000 0.000000 
188.859634 276.595551 172.411469 172.415955 
184.608932 181.654160 264.861969 175.569992 
247.942627 195.879074 186.004395 190.776886 
181.675247 194.898300 188.584213 220.334457 
192.331024 189.273880 175.031143 211.197830 
187.182983 231.816025 179.518494 184.995987 
178.007187 182.754318 181.298859 250.193710 
199.920197 174.745239 192.992737 309.744415 
192.502396 197.308945 188.212479 287.620453 
203.620773 274.417755 199.012711 190.524612 
267.587830 263.747925 271.912262 268.100830 
296.053925 320.802032 357.558258 311.377472 
341.904175 307.299957 307.388641 312.708313 
294.149048 330.092010 283.166077 292.364441 
313.218658 276.492249 285.726044 277.436523 
182.809357 182.226334 187.452438 285.672089 
187.324692 280.541840 195.441727 188.686615 
259.715912 196.149796 189.245331 177.352676 
183.947037 186.580719 190.734573 230.340134 
183.814575 188.380585 217.920288 188.354172 
188.416580 186.488464 187.653305 214.712021 
175.172119 201.687225 180.531860 177.971085 
205.559158 215.036987 275.782806 207.267014 
215.229233 219.711166 420.780457 184.306839 
239.752502 218.177780 316.818268 216.694733 
219.345093 220.420898 373.085693 257.919647 
253.739426 265.013245 257.501038 256.832886 
374.276337 333.897705 352.259277 320.136658 
300.959564 357.692108 328.588196 321.829590 
291.964172 189.738449 191.208893 210.323303 
193.551392 212.112289 194.795502 269.961609 
218.479294 192.390320 202.408051 193.234894 
1284.621338 0.000000 0.000000 0.000000 
202.777985 226.297836 202.736832 200.271957 
208.348816 189.964813 182.998764 186.780487 
229.209488 190.187256 191.430191 189.446732 
193.633240 217.405197 196.694611 196.602066 
343.154877 245.225632 202.585754 180.604340 
333.738281 546.197144 345.112335 632.126343 
541.184814 556.802307 546.941772 607.278076 
511.208679 503.250946 531.990417 581.985168 
511.710419 491.659607 536.545166 491.416107 
516.422729 476.369354 313.480652 311.297699 
238.527054 236.771011 241.087112 252.713791 
215.854691 232.815140 220.110550 207.733215 
229.359680 230.466583 252.051865 215.112289 
243.247528 255.422729 262.175446 268.967407 
0.000000 0.000000 0.000000 0.000000 
511.370300 0.000000 0.000000 0.000000 
0.000000 1199.334351 1007.348572 0.000000 
700.122864 583.758423 447.427887 1106.371094 
486.037292 519.864197 553.554871 575.928406 
672.723022 672.095581 684.624573 656.749878 
629.098328 596.915771 658.807983 612.312927 
323.894623 337.206757 326.088623 714.375183 
329.173584 284.767700 315.570923 597.229553 
291.133942 264.328644 559.616455 295.837738 
511.938904 560.008362 478.490143 525.917114 
384.324463 405.501709 418.836212 403.042297 
454.018158 337.230164 449.910370 630.066284 
435.724365 631.174194 500.687073 423.974518 
0.000000 304.152802 0.000000 0.000000 
0.000000 0.000000 0.000000 0.000000 
0.000000 0.000000 0.000000 0.000000 
188.091965 191.015167 265.713074 184.756546 
253.302292 178.530045 180.389008 183.147842 
187.072418 198.979721 232.641907 192.763199 
206.496979 263.524445 212.321732 210.010590 
247.118942 215.725922 204.547150 211.797485 
203.392532 240.565598 211.164886 205.258728 
229.575378 228.960480 221.984390 228.224838 
284.826447 272.176697 288.212250 272.855316 
237.390930 272.240601 273.567688 244.167130 
307.111877 252.672333 249.614258 242.358307 
305.978119 215.375687 199.558640 214.887558 
205.667908 206.092346 216.847473 269.077576 
223.113998 211.488403 276.553253 225.284790 
260.765900 273.721191 257.680115 257.970612 
205.086258 205.282227 260.668457 203.875458 
198.726700 218.484528 198.820129 197.452866 
202.979675 199.243088 199.726517 209.978012 
236.906052 185.850067 196.469299 192.567032 
178.382767 221.801651 178.510193 187.273026 
232.605133 193.703262 202.070404 201.565399 
215.396515 215.211288 237.404587 213.340790 
214.130493 219.604019 239.414139 222.813370 
265.711395 255.493393 285.291779 249.255722 
320.346375 302.395081 298.671478 316.777252 
287.483917 384.429840 294.754272 302.193359 
290.549683 394.258240 278.329102 280.336273 
225.630508 190.729141 209.386749 322.425415 
227.421188 303.512939 242.114014 235.138458 
273.669006 224.743546 235.309647 231.199844 
289.725800 224.826370 212.596100 223.984055 
202.651123 206.713669 276.321716 206.742355 
231.783920 199.555038 200.535675 195.830978 
0.000000 0.000000 0.000000 0.000000 
244.242279 218.889633 215.354248 212.245255 
199.981827 201.446457 232.633560 195.225540 
233.036865 232.817184 228.750565 233.528397 
248.764160 231.086639 224.641922 234.133133 
310.241364 246.549301 239.970764 248.033295 
290.072601 316.285095 360.380615 256.349884 
417.442841 325.129669 349.101868 336.868530 
341.793701 343.805542 429.789978 352.305481 
317.974182 317.252960 317.376404 412.799194 
249.707840 377.798676 259.596680 285.164948 
347.593384 249.709747 267.766052 281.109589 
236.672318 306.604706 241.096115 236.157883 
276.598206 224.744690 225.471100 227.651016 
231.438156 229.208374 226.653290 257.558563 
0.000000 0.000000 0.000000 0.000000 
0.000000 0.000000 0.000000 0.000000 
512.671021 572.564636 369.419403 296.045502 
303.306702 387.696198 497.770721 381.177856 
526.185608 911.844788 384.963806 454.142120 
940.391052 492.274872 836.363281 1054.496948 
337.896301 315.565735 333.875336 320.517639 
284.833740 263.356873 264.416901 392.788574 
281.491302 330.291351 523.969177 351.424103 
310.781982 329.679718 332.629272 639.333374 
500.333923 324.009521 316.710632 324.590942 
337.424713 345.785553 439.688660 323.401794 
405.789490 581.029541 444.443298 525.057373 
350.036346 325.536316 317.545166 351.854248 
588.327881 799.657959 745.348389 147.898972 
405.045471 0.000000 0.000000 0.000000 
0.000000 0.000000 0.000000 0.000000 
179.612411 175.095703 177.107697 219.346420 
198.513733 188.712387 219.375641 232.792511 
206.920135 183.806335 187.692856 272.044281 
210.343430 286.068237 206.683685 196.280396 
210.437759 208.756546 286.538666 198.889008 
328.729248 248.657471 233.774872 257.658630 
265.744812 252.679291 336.537262 271.211212 
330.542084 256.031219 261.785492 273.709564 
217.452316 319.555908 210.656723 210.118820 
190.398819 242.538574 205.306030 222.245728 
199.942810 251.679581 204.687653 199.791855 
178.111740 194.108093 183.004974 255.400818 
231.175293 199.886108 198.175827 199.925476 
240.609192 189.244064 197.031769 182.323364 
191.143402 192.467361 198.098114 230.076035 
183.777649 240.866928 182.497406 185.147629 
199.354645 204.836823 202.551880 222.120560 
209.561569 239.380875 200.044983 213.186584 
191.903427 253.809372 207.707535 199.561234 
310.014679 246.560760 237.705902 244.112366 
252.108063 230.408859 323.091370 248.596054 
342.848022 244.921616 242.371414 269.253082 
351.414642 272.468170 294.797028 288.277069 
361.742554 296.182739 254.648148 321.707397 
238.210541 285.424011 266.086029 262.561523 
229.075806 198.329239 193.141113 197.397308 
199.084045 199.011414 195.409256 238.067307 
210.080231 218.432968 212.349548 206.844528 
201.133331 213.776749 202.071136 236.776840 
261.673035 202.903488 209.168427 210.146103 
207.739975 258.289215 220.744598 208.395462 
219.072128 205.900986 206.216049 207.037354 
0.000000 0.000000 0.000000 0.000000 
239.916153 216.985718 211.768631 218.424911 
220.497009 196.043259 257.307953 192.319077 
300.202423 258.012787 271.905334 254.848160 
327.365662 241.407043 293.693542 245.691010 
307.211975 315.927734 351.884216 267.737579 
304.580475 307.238190 359.293365 296.372986 
323.548798 338.995239 320.848724 356.204681 
222.774323 363.651428 246.520432 227.344116 
223.869919 239.558594 215.936920 221.339279 
224.560211 246.715897 224.937820 219.534454 
224.967422 249.123199 218.631409 214.220596 
242.744843 214.441116 216.198257 214.086639 
212.692093 272.705383 220.812531 216.640152 
336.272980 304.235199 288.927643 340.697418 
0.000000 0.000000 0.000000 0.000000 
0.000000 0.000000 0.000000 0.000000 
0.000000 0.000000 2435.031006 0.000000 
386.803955 362.734528 320.243469 369.225250 
331.698456 349.434296 375.760254 570.225769 
376.471069 279.702118 312.228485 314.886780 
293.970428 274.839233 359.848694 304.294037 
375.346283 316.981171 367.784912 314.758942 
301.730774 301.279144 308.903687 388.343597 
494.246826 276.542358 230.424713 318.593658 
324.076172 282.866608 253.761093 228.702789 
395.960297 641.132996 326.712097 404.842285 
386.400879 422.335724 398.640381 1009.749573 
311.626251 285.465637 332.577515 304.003601 
396.930054 349.069946 348.504272 345.375824 
0.000000 0.000000 0.000000 2856.707764 
0.000000 0.000000 0.000000 0.000000 
199.797485 198.663864 199.361206 218.408783 
198.270691 203.098907 200.386215 227.584656 
204.627808 237.930786 197.663559 207.309692 
211.820831 211.975754 211.708694 242.327301 
202.851303 231.980682 209.252975 208.292023 
246.068039 211.689651 220.853577 210.748825 
210.763702 218.050720 257.612701 205.887817 
225.290466 219.407440 221.825119 233.938278 
234.019119 235.008652 230.502777 244.835236 
179.320114 251.095093 176.049591 174.376312 
219.328964 220.930557 232.893402 217.102600 
188.712967 188.504196 259.828369 183.849167 
186.473068 230.298492 189.464920 182.097717 
190.067245 183.162292 181.657578 263.461731 
195.797943 194.748779 257.579437 204.488922 
266.735718 192.540253 196.236969 187.939468 
205.744858 204.041031 220.321243 203.639206 
211.904404 205.449219 206.100845 232.375137 
235.735931 217.596725 208.171341 217.063278 
220.697830 251.589203 213.056442 212.543671 
250.248505 213.285736 212.876938 226.322464 
265.585907 205.093658 210.302139 214.535599 
201.430710 201.454391 213.689392 279.759644 
222.999802 235.758972 224.391006 272.384186 
228.495209 228.239716 253.572906 233.025436 
183.899078 194.721558 189.252609 223.089294 
243.815506 211.663193 222.702515 233.872009 
191.590622 236.749420 193.051025 196.392776 
195.147491 240.594635 188.579422 185.936249 
186.930878 192.308929 249.330139 186.831818 
188.995041 192.317291 221.675339 189.204803 
188.687073 287.862061 192.154129 185.843170 
0.000000 0.000000 0.000000 0.000000 
232.487244 220.246033 230.969101 225.315399 
218.970230 216.434494 249.789734 217.917801 
255.621140 211.746674 210.620972 207.039505 
296.207855 216.680008 250.024948 242.675568 
228.149109 328.040863 252.201782 240.007614 
232.336777 235.548935 353.571167 229.415665 
312.920197 413.085052 292.587250 317.283112 
255.382019 269.736237 283.425262 227.528778 
195.220917 253.953888 197.439072 187.663116 
192.033081 178.042648 188.979874 228.558289 
240.615845 230.500076 252.679398 241.034866 
208.411240 285.366272 205.484436 211.453903 
253.694077 227.760269 213.655762 203.820190 
236.600601 242.148773 233.407684 234.416351 
0.000000 535.556152 797.030701 497.334076 
0.000000 0.000000 0.000000 0.000000 
0.000000 0.000000 0.000000 0.000000 
475.326752 483.867676 433.792328 511.807129 
589.907776 379.947266 480.124695 505.558441 
0.000000 336.030090 322.004272 301.892151 
241.837479 353.762207 242.667145 246.598541 
484.222015 310.678375 300.379517 307.576447 
482.555817 254.622452 259.272156 276.252502 
293.066620 487.721954 263.834991 258.743713 
414.980896 299.648010 251.031082 273.403870 
282.562775 262.522858 307.940948 269.633331 
400.735107 466.122986 403.710999 565.270569 
342.082794 379.602539 357.931274 336.897614 
368.861481 338.367218 350.676849 695.723755 
1935.450806 0.000000 0.000000 0.000000 
0.000000 0.000000 0.000000 0.000000 
280.630341 261.443481 263.078369 261.566376 
243.464310 250.597580 245.965836 237.129257 
214.508621 222.560989 223.152786 220.193649 
199.443878 261.461151 199.633057 199.416382 
202.297348 201.815292 207.378708 218.883057 
192.333755 239.861588 193.982773 193.944626 
206.397247 187.988052 195.034088 230.649216 
193.663422 193.127426 244.577560 188.777817 
183.371628 252.238495 187.325775 185.010345 
186.721298 260.958740 189.212219 187.179779 
258.026306 263.903656 273.792023 247.008148 
183.887482 189.373993 187.325897 239.333588 
185.139542 253.640625 185.785126 198.478714 
234.341522 233.077728 239.272964 253.728043 
196.638336 213.211929 196.728317 193.759232 
196.859055 206.862030 237.913055 194.870987 
447.056244 312.931915 429.636108 506.436829 
272.978973 306.180298 278.404083 302.779388 
224.290314 220.779938 318.626984 224.388626 
209.534912 218.303497 211.550720 220.722656 
198.121475 199.865234 198.818649 233.915741 
222.940369 206.110535 190.830750 199.214951 
240.172028 184.683411 196.040405 183.908478 
190.279205 230.503723 197.933243 197.264786 
237.204086 193.718292 194.432968 189.262360 
253.278061 265.145905 252.596176 250.337799 
186.783493 189.794861 191.749039 224.945114 
236.849838 185.912491 185.183533 186.571411 
190.933258 236.496490 190.819031 189.043610 
249.172607 264.805420 247.763184 245.197235 
187.125916 213.187378 192.984283 191.343857 
189.275986 187.726562 187.742172 216.803619 
0.000000 0.000000 0.000000 0.000000 
2308.254395 1833.961548 2847.789062 1389.433838 
447.739594 399.890533 401.875305 371.562073 
287.161011 302.270874 301.753418 274.414368 
241.342407 243.625595 248.556503 236.887039 
222.318161 222.361389 273.259247 235.262573 
220.372482 218.618073 224.361359 289.007904 
220.926392 236.142700 218.555099 306.977875 
239.118790 229.857056 228.691055 262.689545 
219.528229 221.739151 212.812088 250.580841 
209.587128 215.491638 198.800079 237.346436 
212.517349 215.794281 216.946045 216.018265 
225.603256 218.293411 253.653946 218.662186 
209.405014 208.022522 204.735672 204.363281 
296.171478 285.403900 236.578995 347.875610 
0.000000 0.000000 0.000000 0.000000 
0.000000 0.000000 0.000000 0.000000 
0.000000 0.000000 0.000000 0.000000 
0.000000 0.000000 0.000000 0.000000 
581.627930 0.000000 52.452305 0.000000 
1232.905884 110.793243 1523.367432 0.000000 
592.572937 579.478699 457.728180 0.000000 
321.045197 303.300262 1107.534668 353.057404 
330.032471 321.202576 336.926300 330.973846 
411.097321 238.794647 237.531708 235.993515 
257.146301 276.775085 273.851868 436.697540 
344.621124 317.775726 290.346649 371.677277 
325.489746 279.527191 284.599396 328.944305 
359.114532 457.979431 551.011414 303.880951 
274.014648 429.170013 370.128937 468.538513 
574.923584 0.000000 0.000000 0.000000 
0.000000 0.000000 0.000000 0.000000 
968.875671 1127.234131 929.079102 898.127136 
484.951965 478.685547 474.042816 471.717712 
289.139618 271.958313 325.238037 329.133484 
187.903214 189.930786 262.582764 199.143845 
259.718201 273.790161 254.659241 263.053680 
244.679489 244.133392 243.108429 250.164627 
251.788834 248.844421 241.405457 250.207108 
247.390198 246.777802 248.618042 269.460327 
244.740204 224.697388 288.773163 224.269592 
240.738525 189.114151 197.349625 196.852676 
221.266159 205.238419 205.179398 199.024200 
190.661133 263.278198 188.481369 204.426361 
227.823730 223.654541 225.860092 226.921112 
234.479324 223.022919 220.714050 229.491928 
215.782394 213.336624 214.923477 239.083099 
227.595993 258.573669 213.115891 229.123428 
1622.462769 1825.945557 1682.486328 1199.615723 
1195.471924 1019.395630 713.995605 1317.566040 
484.818176 471.936981 414.793274 410.918335 
306.194031 320.987000 307.545166 305.680908 
265.355743 258.510254 262.480957 269.731049 
239.889359 248.022598 245.479111 246.823242 
217.478363 217.787186 265.767944 222.874435 
216.133713 283.875458 213.698135 215.424927 
279.366272 221.960876 223.258774 225.241440 
231.173920 225.438446 281.345245 405.433990 
217.751846 217.454071 217.324127 221.238525 
215.921204 215.304382 214.524551 215.364227 
220.192139 222.432297 221.689148 226.742416 
215.729950 211.837509 219.915756 238.222534 
211.420715 204.394714 220.828156 253.621384 
240.534760 228.703659 222.164703 224.096634 
0.000000 0.000000 0.000000 0.000000 
0.000000 0.000000 0.000000 2626.157715 
0.000000 1381.884888 890.402649 848.064880 
443.651917 0.000000 495.924591 491.507416 
320.705994 333.259521 300.868439 316.347015 
274.975861 277.012329 257.663757 247.568817 
224.035538 231.733887 340.470093 223.904388 
284.633087 277.488129 299.443909 267.577454 
285.295685 266.680450 288.420380 291.888275 
259.038818 325.129639 266.584686 250.296356 
263.870636 413.725342 268.519318 262.216492 
632.166748 235.137833 233.881683 233.359024 
214.186050 207.532806 222.334381 221.200211 
203.103180 210.891296 216.175934 208.903839 
217.183380 586.000671 966.063843 0.000000 
0.000000 0.000000 0.000000 0.000000 
484.404724 0.000000 0.000000 0.000000 
0.000000 0.000000 0.000000 0.000000 
168.519577 0.000000 0.000000 0.000000 
0.000000 0.000000 0.000000 0.000000 
1735.917847 0.000000 0.000000 0.000000 
956.710754 0.000000 2169.619629 0.000000 
113.522659 741.545654 976.911377 552.767578 
406.006744 467.528320 515.156372 425.680542 
309.821411 339.453339 269.519073 372.154327 
522.673462 349.766174 334.134460 335.246796 
550.709290 284.045868 274.149811 292.721466 
335.212738 650.129028 402.254181 354.685547 
270.957062 278.552704 571.585693 254.730179 
360.217224 260.864227 269.411346 287.560547 
513.652527 347.596436 464.170166 452.353455 
442.729401 0.000000 869.778564 66.064758 
