1464021
0.000000
0.011248
1465.298584 1274.893799 1386.450439 1329.425903 
0.000000 0.000000 0.000000 0.000000 
1229.276855 1233.546753 1207.078125 1486.411255 
1468.182617 1237.869141 1255.010132 1249.550781 
1277.987183 1270.098389 1275.992920 1433.191406 
1335.602173 1331.930542 1334.784668 1453.085571 
1394.394165 1445.662231 1395.462524 1414.558105 
1530.332642 1576.311523 1538.110107 1571.038696 
1727.930542 1669.514160 1679.804321 1715.245728 
1800.288330 1794.480469 1792.683960 1793.910034 
1695.620483 1746.579346 1706.525635 1910.958862 
1358.678101 1275.125122 1282.303467 1291.906006 
1328.090820 1334.594971 1353.613403 1334.219727 
1336.833984 1329.525269 1329.514771 1330.314331 
2023.862305 2049.620117 1630.687134 2917.052002 
4913.156738 3400.898193 1964.574707 1898.593750 
5431.897461 4203.213379 1411.399902 2262.758789 
6172.479004 1847.077026 3768.937500 2219.732666 
1329.884644 1317.686279 1319.875366 1291.968384 
1351.204712 1374.998169 1355.897583 1366.056030 
1320.772949 1339.802734 1319.876343 1331.773926 
1314.311523 1323.893066 1329.967285 1338.140869 
1399.065552 1437.671509 1409.098145 1409.610718 
1419.463013 1417.125854 1426.892456 1419.676392 
1422.145508 1424.800415 1421.107910 1425.806152 
1447.886719 1459.453491 1458.375732 1446.859863 
1473.378662 1478.696289 1474.102539 1485.020996 
1829.944214 1806.040161 1808.171997 1829.669312 
2078.858887 2223.441895 2078.283447 2025.047852 
1667.777222 1536.939575 1553.757812 1598.374023 
1332.734009 1339.523926 1336.821533 1337.688477 
3158.504883 1850.698486 3109.151367 3603.275391 
4951.125977 3631.437012 2524.162109 2051.890381 
2564.552979 2791.198975 2533.236084 9275.088867 
3678.817383 11076.040039 1944.059082 1177.446533 
1434.254639 1437.123413 1508.774780 1462.891479 
1330.332642 1344.711792 1322.846680 1327.778076 
1530.403442 1464.080688 2527.027832 1397.406372 
1505.898682 1582.163208 1568.972168 2518.923828 
1584.183594 1756.793579 1539.095825 1571.610229 
1641.967041 1655.756714 1639.881958 1645.052246 
1716.517212 1732.737305 1709.254883 1723.468262 
1668.883423 1648.348389 1658.886475 1661.606812 
1952.612061 1986.157471 1980.605835 1979.988403 
2146.375732 2124.540771 2041.344116 2109.385498 
6313.958008 3889.529297 4354.115723 2162.691895 
2091.042480 7865.048828 2160.850098 1935.371826 
5005.934082 9805.622070 12028.921875 9216.896484 
0.000000 0.000000 0.000000 0.000000 
0.000000 0.000000 0.000000 0.000000 
2047.811157 1449.545654 1851.625732 1439.160156 
1860.741455 1751.863159 1515.491577 1592.168579 
1812.686157 1659.197388 1532.270630 1751.497437 
1562.155640 1809.785522 1554.894165 1582.483643 
1652.517456 1653.240479 1683.089966 1655.595703 
1678.784180 1707.413574 1726.891113 1613.411743 
1850.630493 1875.560425 1823.936401 1847.366089 
1538.206909 2207.199707 2411.096924 2344.593994 
1579.208374 1572.438110 2530.513184 2947.744873 
1595.329590 1644.140137 1615.600464 4481.049805 
2202.207275 4334.837402 7579.450195 0.000000 
13098.796875 0.000000 9335.266602 14725.490234 
839.195190 0.000000 0.000000 0.000000 
11860.003906 0.000000 0.000000 0.000000 
0.000000 0.000000 13461.191406 0.000000 
2686.878174 0.000000 871.389160 0.000000 
1146.630493 1450.986938 1194.237793 1150.813232 
1188.240967 1445.355835 1190.168701 1192.165771 
1196.060303 1183.465820 1291.355957 1200.161133 
1211.417603 1221.950317 1262.459229 1216.700806 
1231.326294 1420.936157 1248.145142 1259.782837 
1335.934204 1215.873291 1193.605835 1221.644775 
1216.507446 1230.174561 1218.824097 1217.256836 
1311.489380 1312.699585 1300.270508 1284.123779 
1235.805786 1257.394775 1240.244019 1241.985718 
1366.651001 1387.264648 1357.493652 1349.166016 
1404.718018 1410.866211 1422.335449 1422.920166 
1447.964233 1440.320068 1415.175171 1462.447998 
1461.185547 1467.586426 1466.534424 1461.555420 
1504.759277 1496.578369 1546.053467 1506.809082 
1481.874023 1479.332520 1472.812256 1478.816162 
1595.345581 1580.767334 1574.835449 1733.216431 
1274.315552 1112.177490 1089.511719 1103.666138 
1172.589600 1170.645752 1168.356079 1192.043579 
1179.572754 1180.174072 1175.829590 1178.577026 
1430.482666 1241.811401 1238.395142 1242.770874 
1267.480469 1264.981445 1299.110596 1468.123901 
1306.083374 1318.194214 1316.744629 1348.352051 
1291.752197 1293.652588 1294.106812 1282.772339 
1452.767212 1315.762329 2468.506836 1371.081543 
2453.222412 1350.636108 1460.199219 1442.817017 
1419.872559 1352.658081 1424.573486 2443.265137 
1444.280762 1380.565918 1439.391113 1568.111450 
1459.571167 1430.890503 1512.008057 1518.825073 
1561.595337 1603.404663 1617.052612 1628.278931 
1963.452271 2045.384155 2297.504395 2060.391357 
1561.372803 2911.013916 2878.306885 2978.244629 
2170.426514 1590.571533 2140.607422 3214.223877 
0.000000 2558.479980 2223.177490 8085.362793 
1206.633667 1199.346436 1198.629395 1205.931519 
1435.071533 1321.549683 1328.015381 1322.366089 
1474.615601 1418.618774 1424.230591 1414.207031 
1486.368896 1487.721191 1465.553223 1530.164917 
1500.086914 1479.125122 1568.168945 2502.122559 
1502.237915 1845.650146 1499.088989 1501.350952 
1590.909424 1583.807495 2477.358643 1494.381714 
1676.790894 1418.883545 1430.792847 1435.733765 
2429.056152 1530.079102 1559.355713 1543.343750 
1598.503906 1606.194702 1597.395752 2418.665283 
1559.420776 2404.703369 1603.434204 1561.209229 
1641.253784 1603.027832 1600.725342 2394.678467 
2400.491211 1588.921753 1873.302612 2412.745117 
9682.417969 3529.464111 1474.111084 8468.518555 
0.000000 0.000000 0.000000 0.000000 
0.000000 0.000000 11086.226562 0.000000 
2271.334473 2308.809570 3035.526855 3785.996094 
2214.357910 1632.025513 1592.267212 1669.156006 
2175.959717 2007.882446 1775.820679 1636.133301 
1685.481323 1663.899170 1899.658936 1640.874146 
1474.484863 1439.114380 1645.570923 1470.680664 
1564.081665 1533.556152 1565.945923 1564.740112 
1401.869507 1437.836182 1415.897461 1587.254028 
1582.228149 1544.790649 1557.463013 1593.624756 
1632.147583 1873.583374 1973.262207 2117.670410 
1757.434204 1771.398682 4180.424316 2138.224121 
1916.845459 2037.608032 1872.268433 1881.324585 
2089.965576 2113.367676 2087.455322 5861.012695 
0.000000 0.000000 0.000000 0.000000 
0.000000 0.000000 0.000000 0.000000 
0.000000 0.000000 0.000000 0.000000 
1108.418579 1394.575806 1096.050537 1105.864136 
1167.113403 1164.039185 1158.440674 1372.822510 
1160.216675 1173.334595 1436.480957 1179.925171 
1185.443970 1376.946045 1193.566528 1187.745117 
1203.445068 1201.088135 1347.983887 1200.776611 
1220.188721 1196.426392 1266.171753 1450.127808 
1243.358276 1239.423218 1390.805054 1239.705444 
1221.422852 1219.503906 1218.123413 1381.564209 
1233.002930 1236.706177 1231.016724 1354.092896 
1226.154419 1346.518188 1232.330933 1229.136719 
1175.019287 1160.867310 1183.334351 1466.504028 
1197.939697 1204.636963 1206.127930 1437.143188 
1200.822021 1469.761353 1227.614136 1228.017456 
1215.798706 1207.588257 1221.279785 1439.097290 
1245.438232 1238.760132 1543.914307 1251.166504 
1359.172852 1431.231689 1348.153442 2347.090088 
1251.121460 1249.119385 1245.441162 1434.557617 
1156.039673 1156.155884 1405.188965 1154.125244 
1221.400391 1216.322144 1395.133301 1217.619995 
1182.147949 1183.243286 1387.813232 1193.191528 
1232.247559 1231.381104 1232.130859 1403.885620 
1453.699463 1245.035645 1208.611694 1212.166870 
1569.536621 1260.056396 1268.330078 1262.623901 
1327.344360 1430.259766 1307.224731 1330.129761 
1376.469971 1505.289185 1369.004395 1359.324219 
1334.116211 1416.714233 1301.003540 1270.709106 
1215.017700 1453.675049 1215.900024 1218.816040 
1191.722534 1180.913452 1440.049683 1199.628906 
1238.358276 1456.357422 1225.919678 1216.687500 
2370.903809 1254.713257 1323.957031 1251.753662 
2356.825439 1349.351929 1436.505493 1308.430664 
1397.736206 1395.376099 1398.296631 1782.524902 
1814.668823 18471.566406 0.000000 15500.190430 
1241.386719 1232.273926 1230.360107 1340.466553 
1140.002441 1396.015503 1109.399902 1127.564087 
1183.446899 1190.306519 1369.308105 1190.679199 
1284.928711 1288.194824 1300.440796 1461.531860 
1246.066162 1233.552612 1385.353149 1232.523071 
1300.405029 1308.285278 1290.195679 2493.902588 
1410.603516 1647.949585 1419.696167 1437.264648 
1970.943848 1406.780518 1404.760620 1409.726318 
1464.501831 1413.363403 1433.128784 1411.377319 
1419.508545 1434.236694 1399.854370 1538.359497 
1224.418945 1450.965698 1224.243408 1223.413940 
1439.286743 1384.094727 1383.540283 1425.343994 
2380.533447 1413.692749 1479.153687 1528.773926 
1503.765869 2002.081177 1492.869873 1946.803101 
0.000000 0.000000 0.000000 0.000000 
20367.498047 0.000000 0.000000 0.000000 
2140.018799 1955.137817 2563.295166 3871.919434 
1967.510376 2121.985107 2079.322510 1614.416382 
2436.556152 3013.546875 3138.354004 2535.041016 
1855.289062 1903.173340 1985.988281 1924.666626 
1509.750366 1559.712646 1581.356201 1537.234619 
1366.739136 1362.029297 1650.191895 1348.231201 
1250.137451 1224.076172 2305.688965 1226.291138 
1363.082153 1350.257446 1348.092896 2431.214111 
1431.312744 1407.258423 1405.781128 1389.370483 
1688.281982 1713.514038 1764.306396 1662.820557 
1649.299072 1636.565430 1628.560913 1616.845581 
2084.224121 1370.028320 1860.136719 1412.621582 
9009.449219 7407.762695 6862.850586 6614.533691 
0.000000 0.000000 0.000000 0.000000 
0.000000 0.000000 0.000000 0.000000 
1130.605957 1449.141479 1127.715820 1122.104248 
1165.747437 1163.271973 1171.635620 1345.805664 
1062.083984 1452.088989 1122.145996 1101.291260 
1242.328491 1304.503174 1267.056152 1270.013794 
1596.518188 1324.536377 1318.802612 1325.046753 
1422.358521 1241.763916 1258.270386 1242.611938 
1277.581055 1373.835449 1269.089844 1275.376709 
1427.784180 1482.948608 1455.136108 1451.585205 
1373.570190 1418.428467 1364.030029 1394.416870 
1282.844604 1390.655518 1291.983643 1308.386230 
1136.436157 1123.798706 1133.835449 1377.863403 
1218.499268 1233.861572 1189.202271 1217.927368 
1276.352539 1228.154907 1219.259399 1249.613037 
1183.085938 1175.137207 1181.478394 1367.482666 
1255.032959 1246.424805 1460.333008 1274.713013 
1236.006958 1268.446167 1254.889282 1380.222290 
1405.561035 1323.784424 1323.524292 1322.296387 
1402.344604 1194.587769 1195.130737 1204.420898 
1392.191772 1159.496216 1148.886841 1152.276367 
1378.624634 1345.824219 1362.661011 1357.982666 
1368.705933 1687.542603 1362.182983 1366.498047 
1412.430908 1427.652100 1451.439087 1394.711914 
1371.454834 1402.530396 1351.394409 1386.581299 
1456.256470 1437.749390 1443.833008 1441.620605 
1395.457275 1402.669800 1400.847656 1395.590576 
1288.657471 1401.324707 1275.358398 1296.859741 
1399.610962 1142.208618 1137.702759 1128.671509 
1321.625977 1264.873291 1262.016968 1256.594727 
1346.125000 1378.932617 1326.187134 1341.145996 
1230.125488 1416.532227 1219.161499 1225.870117 
1556.055664 1260.742676 1261.570435 1264.605347 
1291.597778 1289.586548 1491.597656 1271.435303 
39511.660156 0.000000 0.000000 0.000000 
1378.120361 1380.489624 1389.543457 1382.822144 
1293.607910 1306.057983 1310.368652 1454.626343 
1455.142212 1430.371460 1434.185059 1462.192627 
1323.305542 1312.938232 1611.388428 1329.393066 
1490.295654 1490.837769 1566.277100 1489.301758 
1420.724976 1472.217407 1412.753052 1420.330566 
1425.884277 1446.636597 1429.206543 1443.329102 
1353.223145 1349.352539 1368.765015 1342.329346 
1394.828369 1356.358154 1402.380249 1591.710938 
1331.944336 1331.095947 1356.870605 1331.297363 
1450.491089 1396.095337 1488.342407 1441.230957 
1473.886230 1353.312744 1406.002197 1396.555420 
1375.409668 1414.193481 1332.598755 1366.889648 
1454.286011 1464.578613 1461.858398 1464.606079 
0.000000 0.000000 0.000000 0.000000 
0.000000 0.000000 0.000000 0.000000 
1753.230225 1630.319214 1595.038330 1740.554565 
1926.610840 2053.566650 1953.412720 1965.722534 
1567.395874 2005.460815 2389.863770 2159.560303 
2075.022949 1654.360596 1675.818481 1763.999878 
1713.617676 1815.597534 1771.608154 1800.955811 
1616.526611 1383.794678 1351.301270 1376.153809 
1309.958130 1343.349731 1286.322388 1497.969360 
1224.594727 1241.632324 1253.829834 1434.736816 
1471.479370 1484.144043 1452.525757 1464.578491 
1509.049316 1522.433105 1526.569702 1503.684937 
1603.333862 1551.307739 1779.736572 1445.970825 
1606.703125 1563.945068 1504.381226 1569.425415 
2374.854492 1660.721680 1668.432617 1725.077148 
2777.130859 0.000000 0.000000 0.000000 
0.000000 0.000000 0.000000 0.000000 
1420.492065 1189.237305 1179.282837 1198.427734 
1294.941895 1324.343018 1318.234985 1448.069092 
1294.765137 1477.456421 1320.911499 1311.027222 
1262.085938 1270.481812 1477.797363 1272.794434 
1200.885986 1195.845581 1405.895020 1193.964111 
1251.814087 1261.829346 1286.057495 1429.330200 
1338.183838 1781.666748 1321.583862 1345.395752 
1382.281616 1389.906250 2395.934570 1403.564697 
1651.247559 1324.823608 1324.272705 1365.193970 
1199.232300 1187.864990 1210.038818 1251.504639 
1160.906128 1266.404663 1158.179199 1170.961426 
1467.851562 1133.347534 1111.636963 1120.534302 
1304.878906 1298.707031 1333.770264 1340.563354 
1237.114258 1281.110107 1220.472656 1242.459717 
1214.788818 1191.491821 1216.663452 1411.442993 
1137.641357 1148.264404 1143.332520 1463.900513 
1364.052734 1441.267456 1362.588379 1368.113281 
1354.567993 1480.536621 1377.612427 1285.027588 
1333.742310 1569.632446 1324.381714 1333.594604 
1685.451538 1322.273193 1330.738770 1358.913818 
1528.108521 1292.372070 1283.746582 1283.255737 
1328.171631 1331.150513 1330.201294 1442.182495 
2078.546387 1368.172607 1338.702881 1382.347290 
1373.001099 2475.803955 1376.021729 1368.036621 
1353.547729 1357.067383 1379.930542 2132.762451 
1248.756714 1275.272217 1244.743774 1245.399292 
1237.789673 1213.374756 1232.860352 1230.772949 
1259.783813 1306.608887 1247.597412 1236.427856 
1336.795898 1274.836914 1345.448242 1360.867798 
1310.147949 1307.726685 1340.622192 1302.869263 
1299.869629 1295.015259 1331.281494 1306.814819 
1509.864258 1373.322876 1382.099365 1362.745117 
0.000000 0.000000 0.000000 0.000000 
1359.276367 1364.071167 1471.208618 1340.315063 
1328.240356 1514.289307 1343.817505 1324.265869 
1343.452759 1338.563477 1805.322021 1342.623901 
1666.088989 1322.527710 1324.368774 1321.059570 
1396.527954 1400.811523 1640.301514 1386.013184 
1391.915161 1396.336548 1534.785767 1388.453613 
1353.408813 1351.045166 1346.766113 1403.682861 
1369.037964 1353.145996 2450.073730 1367.035034 
1367.549194 1394.274780 1373.592651 1364.657837 
1393.062134 1384.494995 1484.826294 1388.052490 
1419.656006 1432.357056 1419.167847 1545.604614 
1448.737061 1643.169189 1471.591675 1463.915405 
1351.991455 1346.782471 1456.268433 1346.686523 
1892.703003 2003.174072 1900.936401 1866.551636 
9738.761719 0.000000 0.000000 0.000000 
0.000000 0.000000 0.000000 0.000000 
0.000000 7376.585938 0.000000 0.000000 
2039.711182 1913.871582 1511.952026 2017.435547 
1947.850586 1525.623047 1881.960571 1779.827881 
1939.347534 2027.611694 1940.881836 2076.312500 
1377.406738 1363.442993 1504.315552 1370.770264 
1661.484131 1421.202271 1395.421631 1398.494507 
1320.062378 1234.716797 2496.240967 1291.416382 
1194.068604 1193.000732 1220.969482 2552.236572 
1399.827759 1534.939697 1402.519531 1399.662964 
1843.994751 1824.849243 1773.277832 1891.197388 
1779.150391 1750.898682 1761.351196 1743.032471 
1630.900879 3149.175781 1658.234131 1684.506958 
1673.486206 1676.877197 1707.350464 1712.929932 
3323.902832 0.000000 6821.456543 0.000000 
0.000000 0.000000 0.000000 0.000000 
1318.447876 1458.762817 1316.849731 1340.722656 
1237.025146 1422.965454 1283.967773 1249.374634 
1273.731201 1444.583374 1278.802124 1296.381348 
1310.754883 1318.199829 1442.242798 1307.107788 
1270.558960 1232.286621 1233.588135 1455.124390 
1242.369995 1210.558960 1216.326050 1467.882080 
1469.756714 1223.786987 1238.622314 1231.024658 
1213.954834 1428.348755 1215.963135 1198.198730 
1179.762085 1427.913696 1175.131836 1180.355347 
1430.362061 1171.016846 1166.830933 1171.264282 
1095.100098 1103.581909 1091.310425 1440.428101 
1442.037354 1117.879272 1092.536743 1123.298462 
1387.125610 1191.685303 1160.347290 1205.718018 
1205.917603 1196.774536 1203.440552 1259.627930 
1187.875610 1204.952026 1422.987671 1194.730469 
1153.509277 1463.664551 1167.704346 1156.532593 
1395.661377 1474.407593 1397.466919 1403.949707 
1332.842529 1324.116211 1321.918091 1482.821899 
1339.302612 1333.530396 1447.360962 1296.780029 
1444.289307 1339.171387 1304.302856 1356.279785 
1302.880127 1322.746338 1308.374512 1453.869385 
1456.016479 1288.989868 1276.578125 1210.957397 
1481.509277 1258.275757 1256.689697 1264.669678 
1245.312256 1374.737305 1254.037842 1234.179199 
1339.710938 1277.136719 1278.935791 1279.580566 
1407.618530 1207.671509 1208.638550 1233.346802 
1243.691162 1274.379517 1451.738647 1257.106323 
1251.338623 1261.843994 1449.360352 1222.912476 
1271.137573 1271.397949 1268.225952 1356.153442 
1338.992432 1234.970337 1286.195312 1239.392700 
1221.709961 1266.881104 1227.908813 1222.937134 
1478.213257 1199.204346 1194.265259 1192.359009 
0.000000 0.000000 0.000000 0.000000 
1501.209229 1525.459229 1545.021362 1500.825928 
1393.653320 1504.980713 1395.087402 1405.813477 
1333.993286 1335.543823 1333.740356 1455.075806 
1320.077393 1301.806641 1416.716064 1314.450317 
1320.069458 1340.595215 1762.223755 1324.599731 
1318.995972 1306.439697 1930.259766 1308.800781 
1589.568726 1317.362671 1332.767456 1311.052490 
1304.611938 1312.165527 1293.562866 1394.444092 
1283.534058 1294.797241 1393.730591 1290.251465 
1269.879639 1323.763794 1277.102173 1269.982056 
1229.135498 1235.053955 1454.639526 1221.403198 
1323.645996 1322.350342 1632.163452 1322.584229 
1389.718872 1380.575806 1341.942017 1377.620361 
1452.561279 2232.937988 1458.048462 2451.464355 
2524.579102 2869.214355 2526.688721 3320.227295 
0.000000 0.000000 0.000000 0.000000 
1889.781616 0.000000 0.000000 0.000000 
2135.318848 2157.090332 1824.179443 2088.450928 
1877.250000 2545.862305 1583.682251 1577.759277 
1550.955322 1721.700195 1746.945679 1726.691650 
1478.166626 1511.701294 1492.978760 1478.789185 
1371.116577 1318.963257 1326.049561 1322.502686 
1229.892700 1605.222656 1242.495605 1227.264648 
1722.118042 1302.279297 1315.571167 1325.567627 
1592.268311 1312.656738 1286.939819 1284.012817 
1262.542969 1270.536499 1182.890381 1877.036499 
1798.344971 1826.316772 1863.180542 1935.198975 
2232.124512 1784.150513 1528.958496 2033.569824 
1665.807007 2944.893799 3382.789307 2487.076172 
0.000000 0.000000 6589.847656 2515.443115 
0.000000 0.000000 0.000000 0.000000 
1541.235596 1530.052246 1526.806030 1510.375000 
1617.702271 1645.770020 1644.132202 1624.399292 
1486.547119 1489.279541 1487.798096 1496.889404 
1335.148438 1283.812866 1296.715820 1293.179810 
1371.629883 1253.399536 1302.331787 1308.638916 
1287.943848 1280.982666 1268.053711 1288.505981 
1217.784424 1189.971680 1179.033203 1428.200317 
1209.673828 1289.665283 1225.993286 1229.037842 
1186.922241 1235.546509 1194.117798 1210.525513 
1220.985596 1198.518188 1200.561157 1335.425537 
1376.731812 1211.513672 1192.860352 1227.873657 
1440.364502 1236.269287 1256.201416 1251.856323 
1331.145630 1228.082520 1236.727173 1240.781250 
1439.080933 1214.810181 1233.349976 1233.984009 
1210.376953 1214.338013 1249.352539 1213.999878 
1197.817993 1175.765015 1184.466309 1191.186157 
2480.206543 2450.050293 2437.142578 2681.960693 
2045.998901 2074.072754 2168.022705 2081.164795 
1590.913818 1575.050415 1541.079712 1584.824341 
1330.570435 1328.488281 1467.461182 1346.442139 
1388.039062 1258.946411 1251.086548 1263.259521 
1245.404541 1401.447632 1248.105835 1242.102417 
1396.048462 1299.699219 1270.701782 1293.015381 
1323.772095 1327.291138 1319.218506 1439.690308 
1474.087280 1288.903320 1292.813599 1302.429810 
1270.024780 1265.712524 1267.968384 1548.919922 
1324.019531 1244.353882 1539.567993 1315.899414 
1302.998779 1303.092529 1302.677612 1654.518799 
1269.066895 1442.808838 1253.904541 1267.922241 
1221.540894 1221.972168 1214.866699 1381.049194 
1250.258423 1432.916260 1253.308105 1242.839600 
1186.171265 1190.803223 1190.233887 1193.555542 
0.000000 0.000000 0.000000 0.000000 
4846.841797 1850.378662 1808.812256 1894.715332 
2227.623535 2636.058838 2644.974609 2568.279785 
1770.805298 1759.390991 1795.215698 1853.736084 
1623.941528 1723.144043 1598.454712 1598.686768 
1383.914307 1380.479370 1387.941528 1367.938232 
1367.772949 1367.503906 1435.218384 1369.255005 
1400.993408 1353.493164 1349.637695 1347.053711 
1330.395874 1322.804077 1442.639771 1327.412476 
1414.295410 1463.160278 1418.766968 1417.583008 
1390.548706 1393.567017 1403.404663 1491.476318 
1308.712769 1355.277344 1308.197876 1308.559326 
1328.697998 1318.777344 1315.104614 1454.865967 
1322.395508 1351.454224 1360.400146 1347.029297 
1356.009399 1359.532349 1347.310547 1347.219727 
0.000000 0.000000 0.000000 22092.369141 
170.343887 0.000000 0.000000 0.000000 
0.000000 0.000000 0.000000 0.000000 
0.000000 1894.365601 11735.318359 0.000000 
3399.619629 6667.820312 3258.801270 3520.001465 
3256.536133 3205.985352 2561.297607 4741.735352 
1725.629517 1819.736938 1702.118042 2181.446777 
1622.864380 1605.493164 1594.892090 1655.244019 
1321.460449 1361.157593 1315.179932 1313.844727 
1279.771851 1297.135742 1409.930908 1292.198730 
1188.067139 1193.088013 1185.816406 1320.530640 
1458.925415 1428.470947 1415.220947 1452.958740 
1653.623779 1675.626953 1669.126953 1705.843262 
1464.361694 2006.945801 2317.692871 1925.845947 
2797.971436 2802.025879 2425.335449 2081.180908 
4724.300781 3138.041260 5611.800293 3696.563477 
0.000000 0.000000 0.000000 0.000000 
2570.360840 2312.855957 1727.362183 4085.901123 
4127.278809 2598.883789 3053.820068 1607.147461 
2345.011475 1468.966187 1995.643677 1445.998291 
1308.455566 1220.292603 1211.278687 1264.058228 
1349.615723 1789.460938 1386.311768 1631.857788 
1600.710327 1608.963257 1582.516602 1562.511597 
1363.043701 1492.355835 1456.635620 1480.976196 
1581.773193 1679.783691 1616.035156 1598.142944 
1589.853149 1570.013672 1639.296753 1586.383057 
1527.453613 1501.835083 1522.253418 1446.009033 
1328.245728 1334.201538 1339.780762 1456.072144 
1325.388794 1325.786133 1344.379395 1468.599731 
1440.511475 1398.738281 1436.547852 1452.199097 
1419.148438 1389.551270 1381.262085 1378.605469 
1364.165161 1374.325317 1350.665039 1353.311279 
1330.341675 1360.631104 1315.672363 1326.491577 
8307.473633 3041.046387 2878.423828 3007.192871 
1782.589355 1731.233765 4907.623535 3641.953613 
2596.306396 1992.199463 2821.265625 3430.815430 
2197.673096 2218.655029 2196.188477 2479.103271 
1468.178955 1336.635864 1348.351685 1325.899170 
1702.791870 1692.299561 1672.065674 1738.625488 
1696.240234 1708.577026 1737.954468 1725.125854 
1692.611694 1682.566650 1707.574585 1699.025879 
1658.101562 1676.048462 1650.893188 1682.057129 
1327.781982 1454.071167 1330.871582 1323.347656 
1635.375366 1642.567505 1618.173828 1608.487183 
1539.285156 1522.625366 1534.696167 1521.635010 
1439.241455 1446.922974 1437.104614 1439.133057 
1338.458740 1338.581909 1342.874268 1338.804565 
1322.798584 1299.593750 1341.661011 1300.826538 
1520.544067 1502.344238 1491.459473 1516.447632 
0.000000 0.000000 0.000000 0.000000 
3724.170410 2431.697510 3297.773926 10957.226562 
2574.118164 6291.500977 1668.058472 1635.209106 
1627.629272 2544.822754 2761.199707 2609.507568 
2122.068359 1938.326294 1969.191895 2085.902588 
1993.742432 1976.856323 2020.139038 1990.268799 
1919.379150 1914.313599 1903.599365 1884.399170 
1847.513306 1856.572754 1840.121826 1835.693237 
1812.651489 1769.870850 1744.996948 1760.756348 
1647.049683 1639.814697 1634.040771 1633.258179 
1529.546631 1579.722412 1556.545288 1546.989868 
1453.044922 1511.751099 1435.864014 1435.467651 
1464.291016 1435.360107 1466.823853 1453.420410 
1318.712524 1324.644165 1334.822510 1340.591309 
1554.183838 1680.805298 5451.139160 1663.312134 
0.000000 0.000000 0.000000 0.000000 
1472.255005 1783.818848 7955.499023 0.000000 
0.000000 6264.002930 0.000000 0.000000 
0.000000 0.000000 18843.199219 0.000000 
0.000000 35374.500000 19921.628906 0.000000 
9407.299805 14138.262695 19716.404297 9260.086914 
5337.942383 3663.753174 6617.047363 2993.133301 
2449.613037 1761.762329 2329.449463 2437.755371 
1973.021851 2059.740234 2256.377441 2038.763062 
1777.778809 1751.101562 1762.480347 1762.522705 
1570.368652 1546.569214 1566.531982 1570.541626 
1531.905518 1537.599243 1567.351807 1546.153564 
1567.788086 1564.367554 1503.468018 1607.699463 
1572.362305 1568.924805 1515.173096 1738.920898 
1516.182495 1426.276978 1180.355103 1443.787354 
1516.237061 1573.949463 2053.970703 2546.031982 
2385.693359 1980.916992 1794.873779 2206.400635 
1475.492432 1337.460327 1299.683960 1266.685791 
0.000000 0.000000 0.000000 0.000000 
1224.360962 1218.785034 1247.807251 1471.631348 
1461.517334 1244.876343 1281.461548 1185.895874 
1276.583740 1284.360962 1277.650024 1448.325806 
1324.874756 1329.459106 1327.190796 1452.727173 
1416.097656 1445.840210 1414.950317 1395.502686 
1591.908813 1534.422852 1582.029419 1549.709229 
1688.262329 1737.633667 1732.219971 1691.598999 
1731.614746 1747.296875 1755.360840 1741.630981 
1843.380981 1769.963013 1811.541748 1603.014526 
1354.065430 1321.877197 1315.014038 1305.128662 
1322.821167 1316.133301 1347.202271 1316.729736 
1340.061279 1336.597290 1336.622437 1335.826660 
2029.222168 2083.046875 1737.140869 2939.226074 
1844.552124 3785.426025 1824.047852 1838.461060 
1835.561035 4392.658203 1916.799927 1812.369141 
6193.487305 2406.196777 3553.701660 3828.851562 
1263.552124 1285.167236 1308.457031 1312.221313 
1361.036377 1328.801514 1355.657349 1379.256592 
1319.562256 1303.990234 1332.122559 1313.021484 
1335.285278 1327.888916 1324.648193 1318.032227 
1409.402832 1439.161133 1398.990356 1399.303101 
1415.997681 1418.456421 1427.586670 1415.874390 
1427.582764 1424.917358 1428.793579 1423.945557 
1447.963013 1436.405640 1436.725830 1447.865234 
1508.674561 1504.806763 1509.043457 1497.499146 
1820.948853 1848.011841 1850.070557 1822.219604 
2005.136230 1882.684326 2007.860596 2054.286621 
1769.807861 1624.906616 1611.263916 1563.642578 
1340.651123 1333.852417 1336.516724 1335.573486 
1817.413086 1902.060059 3092.589600 2941.133789 
5660.107910 2718.276855 2498.190430 2684.328613 
2499.704346 2702.156494 3077.560059 9273.124023 
1972.565186 8660.910156 3652.483643 4162.824219 
1567.778076 1563.599609 1492.125122 1555.371460 
1340.628174 1323.471069 1345.803345 1341.004395 
1503.266724 1484.544434 2531.933105 1471.111206 
1549.033569 1519.924072 1465.816650 2514.689453 
1534.776245 1690.094727 1577.110596 1544.715088 
1651.878784 1677.479736 1654.688843 1649.676270 
1737.587036 1724.800781 1744.986694 1735.650757 
1660.432983 1682.043823 1669.335815 1667.302124 
1940.118164 1906.980591 1912.774414 1913.477417 
2131.977539 2164.678467 2243.117676 2174.355957 
1772.373413 1744.903809 4969.862305 1808.639404 
1901.967529 7406.183594 1862.807007 2023.974365 
10309.214844 7747.097168 2781.794434 6022.133789 
0.000000 0.000000 0.000000 0.000000 
0.000000 0.000000 0.000000 0.000000 
1936.563843 1982.022095 2112.743896 1550.227905 
1642.476440 1754.406982 2005.681030 1915.243286 
1685.578491 2012.918091 1962.969360 1752.227783 
1512.014771 1646.343506 1513.602173 1483.818848 
1734.158325 1729.917603 1689.899658 1699.486084 
1741.982056 1729.627808 1709.031982 1752.407104 
1810.141602 1796.456299 1847.997803 1820.313232 
1547.817139 2325.314941 2128.344238 2196.101807 
2399.487549 2862.523926 2495.474854 2013.480469 
1668.334839 1621.897095 1644.890625 5276.911621 
8230.726562 5945.618652 7972.881348 0.000000 
0.000000 0.000000 7277.474121 2100.074463 
2591.915039 0.000000 0.000000 0.000000 
8426.017578 0.000000 0.000000 0.000000 
0.000000 0.000000 8110.985840 0.000000 
10662.445312 0.000000 0.000000 0.000000 
1189.094238 1458.763916 1129.714478 1183.951294 
1204.808838 1444.522095 1202.824219 1200.945190 
1198.567993 1210.102051 1255.911011 1193.965820 
1223.528931 1212.505005 1298.247437 1216.968994 
1249.721069 1423.404175 1242.775513 1232.794434 
1332.149048 1221.979004 1247.186279 1220.807129 
1213.248169 1200.776245 1234.066528 1213.633667 
1339.172852 1292.127563 1304.249023 1320.522827 
1264.439941 1248.319092 1262.610718 1263.105713 
1327.097656 1371.996460 1336.268433 1345.364258 
1428.185913 1428.427734 1419.916870 1417.712891 
1429.866821 1422.662354 1451.158447 1412.228271 
1472.706665 1458.993530 1486.678833 1393.750732 
1477.186035 1485.505737 1585.789062 1475.252930 
1475.457275 1479.094116 1486.220581 1478.548462 
1524.241577 1539.085693 1545.155151 1634.589233 
1259.597412 1126.387817 1147.684204 1134.971313 
1144.540283 1146.733765 1149.286743 1209.057983 
1204.908203 1188.647339 1191.971436 1189.160156 
1427.962524 1244.512329 1254.469971 1250.489380 
1279.575684 1261.613159 1267.463257 1461.428467 
1317.552124 1305.291626 1307.206055 1318.099121 
1293.435669 1322.523315 1290.948608 1303.970337 
1547.353027 1434.306519 2465.253906 1409.632812 
2455.810303 1388.242432 1403.583252 1339.199219 
1477.617920 1404.063354 1385.454590 2441.185791 
1409.721680 1470.268066 1416.207886 1413.108521 
1493.489868 1513.932373 1441.094116 1483.830566 
1617.315308 1566.470947 1550.568359 1550.604858 
2273.681152 2174.505127 2341.226807 2180.154541 
2304.787598 2860.627441 2886.328369 2793.963867 
4786.024414 4022.637695 2803.998291 3719.387695 
2972.414551 2594.540039 2659.333252 6439.898438 
1188.450684 1195.312134 1195.724121 1188.226318 
1437.455078 1338.140869 1330.395996 1330.368530 
1455.265869 1411.135132 1406.136597 1410.593140 
1438.706543 1435.427246 1456.608643 1545.020996 
1453.634644 1467.215942 1479.660889 2506.419678 
1497.699463 1869.773438 1502.866699 1498.844482 
1558.707275 1480.941162 2481.255371 1572.421143 
1832.846680 1418.577026 1408.883179 1406.723145 
2430.864258 1483.540527 1600.809204 1482.560547 
1534.206299 1579.844116 1547.167480 2416.880615 
1596.013184 2406.622314 1556.807495 1595.344482 
1561.596924 1559.650635 1585.007690 2392.571533 
2808.983887 2043.169434 1593.929932 2646.874512 
0.000000 6399.350098 0.000000 1605.134888 
0.000000 0.000000 0.000000 0.000000 
0.000000 0.000000 8776.681641 0.000000 
2407.351807 2182.945557 3128.842041 2428.208008 
2594.304199 1897.744873 1486.776733 1826.188965 
1713.297119 1968.983643 2099.978027 1575.240234 
1674.295288 1701.507935 1964.213745 1729.046509 
1492.574341 1524.126709 1578.144043 1496.975708 
1563.981934 1594.320801 1715.657959 1562.255615 
1421.698364 1385.132446 1421.906372 1589.947510 
1562.556885 1712.094849 1586.599854 1541.158813 
2230.549561 2005.187500 1890.397339 1738.921631 
1704.747559 1665.577881 4388.008789 1727.863037 
1789.340210 1838.619385 1834.084839 1830.993042 
1947.707886 1863.842407 1902.702393 4926.336914 
0.000000 0.000000 0.000000 0.000000 
0.000000 0.000000 0.000000 0.000000 
0.000000 0.000000 0.000000 0.000000 
1151.237183 1400.414429 1163.215942 1152.731934 
1133.732788 1134.361816 1142.167969 1381.026001 
1203.861450 1189.724854 1449.661499 1182.248657 
1199.218628 1371.065552 1191.118042 1199.281494 
1196.449829 1198.353271 1348.557251 1199.348267 
1264.636719 1284.147827 1246.298828 1450.739136 
1206.505737 1210.371094 1408.593628 1210.392578 
1241.484497 1243.439941 1241.101807 1387.110229 
1233.543823 1228.834961 1232.387085 1347.399292 
1249.599243 1362.866211 1240.679688 1243.347290 
1177.766357 1190.283691 1192.393921 1460.175659 
1231.229370 1209.043945 1231.612793 1433.053101 
1266.169556 1462.175903 1235.255249 1206.348755 
1216.762817 1221.998535 1143.726562 1464.547729 
1239.031860 1242.075928 1501.124878 1232.865356 
1328.491211 1370.032227 1297.427002 2345.165039 
1222.614380 1224.284912 1232.102661 1436.186401 
1179.819580 1180.329468 1398.430664 1182.373779 
1213.166748 1218.169189 1396.809448 1216.688843 
1197.322144 1196.461182 1388.332397 1186.554199 
1188.862915 1189.656616 1188.581299 1408.569458 
1454.388428 1200.891846 1238.995483 1241.005859 
1496.179565 1250.685669 1241.367065 1247.222168 
1318.778320 1466.203979 1344.008545 1320.801880 
1340.755737 1492.164062 1347.866455 1358.180664 
1330.440186 1414.531494 1359.519287 1337.523193 
1198.963013 1458.272461 1227.828369 1218.421997 
1154.554688 1182.652222 1444.123291 1162.663330 
1206.764893 1462.119507 1205.667236 1222.653564 
2368.614990 1316.704834 1369.724854 1264.703003 
2359.003906 1364.079224 1397.437256 1358.798218 
1399.195435 1399.995361 1395.470215 1451.457031 
0.000000 0.000000 0.000000 5004.664551 
1240.033569 1248.610840 1250.859253 1342.353882 
1162.616699 1385.325317 1160.656982 1174.287109 
1167.965576 1160.603882 1367.041626 1160.623413 
1283.229736 1258.900391 1281.690918 1460.706909 
1232.307617 1246.046631 1415.029907 1247.806274 
1307.954590 1296.637695 1325.299194 2489.623047 
1413.082764 1734.875122 1402.810913 1384.156128 
1991.717407 1415.497925 1414.708618 1410.259521 
1475.644165 1379.430176 1344.312134 1381.948486 
1444.673340 1427.488892 1457.994385 1512.905151 
1238.666748 1447.012207 1239.164062 1239.690430 
1442.634644 1396.555176 1399.935059 1344.097046 
2382.788574 1444.205811 1504.154297 1458.127075 
1827.901611 1908.269653 1473.828613 1969.183105 
0.000000 0.000000 0.000000 0.000000 
6866.513672 0.000000 0.000000 0.000000 
2355.709473 2431.745605 1887.835938 4328.664551 
2180.245117 1997.744141 2043.749023 1785.888672 
2420.974854 1874.203857 1705.105957 2377.143311 
2152.837891 1972.359985 1912.991821 1983.103271 
1543.074463 1503.539185 1476.961670 1516.756714 
1356.213257 1360.488159 1721.384277 1375.552368 
1265.162598 1296.345581 2346.978760 1289.689209 
1312.064453 1391.233276 1332.068481 2340.891113 
1386.277100 1389.510620 1395.720581 1402.898926 
1761.218384 1737.457520 1677.994751 1776.039795 
1522.175659 1800.632690 1549.740112 1800.650879 
1345.593384 2002.815186 1597.877563 1532.342529 
7891.733398 4594.675781 5112.119629 4982.804688 
0.000000 0.000000 0.000000 0.000000 
0.000000 0.000000 0.000000 0.000000 
1152.890991 1429.923828 1153.205933 1162.688110 
1162.943359 1164.929810 1157.257446 1378.044800 
1136.776245 1447.833862 1077.963989 1139.440796 
1303.161011 1253.984131 1283.480591 1280.556396 
1660.004395 1315.139160 1320.691650 1318.086426 
1404.698730 1270.543701 1256.787354 1269.515137 
1270.874634 1353.290283 1277.783325 1273.957886 
1443.278931 1443.940308 1399.647339 1409.741821 
1368.190918 1423.012939 1374.525635 1342.758057 
1308.558960 1385.985474 1297.700806 1278.644653 
1147.947998 1160.162964 1151.659424 1388.354736 
1195.044312 1268.695312 1224.814453 1197.161621 
1265.028442 1229.515869 1237.940674 1208.369141 
1180.033936 1185.741333 1181.773560 1361.955078 
1249.771118 1264.390503 1463.458130 1235.582886 
1279.319946 1251.427856 1262.411011 1378.072021 
1413.891968 1325.929688 1326.233521 1327.467163 
1393.290039 1196.556519 1197.793823 1186.394775 
1392.528320 1104.173218 1113.987671 1111.035156 
1382.050903 1360.675537 1337.870361 1351.755127 
1343.802490 1650.397705 1350.338623 1345.761108 
1414.873901 1399.685791 1481.747803 1431.874146 
1355.620361 1388.280640 1377.124023 1339.979614 
1470.902832 1488.840210 1482.629517 1484.794067 
1412.118530 1407.025757 1406.986084 1412.066528 
1324.451660 1402.300903 1337.511230 1320.445312 
1373.926147 1106.365112 1111.578857 1120.630127 
1373.097656 1277.340942 1279.419067 1283.635132 
1361.284546 1287.589478 1348.396362 1338.161743 
1244.170166 1413.463135 1255.049194 1248.633789 
1475.542358 1239.674927 1239.198853 1235.094727 
1282.593018 1286.502197 1451.646606 1304.083862 
10381.623047 0.000000 0.000000 0.000000 
1391.181030 1376.536865 1394.772217 1374.229004 
1315.612915 1327.929321 1288.628540 1459.505005 
1457.826172 1479.032227 1470.963867 1481.608887 
1334.187134 1344.325684 1706.958374 1328.197876 
1483.668579 1476.284546 1535.163818 1480.530884 
1412.761963 1425.542236 1421.835571 1413.559326 
1425.012207 1401.431763 1437.923462 1407.637573 
1315.383057 1317.975342 1335.499023 1325.755859 
1407.643433 1443.081543 1399.021118 1450.267334 
1331.834595 1332.669922 1365.923584 1332.476929 
1435.043457 1462.815430 1495.355347 1439.095581 
1475.826172 1441.600952 1401.888306 1402.428955 
1370.565430 1445.687500 1409.741699 1377.999878 
1450.062012 1437.572144 1470.708984 1359.314819 
0.000000 0.000000 0.000000 0.000000 
0.000000 0.000000 0.000000 0.000000 
1682.005615 1840.811401 1481.119385 1724.278931 
2029.630859 1921.213745 2025.533813 1974.061523 
1654.560181 2233.758789 1906.128052 2144.993896 
1950.437744 1658.441162 1607.609009 1662.728027 
1795.571899 1690.312500 1738.279541 1693.851318 
1662.818115 1323.448242 1351.633423 1333.014526 
1319.186279 1286.248047 1342.080322 1518.565674 
1282.838257 1266.288208 1258.854980 1457.001831 
1448.096069 1509.166138 1465.386719 1453.336548 
1528.722534 1516.111328 1512.325195 1532.702881 
1885.573853 1573.249023 1683.471191 2028.559814 
1581.827026 1562.609741 1611.533203 1552.147705 
2627.413330 1691.997559 1732.888184 1707.471436 
16506.101562 0.000000 0.000000 0.000000 
0.000000 0.000000 0.000000 0.000000 
1414.275757 1220.214478 1228.563354 1206.454102 
1319.368530 1293.326416 1298.906860 1444.961670 
1307.086426 1486.111328 1278.313477 1288.729248 
1290.547852 1278.135132 1483.975220 1281.629395 
1200.820923 1211.426147 1424.645630 1213.235352 
1300.238037 1287.209473 1259.938599 1413.596680 
1334.984619 1904.680542 1346.732666 1322.497314 
1401.589111 1394.896973 2463.879639 1381.196777 
1691.882568 1348.230591 1344.702148 1307.872070 
1191.404907 1203.709351 1181.563354 1254.132080 
1176.828491 1255.074707 1185.055542 1169.354736 
1461.294434 1161.535400 1158.742920 1160.011230 
1316.294922 1321.420898 1290.713623 1326.233521 
1217.430298 1305.880127 1233.689575 1207.134155 
1207.613892 1230.777832 1205.717896 1421.237183 
1170.440552 1159.963013 1164.102417 1458.714966 
1374.362061 1449.153442 1375.853394 1369.489746 
1346.238770 1465.269531 1307.362305 1377.623535 
1321.138550 1560.222656 1328.293701 1321.048950 
1695.585938 1328.636719 1321.460205 1277.377319 
1512.322754 1283.297852 1291.459595 1291.974243 
1324.608887 1321.685303 1322.613525 1468.564819 
2101.222656 1309.779663 1336.043579 1290.994385 
1383.850830 2476.140625 1379.314087 1388.537476 
1350.889771 1348.491211 1327.583862 2155.882812 
1262.731445 1276.898926 1266.971069 1266.269897 
1194.880493 1219.221558 1250.414062 1202.127319 
1222.439087 1316.116455 1238.014526 1247.703369 
1380.838501 1366.176147 1341.486572 1322.979614 
1302.710083 1248.062500 1330.117920 1311.318237 
1284.045898 1289.252441 1369.775269 1276.926025 
1451.200439 1360.797119 1362.429565 1378.143799 
0.000000 0.000000 0.000000 0.000000 
1354.043335 1325.169434 1484.414673 1349.915649 
1315.871826 1513.058105 1298.602539 1319.614136 
1329.794678 1334.842651 1709.474487 1331.285645 
1743.071655 1335.190796 1331.839600 1335.843018 
1390.385254 1383.832153 1578.752075 1400.334351 
1398.954956 1392.073853 1649.385010 1399.568726 
1331.976074 1335.079956 1338.962769 1497.637939 
1354.903198 1372.168457 2304.125488 1360.422974 
1345.847046 1495.562012 1339.704956 1348.786133 
1389.729126 1398.994507 1489.506104 1395.351685 
1438.201416 1414.609009 1431.465210 1516.082764 
1490.384888 1621.455933 1468.059692 1467.402588 
1338.761475 1347.820190 1487.082397 1347.916748 
1932.699219 1782.325317 1912.609619 1932.884644 
7125.238281 7807.944336 0.000000 0.000000 
0.000000 0.000000 0.000000 0.000000 
0.000000 5536.056152 2391.349609 0.000000 
1958.358398 2047.032593 2135.132324 1930.594849 
1590.851196 1584.245117 1809.562622 1773.864624 
1994.002319 1882.286743 1969.785645 1827.156738 
1372.913208 1387.481934 1580.398193 1378.484253 
1510.278198 1404.336304 1424.957031 1427.407104 
1269.384155 1285.337158 2419.592041 1297.233032 
1235.736450 1234.103760 1144.421265 2375.431396 
1418.283203 1523.829956 1400.578857 1402.718018 
1829.029175 1847.867188 1900.231079 1783.074219 
1757.262207 1794.907959 1783.128418 1775.699951 
1726.485840 3149.754395 1683.267456 1661.815430 
1765.155151 1753.264648 1684.105957 1741.274292 
3280.971680 0.000000 9405.550781 745.576172 
0.000000 0.000000 0.000000 0.000000 
1317.042969 1463.969849 1320.419312 1297.390381 
1281.766479 1429.644531 1232.386597 1266.877808 
1285.040771 1447.427368 1279.613281 1235.359131 
1291.428467 1298.121582 1444.484009 1276.706543 
1241.304199 1242.735352 1268.261353 1453.670166 
1238.276855 1231.907349 1223.880371 1461.257690 
1462.277100 1224.484009 1235.440796 1231.904297 
1198.463379 1406.468994 1193.469849 1213.983032 
1186.531128 1432.021240 1191.102905 1186.074585 
1450.559204 1152.217285 1156.119995 1151.591309 
1143.769531 1131.130981 1128.334839 1444.658936 
1414.007202 1112.805542 1134.464111 1123.338013 
1389.354858 1225.598755 1253.012329 1212.178589 
1206.064331 1214.932861 1211.504150 1254.205444 
1192.718994 1175.901489 1422.957886 1184.842285 
1182.613770 1459.554932 1165.652222 1178.760254 
1404.959106 1473.187866 1403.112305 1397.041992 
1320.697998 1319.150513 1321.355591 1473.835449 
1342.840088 1344.938477 1452.606812 1363.464600 
1442.174683 1293.754028 1338.958130 1285.754395 
1294.349609 1243.853516 1290.691284 1449.207764 
1461.487305 1283.735962 1289.701660 1280.830811 
1484.851562 1266.366943 1267.411377 1259.543701 
1235.135010 1364.732056 1225.072632 1247.437500 
1346.553955 1259.410278 1257.473755 1260.310181 
1394.341431 1266.032837 1262.122192 1241.467407 
1277.917725 1229.830566 1447.593384 1246.225830 
1238.492310 1227.887573 1486.920776 1266.391479 
1280.396606 1281.872925 1284.256470 1366.010498 
1317.003418 1242.866943 1190.263306 1237.835205 
1225.183594 1266.659180 1219.562500 1225.642212 
1369.342896 1186.624023 1189.440430 1193.380249 
0.000000 0.000000 0.000000 0.000000 
1530.600830 1507.430664 1590.181641 1530.652954 
1384.218262 1509.075195 1383.595459 1372.379150 
1334.624634 1328.864868 1326.960449 1460.148926 
1291.205322 1306.429321 1393.241699 1296.544922 
1311.106934 1268.221191 1821.052002 1307.238159 
1305.845093 1319.478149 1809.232788 1317.549805 
1629.103516 1316.314331 1297.499023 1322.734131 
1315.829102 1309.878784 1327.402832 1391.813965 
1289.369995 1277.735352 1392.610352 1282.724731 
1282.635742 1419.545288 1275.572754 1282.461304 
1243.204956 1217.649414 1459.419312 1232.408447 
1331.445190 1332.776855 1533.006348 1332.414185 
1357.546875 1366.180664 1405.101685 1369.049805 
2260.400879 2310.350098 1473.172119 2047.555786 
1748.728882 3351.608398 2539.938721 3255.898926 
0.000000 0.000000 0.000000 0.000000 
0.000000 0.000000 0.000000 0.000000 
1724.501099 1758.406982 2183.790039 1991.817383 
1899.611694 2539.259521 1681.699951 1540.932617 
1954.006470 1798.539673 1774.515747 1803.923828 
1469.374146 1495.895996 1454.721069 1467.142334 
1451.982300 1330.597778 1320.549072 1323.849365 
1248.361816 1610.658569 1236.695312 1251.384766 
1648.096436 1345.571533 1325.828369 1323.988647 
1565.484009 1276.442627 1303.153809 1304.957886 
1249.331665 1235.806274 1328.474243 1791.235840 
1679.496094 1812.377563 1628.172119 1560.230957 
2302.876465 2803.777588 2046.557495 2446.375732 
1520.628052 2171.121094 1768.818604 2653.145264 
0.000000 3199.255859 12093.547852 16402.726562 
233.668793 0.000000 0.000000 0.000000 
1547.921265 1556.535767 1569.550659 1580.609619 
1646.694336 1617.241577 1669.192139 1640.994873 
1451.742798 1442.931885 1439.574463 1437.123047 
1340.220215 1318.248291 1308.941528 1310.491699 
1371.035156 1329.471680 1310.918091 1305.531738 
1295.191528 1298.567871 1314.036133 1321.112549 
1199.611084 1204.559448 1206.366211 1432.134888 
1238.168823 1261.937256 1224.723022 1222.240234 
1210.504761 1268.938477 1203.389771 1187.564941 
1195.027710 1216.615967 1213.033569 1337.598999 
1388.389648 1241.085938 1248.261963 1192.576904 
1435.504639 1238.939209 1247.863525 1252.087646 
1336.092041 1247.340332 1239.850342 1236.754395 
1423.464966 1252.419922 1234.099854 1233.731567 
1226.834473 1222.937988 1247.765869 1223.526489 
1185.326538 1205.765259 1239.755493 1193.974243 
2486.418945 2516.819336 2499.732666 2699.102539 
2104.284424 2067.156250 1977.770752 2050.370850 
1468.212158 1482.302856 1514.797974 1506.436401 
1327.312988 1326.855591 1460.829224 1342.970825 
1336.337769 1277.671997 1288.204590 1274.568726 
1252.939209 1390.509888 1249.562622 1258.515747 
1374.661377 1286.368286 1315.717896 1293.419556 
1331.249023 1322.521729 1318.773193 1435.346680 
1528.876587 1296.525879 1293.099854 1283.253174 
1248.405396 1253.015869 1250.417847 1475.709595 
1305.610596 1332.466431 1629.163696 1313.442749 
1296.903076 1296.774536 1297.184448 1549.256104 
1289.659058 1447.709595 1289.719727 1275.740723 
1204.774902 1204.583008 1211.474976 1402.803467 
1228.013184 1422.392456 1224.111328 1235.800415 
1223.017334 1219.596069 1221.245605 1242.614258 
0.000000 0.000000 0.000000 0.000000 
6003.390137 1730.989258 4067.690918 1738.380371 
2043.319336 2564.327148 2542.938232 2573.651367 
1850.145508 1863.669556 1824.667236 1771.402954 
1661.093384 1622.748901 1689.378662 1678.670776 
1388.729614 1395.004639 1395.109375 1405.049927 
1361.469116 1362.084595 1398.412476 1358.355103 
1401.266357 1354.956909 1358.477661 1362.259155 
1329.087524 1332.664062 1446.976929 1321.602905 
1419.721680 1411.284058 1414.531738 1416.664307 
1396.052612 1391.727539 1382.525024 1490.003418 
1308.691162 1370.381104 1309.215210 1308.801636 
1314.062256 1322.997437 1331.801758 1449.957764 
1366.125488 1336.733887 1328.281372 1341.334106 
1342.324463 1336.145752 1350.191772 1349.957886 
0.000000 0.000000 18018.900391 4396.107910 
0.000000 0.000000 0.000000 0.000000 
0.000000 0.000000 0.000000 0.000000 
13645.695312 0.000000 10212.435547 14612.286133 
5583.898438 6414.299805 5557.924805 4412.442871 
2880.176758 2941.929688 3535.591309 4835.734863 
1773.754150 1699.418213 2146.198242 2153.367676 
1633.625732 1639.075439 1657.637329 1599.041626 
1322.583130 1379.124023 1328.754028 1330.351807 
1306.518188 1293.791748 1389.991455 1298.975220 
1230.990723 1225.260864 1236.863281 1311.326294 
1471.755981 1449.184448 1452.371338 1409.733521 
1694.824829 1575.060791 1589.944702 1555.975586 
2432.796875 1893.015869 1566.893677 1950.905029 
3438.416748 2449.513428 2171.696533 1770.963745 
2749.693848 4696.915527 5034.109375 3928.815918 
8513.018555 0.000000 0.000000 0.000000 
2089.653809 2570.627930 1645.991089 4400.851074 
2102.825684 3663.888428 3191.404297 1556.148804 
1783.746216 1483.313843 2144.368164 2329.793945 
1288.553101 1233.944580 1246.789673 1193.200195 
1968.001587 1540.487671 1947.817139 1702.810181 
1569.825439 1563.785889 1606.237305 1631.111572 
1430.130981 1481.415039 1493.962036 1479.063965 
1663.734985 1522.540649 1609.985718 1645.180908 
1558.889404 1576.176880 1506.545044 1562.276123 
1483.406128 1506.254272 1486.982910 1552.639648 
1330.582520 1326.308350 1326.028076 1461.206177 
1327.011597 1343.047363 1329.780151 1461.787720 
1426.282593 1469.318604 1417.605835 1412.216919 
1384.920654 1413.741089 1420.834595 1423.514038 
1364.647949 1335.268311 1360.350830 1350.094971 
1297.972656 1347.883179 1313.720825 1303.286133 
8319.666016 3021.690918 3061.742432 3050.203857 
3403.729492 1803.026489 5028.555176 1742.803711 
4226.143555 3950.339844 2074.942627 3298.573975 
2239.420898 2244.480469 2242.519775 1977.591309 
1461.392334 1332.214478 1344.026733 1335.117676 
1682.367920 1684.528198 1711.312378 1661.439819 
1748.112183 1707.846558 1670.681030 1685.410400 
1718.376587 1728.715698 1703.248047 1710.288330 
1639.743530 1623.628418 1649.511719 1619.487183 
1325.693359 1449.764404 1324.679810 1336.445190 
1607.578369 1602.629761 1619.227417 1633.105713 
1506.322510 1520.065308 1509.711914 1523.519287 
1434.186523 1439.253296 1448.161255 1445.527344 
1327.572876 1327.338867 1340.561035 1327.092529 
1319.833740 1342.891235 1339.995850 1340.931641 
1494.068848 1503.398926 1506.280029 1493.715332 
0.000000 0.000000 0.000000 0.000000 
7027.589844 7205.582031 7403.562988 5894.671875 
1631.940674 6888.421875 3338.407715 1676.043945 
1696.448120 1666.378418 3018.422119 1568.275146 
2005.206665 2176.966309 2146.136230 2039.246338 
2011.555908 2028.230103 1984.061523 2003.815308 
1897.894775 1902.933960 1911.636597 1932.229004 
1888.755371 1872.351074 1890.218994 1895.024780 
1730.766968 1776.580322 1802.165771 1786.976929 
1625.297119 1640.530029 1645.687866 1638.647339 
1558.103882 1553.769165 1529.392578 1536.107178 
1442.219482 1476.712524 1456.927002 1455.111816 
1508.531738 1527.531372 1500.440186 1504.170044 
1344.169189 1338.345459 1329.765747 1323.799438 
1810.705078 1741.187012 3669.769287 1798.393066 
46315.562500 0.000000 0.000000 0.000000 
2138.659668 1862.123657 6384.413086 0.000000 
0.000000 24154.371094 25488.437500 0.000000 
0.000000 0.000000 33214.960938 0.000000 
0.000000 0.000000 14627.922852 0.000000 
12464.698242 7415.190430 0.000000 12322.952148 
3755.382568 5470.506348 4389.315430 5687.508789 
1936.954346 2124.839600 2582.601318 1951.372437 
2054.511230 1659.666748 1751.501221 1973.271118 
1727.837769 1771.035034 1742.015869 1756.227417 
1556.436401 1591.785645 1557.101440 1570.338135 
1511.168945 1505.205078 1595.122070 1496.850464 
1559.023926 1611.636230 1631.282471 1529.331299 
1505.438477 1512.995850 1563.423584 1639.350342 
1591.121460 1603.336792 1553.042847 1578.906250 
1630.860107 1553.414795 2261.244629 1743.944458 
2065.604492 2446.080078 2113.783936 2209.144043 
