952943
0.335602
0.693842
3150.745605 3063.328125 3065.402832 3109.382568 
0.000000 0.000000 0.000000 0.000000 
2993.778076 2977.192627 3043.938477 3082.274414 
3161.906982 3143.242676 3050.972168 2968.438232 
3375.227295 3266.964111 3421.146484 3263.034180 
3162.700195 3188.426270 3241.624268 3178.065186 
3698.101562 3669.473877 3041.681641 3213.195801 
3235.284912 3152.180420 3192.100830 3141.315918 
3386.336914 3452.072998 3437.329102 3504.962891 
3064.530762 3241.346924 3657.461914 3249.536377 
3264.016602 3228.113281 3114.016846 3471.179688 
3267.810059 3400.594727 3686.219482 3422.380859 
3634.940918 3844.999268 3495.257812 3120.824707 
4005.407227 3718.052979 4014.259521 4081.631104 
4623.672852 5058.325684 4762.966309 4077.411133 
5808.719727 5642.831543 5440.226562 6367.503906 
7876.048828 8248.455078 6359.892578 7450.809570 
10918.476562 13426.534180 15704.355469 9773.689453 
2987.078857 3046.604736 3091.919434 3097.593018 
3062.683105 3064.650879 3093.255127 3045.419189 
3239.849121 3119.531738 3090.902588 3003.150146 
3124.197998 3198.297852 3183.720947 3072.518555 
3303.208496 3338.107666 3294.724609 3230.909180 
3363.645264 3163.925781 3171.313232 3200.990479 
3492.379883 3433.805176 3488.408203 3462.820801 
3340.265137 2795.515625 3350.595459 3471.543457 
3528.304688 3468.947510 3447.547119 3438.265625 
3525.735352 3479.914062 3519.069092 3533.487793 
3056.443604 3075.230469 3239.056152 3512.706787 
3613.637695 3595.293457 3499.170166 3587.035889 
4089.072266 4502.131348 4569.276367 3837.612305 
7045.747559 6762.411133 4923.358398 4827.968750 
13600.372070 8663.338867 9222.234375 14347.270508 
19603.056641 15685.080078 10831.982422 17848.425781 
15762.449219 11607.287109 17450.128906 424.428497 
3248.959229 3346.538086 3143.276611 3140.807617 
3064.435547 1063.059326 3104.872559 3081.984131 
3162.951660 3191.064453 3117.369629 3153.340820 
3179.901855 3265.083984 3461.952881 3154.604492 
3334.803711 3444.949951 3283.116455 3343.554443 
3378.153320 3640.505127 3304.277832 3403.579834 
3559.729736 3469.636719 3557.774658 3431.156494 
3497.088623 3519.922607 3531.655273 3528.657959 
3583.117676 3517.622314 3974.518555 3612.454590 
3345.985596 3464.575195 3651.566895 3858.991455 
4201.125000 3908.014648 3884.679688 4618.095703 
9704.593750 7989.020508 12153.139648 12270.407227 
268.641602 1719.538330 3488.560059 17312.316406 
0.000000 0.000000 0.000000 0.000000 
0.000000 0.000000 0.000000 0.000000 
3591.273193 3138.225342 3971.816650 3243.104736 
3441.851318 3632.268555 3423.205322 3310.949707 
3283.964111 3335.681641 3944.671387 3183.023193 
3143.075439 3286.092773 3087.256836 3038.992920 
3136.054443 3395.347900 3111.770996 3241.840576 
3534.793457 3673.565918 3370.761963 3389.285156 
3680.354492 3782.568115 4029.858154 4222.455566 
3904.156006 3650.096191 3518.435791 3541.850098 
4271.753418 4219.631836 4539.140625 4634.625977 
7779.904297 12267.138672 8925.606445 5380.554199 
402.967712 866.741760 5823.310547 541.930176 
0.000000 0.000000 17020.162109 2854.099121 
0.000000 0.000000 0.000000 0.000000 
0.000000 0.000000 26278.269531 0.000000 
0.000000 1665.301636 0.000000 3380.726074 
21193.669922 0.000000 1081.237793 0.000000 
3101.830811 2973.485840 3005.125000 2945.399414 
3105.017822 3026.799561 3063.905029 3040.053223 
3678.281738 2987.368896 3001.238525 2936.094238 
2998.967041 2982.300293 3206.164795 3043.424805 
2974.990967 3252.385742 2989.214111 2967.536377 
3086.427002 3004.668701 3042.421387 2959.746094 
2975.991211 2964.615723 2982.358398 3007.204346 
2966.205811 2975.436279 3002.174561 3007.039551 
3003.405029 2980.496338 3448.041992 2900.447754 
3199.874756 3140.585449 3059.541748 2972.509033 
3142.719238 3570.728027 3102.331787 3114.661621 
3121.728271 3141.198730 3137.233643 3004.457275 
3260.774658 3127.995117 3129.135742 3172.596191 
2967.884277 3160.896484 3049.528076 3147.508545 
3167.556152 3335.139893 3169.927490 3286.387451 
4076.991699 3436.627197 3437.881104 3600.926025 
2978.845703 3055.288818 2949.356201 3053.076904 
3006.396240 3058.422852 2992.138184 2987.434082 
3003.252197 3002.687012 2964.334473 3001.178467 
3008.884766 3029.837402 3088.419922 2993.929932 
3001.153076 2990.979492 3051.226807 3093.160400 
3165.854736 3124.823975 3011.159912 3073.469971 
3237.279053 3012.333984 2993.434570 3234.402344 
3293.297363 3117.721924 3212.306152 3075.367432 
3016.094727 3069.620605 2996.459961 3091.172119 
3067.930908 3045.128174 3407.432129 3061.011963 
3120.255859 3501.505371 3094.179199 3133.777344 
3173.979492 3219.878662 3251.487305 3119.751709 
3290.837646 3365.033936 3271.568359 3189.448730 
3417.112549 4151.562012 3600.054932 3698.775879 
3925.820557 3979.741455 4379.628418 4366.254883 
6104.197754 4497.227051 4886.826172 5125.286133 
12979.126953 8933.150391 4493.626953 26348.238281 
3080.270996 3104.262207 3030.050781 3029.215332 
3034.553223 3261.980225 3245.888184 3035.368652 
3203.510498 3256.100342 3065.669189 3211.418213 
3248.922119 3062.833008 3297.645264 3508.062012 
3318.067627 3322.441406 3043.928955 3360.513428 
3342.641113 3240.237549 3190.817383 3343.766846 
3395.020508 3276.844971 3373.312500 3256.789307 
3237.819580 3439.364990 3500.506104 3381.645508 
3505.022461 3067.295654 3319.338867 3266.214844 
3308.450195 3498.139893 3419.723389 3272.977783 
3406.740234 3785.323242 3467.766357 3573.106934 
3534.461426 5224.472656 3592.817383 3951.081299 
4435.132324 3563.291260 3343.528809 3514.848633 
7919.386230 360.296448 5201.040039 8418.762695 
0.000000 0.000000 0.000000 0.000000 
19717.166016 311.720520 0.000000 20650.361328 
8406.812500 5173.071289 11181.737305 9289.722656 
4237.458496 4990.632324 4615.677734 3833.194336 
3449.338867 3627.423828 3562.867432 3171.715576 
3330.044922 3229.216064 3166.871582 3249.557861 
3272.734619 3662.989990 3056.721924 3398.952881 
3202.945312 3349.559570 3518.071777 3470.712402 
3604.820557 3798.822266 3412.637451 3765.345215 
3528.604492 3673.209229 3421.306885 3459.506592 
4001.397461 3683.570068 3983.182861 4053.018311 
19861.435547 13960.443359 5497.665527 6972.766113 
16417.671875 13909.089844 16147.041016 13556.105469 
24305.244141 22572.005859 6176.950195 14555.833984 
0.000000 0.000000 0.000000 0.000000 
0.000000 0.000000 0.000000 0.000000 
0.000000 0.000000 0.000000 0.000000 
3021.587402 3087.969238 3106.722900 2995.026367 
3039.327881 3033.050049 2918.007324 3057.995117 
2935.507324 2989.331543 3142.758789 3111.191895 
2910.186768 3043.343506 2997.338379 3067.803223 
3084.149658 3086.574463 2887.448730 2916.286621 
2896.563477 3001.066406 2953.869141 3223.504883 
3116.514648 3022.141113 3038.306152 3055.838379 
3175.016602 3249.925049 3088.200928 2972.842285 
3055.439209 3183.439209 3099.975342 3215.193359 
3113.829346 3100.101318 3117.343750 3119.445068 
3086.779297 3114.693604 3093.472168 3179.308105 
3207.401855 3195.618164 3155.032715 3386.383789 
3275.731689 3170.058105 3029.114258 2976.878418 
3134.553955 3136.333740 3088.122070 3143.550781 
3082.064453 3262.472900 3082.611084 3257.533203 
3027.027832 3076.196289 3032.850830 3023.618164 
3032.379639 2960.936035 3000.519043 2964.566162 
3048.527344 3010.431641 2987.367920 3121.709473 
3055.235107 2960.374023 3076.148438 3097.641113 
3023.546875 2969.537354 3072.354736 3372.109131 
3136.064209 2971.294678 3027.295166 3030.114990 
2948.991211 3392.054443 3272.691162 3278.369141 
3069.744629 2989.362793 3145.181885 2927.549805 
3174.852539 3201.951904 3133.094971 3349.440186 
3275.206055 994.420654 3321.901611 3276.942871 
3311.357422 3502.402832 3531.336182 3481.452881 
3202.921631 3237.025391 3194.501953 3198.726562 
3098.921387 3273.988770 3067.920898 3013.898193 
3221.612305 3012.250977 3245.422852 3199.492676 
3089.280273 3239.829102 3094.845459 3277.126953 
3208.050537 2960.770996 3246.839111 3105.577881 
3009.767578 3123.994873 3026.299316 3719.287842 
0.000000 0.000000 0.000000 0.000000 
2969.487549 3070.703369 3032.421875 3040.892578 
3282.890869 3015.893311 3344.996338 3221.273438 
3087.684814 2993.961426 3063.411621 3011.967285 
3621.814941 3023.105225 2970.853516 3072.994385 
3002.845215 3023.432373 3148.479492 3058.877686 
3128.099854 3142.904053 3011.074463 3029.696533 
3211.939209 3292.806641 3247.068359 3410.255371 
3352.112061 3242.159912 3229.438232 3582.795898 
3061.800293 3159.599854 3418.867432 3475.615967 
3167.312500 3302.216309 3193.208740 3579.874023 
3562.634277 2992.891846 2799.247070 3395.605225 
3016.599609 3080.221680 3390.600586 3352.284668 
3021.171875 3115.320068 3352.920654 3257.291504 
3353.206543 3683.129150 3785.795166 3528.529053 
0.000000 0.000000 0.000000 0.000000 
0.000000 153.891617 0.000000 2037.604980 
11936.275391 13289.330078 8182.970703 5301.353516 
3895.487061 4452.271484 4268.958496 4401.800781 
5727.623047 3852.711670 4170.224609 3707.664551 
3302.911865 3300.771973 3662.707520 4737.972168 
3332.076904 3305.733887 3250.181152 3090.008789 
3490.315918 3083.005859 3356.364990 3181.314453 
3361.445312 3106.172852 3160.289062 3040.034180 
3091.817383 3084.421875 3113.229736 3587.238037 
3268.975586 3173.105225 3212.421387 3250.135986 
3296.663818 4024.498291 3553.957520 3592.522705 
4387.208984 3519.988770 4151.562500 4255.345215 
3748.277344 3705.713623 3581.033447 3393.921387 
496.095032 8241.296875 11796.244141 12437.773438 
0.000000 0.000000 0.000000 0.000000 
0.000000 0.000000 0.000000 0.000000 
2966.560059 3060.251465 2959.497803 2948.654053 
3043.773926 3051.327148 3028.575684 3025.431885 
3001.616699 3184.931641 3089.294189 3073.032471 
2985.863525 2999.856934 3028.857666 2938.760498 
3087.599365 2913.664062 3125.783691 3454.753906 
3110.716553 3062.757568 3068.182861 3021.391113 
3018.712646 3708.819580 3063.176514 3021.987793 
3130.534180 3004.769287 3134.577881 3070.524902 
3080.812744 3085.386230 3105.985596 3098.612793 
3192.132568 2816.629883 3050.136963 3105.056885 
3163.761230 3028.020752 3027.062256 3069.540283 
3096.117432 3075.070068 3030.735352 2912.305664 
3275.950439 3114.915039 3516.427246 3028.033447 
3218.431152 3095.808594 2977.374512 3117.563477 
3249.028564 3002.552246 3137.546875 3175.860107 
3173.753662 3172.582031 2992.199951 2946.994873 
3000.150146 3088.734131 3104.265625 3106.143555 
3052.400635 3037.798828 3067.436279 2970.971924 
2999.119141 3016.944580 3208.671387 2845.142334 
3296.744385 3013.310303 2992.856934 2977.764404 
3010.360352 3119.439209 3129.396729 3036.657471 
3002.511719 3283.808838 3030.685791 3131.120117 
3100.141113 3069.979980 3069.249512 3074.139648 
3076.627930 3050.624512 3253.000244 3165.708008 
3060.815186 3118.744385 3156.166992 3124.605225 
3134.015869 3232.571533 3123.250732 3095.263672 
3131.291992 3052.676270 2978.346191 3075.768799 
3078.376465 3067.396729 2962.540771 2951.810059 
3207.349121 3149.066895 3351.799805 3030.600830 
3322.084961 3007.398438 3010.882812 3129.414307 
3235.404053 3178.984619 3216.447754 3190.337158 
3175.161865 2992.110352 2472.100586 3066.805176 
387.922424 0.000000 0.000000 0.000000 
3195.105225 3098.606201 3071.944336 3041.752197 
3277.574463 2555.440430 3165.940430 3061.890869 
3040.382812 3078.117920 3143.234619 3162.377197 
3262.749756 3100.318848 3163.897217 3135.171631 
3122.848633 3133.105713 3340.051270 3243.982422 
3050.954102 3038.533691 3020.420898 3006.097412 
3261.281738 3174.714355 3240.896240 3129.558350 
3184.091309 3131.915527 3170.877930 3221.453369 
3082.406250 3341.033936 3101.572510 3164.147705 
3030.323730 3203.928711 974.527100 3595.883545 
3128.775146 3122.698486 3570.117432 3221.669922 
3281.027344 3208.577393 3155.401855 3027.819824 
3365.247559 3326.167969 3435.007080 3379.606201 
3267.920898 3217.272949 3023.221191 3047.106934 
0.000000 0.000000 0.000000 0.000000 
0.000000 0.000000 0.000000 0.000000 
3769.779785 3236.931396 3452.339844 3447.377930 
3470.060791 2738.596191 3447.842041 4131.110352 
4854.217285 5560.409180 3543.560547 5830.389648 
3962.153809 5995.618164 7593.823242 5786.144531 
3201.517822 3453.692627 3255.701904 3197.366699 
3103.814453 3219.740723 3192.427979 3184.519043 
3047.128906 3033.614014 3373.083252 3163.848633 
3145.984619 3193.128418 3227.456543 3184.194824 
3212.134521 3149.229248 3515.371582 3237.268555 
3330.701172 3352.981934 3414.972412 3318.853516 
5140.356445 4863.777344 4410.894531 3663.231689 
3236.468506 3211.944580 3380.864258 3528.689941 
5543.041504 11461.623047 8245.660156 4602.222168 
6753.290527 0.000000 50.992611 0.000000 
0.000000 0.000000 0.000000 0.000000 
3124.976807 3065.203125 3040.922363 3067.446777 
3009.245361 3019.642334 3062.918701 3034.593994 
3089.323730 3179.511719 3148.122070 3196.546631 
3106.525391 3177.318604 3085.766602 2672.469238 
2970.464844 3041.643311 3060.482422 3049.057617 
3004.801514 3035.786621 3074.838379 3107.564209 
3103.897461 3075.720215 3063.920166 3094.814453 
3211.267090 3204.755371 3088.587402 3069.417236 
3050.240234 3066.811035 3098.876953 3068.907227 
2916.431152 3068.284424 3011.394043 2972.493896 
2915.524414 2992.852295 3136.822021 2937.841797 
3045.645508 2992.391113 2968.325928 3021.915771 
3144.451660 3167.375732 3077.266846 3042.045166 
2998.186279 3058.943359 2966.162598 3070.633301 
3065.487061 3478.796387 3111.450928 3085.308594 
3044.942139 3031.057129 3001.479004 3093.516602 
3162.793213 3054.490723 3170.843994 3026.992676 
3116.128174 3083.291992 3097.489502 3066.862305 
3066.909668 3070.988281 3123.166260 3092.833740 
3324.295654 3167.628662 3267.699707 3220.997803 
3211.016846 3049.408691 3289.389893 3080.646484 
3111.043457 3068.650635 3311.552002 3064.966797 
3130.654053 3120.327881 3030.101562 3195.576660 
3127.967773 3141.427490 3076.016846 3175.447266 
3055.677979 3158.900635 3171.820801 3052.426025 
3012.131348 2952.414795 2981.213135 3061.801514 
3040.486084 3080.067871 3047.147705 3036.083984 
3114.788818 3065.949219 2990.332520 3039.189453 
3304.660889 3156.355957 3136.427979 3122.474609 
3065.151123 3084.824951 3439.849854 3032.615967 
3036.496826 3076.310303 3023.221191 3058.395020 
2977.994873 3274.413086 3036.390381 3111.760986 
0.000000 0.000000 0.000000 0.000000 
3198.560791 3127.537354 3153.683350 3067.055420 
3157.262207 3415.529053 3043.300293 3102.589844 
3275.052490 3141.963867 3283.053711 3285.680908 
3148.444824 3142.912109 3339.692383 3373.387939 
3207.734131 3148.173584 3116.322021 3171.130371 
3148.918945 3136.636963 3130.996094 3137.696045 
3286.815430 3256.231689 3227.645752 3238.082275 
3264.768066 3143.385986 3149.123291 3009.635498 
3095.307373 3122.903320 3293.853271 4232.503906 
3075.475586 2919.397949 3062.069824 2995.766602 
3047.552734 3261.069336 3181.597168 2991.308105 
3091.566895 3103.059082 3066.853760 3096.700928 
3055.347656 3090.041260 3294.977539 3488.640869 
3423.096924 3272.350830 3687.306641 3351.699463 
157.700958 0.000000 0.000000 887.303711 
0.000000 0.000000 0.000000 0.000000 
1932.618286 0.000000 0.000000 23866.458984 
3278.311768 3993.264893 4061.052246 4912.398926 
3616.198975 4593.129883 3735.037109 4704.620117 
3678.587402 3976.417969 3625.278076 3452.218506 
3321.717041 3221.479004 3208.873291 3361.904541 
3333.228271 3082.964844 3062.198242 3183.951660 
3242.155029 3145.128418 3115.537109 3047.745850 
3029.476807 3210.494873 3068.050537 3201.291504 
3225.019531 2981.440186 3040.905273 3866.235352 
3937.167236 4578.984375 4370.041016 3352.479980 
4260.595703 4566.400391 3837.981445 4479.250000 
3631.524414 3799.696777 3991.427246 3593.479980 
4825.270020 4945.860352 4350.991211 3345.976318 
17357.142578 0.000000 9818.070312 16147.070312 
0.000000 0.000000 0.000000 0.000000 
3040.600586 3035.723389 3025.406982 3025.477539 
3093.066650 3060.834717 2931.399170 3093.808350 
3148.985840 3148.156494 3087.542969 3061.856934 
3074.415283 3140.023193 2999.497559 2912.749512 
3051.301514 3052.353271 3010.423340 2885.036621 
3213.949219 3060.583984 3173.550537 3270.933838 
2985.814209 3101.031494 2997.662598 3005.450684 
3071.942383 3217.612061 3175.187500 3174.780518 
3047.324951 3082.591064 3155.608398 3110.722656 
2859.503174 3114.199463 2892.739990 2838.053711 
2943.159912 2978.082520 3109.789795 3041.749023 
2921.970215 3034.694336 3101.175049 3015.802734 
2983.770264 2928.142334 2954.212891 2955.949707 
3045.837891 2967.048340 2940.622559 2989.205322 
2907.053467 3129.626221 3023.062012 2954.432129 
3010.611084 3084.054688 3088.655518 2898.630371 
3036.232422 3068.301514 3047.855225 3042.161377 
3094.340576 3089.655518 3095.212891 3028.699219 
3157.404297 3143.935791 3151.433594 3027.914062 
3163.530518 3050.578857 3132.534424 3026.516113 
3120.253906 3122.366943 3173.681885 3120.024170 
3013.913086 3117.674072 3104.942627 3102.597900 
3047.361084 3151.448486 3131.356689 3137.935303 
3064.772461 3121.991211 3062.493652 3122.356201 
3065.965576 3480.543701 3256.535400 2983.628174 
2984.594482 2980.877930 3161.931641 3035.641357 
3073.490967 3101.511719 2927.061035 3038.129395 
2948.456299 2977.604004 2968.970703 2977.113525 
2968.288574 2992.061523 3190.921875 2923.487061 
2934.135010 2947.325928 3060.896484 3034.102051 
2976.781006 3033.487061 3057.324219 3103.311279 
3017.501953 2994.834229 3110.427490 3006.899902 
0.000000 0.000000 0.000000 0.000000 
3150.665283 3145.046387 3184.308838 3175.085205 
3124.160400 3181.693359 3075.150635 3052.620605 
3281.178467 3189.479736 3211.036865 3221.661133 
3192.752441 3296.895264 3078.182861 3279.586426 
3380.528076 3317.183594 3408.262207 3079.946045 
3140.972900 3179.083496 3190.900146 3092.791260 
3117.997559 3559.828125 3343.016357 3232.582764 
3297.728271 3080.394775 3121.458252 3046.392578 
3021.475342 3205.299805 3084.590088 3021.253418 
3020.387207 2989.164307 2932.944824 3012.789062 
2897.778564 3072.769043 2984.914062 2994.531738 
2974.156250 2966.724365 2979.750732 3168.192627 
3166.750732 3018.482910 3142.352783 3147.410156 
4101.014160 3507.676514 3384.194336 3779.243896 
4790.858398 4265.825684 5602.811035 3930.138184 
0.000000 0.000000 0.000000 0.000000 
0.000000 0.000000 8156.727539 0.000000 
3891.784180 4818.704102 3626.105225 4164.463867 
3863.866211 3944.810059 3903.709229 3392.598633 
10515.119141 4872.281250 5551.659668 7978.649902 
3316.255371 3295.078613 3430.225586 3920.387695 
3536.953125 3567.472168 3078.955322 3510.939941 
3112.031006 3367.585449 3162.732910 3226.039551 
4465.962402 3256.184814 3565.683105 3499.347412 
3260.060791 3114.312256 3377.045898 3196.077881 
3161.694336 4928.484863 3238.112793 3571.446533 
3645.448730 4538.893555 3472.742676 3589.347168 
3468.802246 4252.455078 3363.718262 5210.098145 
4282.188477 6204.815430 3607.592041 3639.922852 
896.471619 0.000000 15633.886719 17902.898438 
0.000000 0.000000 0.000000 0.000000 
3672.270752 3537.344238 3379.157959 3602.724854 
3351.475830 3320.816406 3266.513672 3246.171631 
3227.282959 3258.898193 3145.064941 3115.323486 
3116.573975 3113.266357 3089.035156 3117.923828 
3066.033691 3075.932617 3026.069580 3088.458984 
2983.011475 3041.550293 3115.047852 3081.934082 
3079.888184 2967.951904 2960.685303 3025.430664 
2971.484619 3030.711670 2941.438232 3152.022949 
3246.322754 3053.487305 2944.041016 3102.692383 
2993.003418 3091.686523 3051.324463 2933.462891 
2927.856445 3602.147949 4023.838867 2944.153076 
2939.100830 2937.302002 3269.876465 3070.440674 
3801.066162 2987.839111 3181.014648 2983.066406 
3007.789551 2970.019287 3544.757568 3061.619385 
4275.457520 3020.068359 3006.300537 2998.480713 
3117.154785 3031.500000 2935.657227 2936.316895 
4539.029297 4221.551270 6107.727051 4098.825684 
3538.202393 3465.722168 3585.128174 3428.613770 
3140.759766 3283.771240 3345.009521 3073.186035 
3101.486084 3140.567627 3162.239014 3093.157959 
3096.738281 3116.536621 3064.502686 3113.389648 
3055.095215 2982.728027 3000.611816 3060.759277 
3025.931641 3250.646973 3020.825928 3109.876953 
2994.417236 2975.933594 3013.635254 2953.817871 
2970.529541 2999.530029 3029.204346 2977.048096 
3194.610352 2984.885742 2993.270752 3137.906250 
3041.868896 3030.652832 3111.320068 3047.373535 
3451.949951 3020.320312 3019.447021 3125.827881 
2971.087158 2982.742676 3032.964355 3280.173828 
3022.243408 3008.699951 3035.361816 2996.983398 
3164.958008 3074.218750 3019.739502 2997.079346 
2998.132080 3029.036133 3077.157715 2995.891113 
0.000000 0.000000 0.000000 0.000000 
6313.489258 5135.789062 8728.919922 6735.586914 
3754.012207 3551.769775 4104.861816 4679.676758 
3514.234131 3370.321289 3727.533203 3776.787354 
3378.195801 3292.814941 3533.507568 3254.199463 
3555.458496 3192.474854 3225.110840 3071.378662 
3545.119385 3524.587402 3205.417725 3499.330811 
4248.515137 3287.822754 3401.812500 3338.359863 
3474.315430 3381.637695 3392.152588 3355.715332 
3336.683838 3019.537354 2614.116699 3348.567383 
3292.782959 3276.204346 3119.617188 3188.528564 
3074.742188 3291.253906 2980.128174 3220.374756 
3139.604980 3141.122803 3066.169189 3046.579590 
3177.221924 3076.375000 3117.215820 3023.087646 
5600.503906 3849.379883 6211.589844 5786.332031 
2125.025146 0.000000 0.000000 2158.592285 
1055.552856 0.000000 0.000000 0.000000 
0.000000 0.000000 0.000000 0.000000 
3990.479736 2076.268799 22000.865234 7415.482910 
17136.185547 10945.665039 11596.672852 7909.114258 
7246.141602 10084.326172 12291.102539 8080.191895 
4493.522949 3818.563965 5227.959961 3488.309570 
3731.840332 3631.443359 3562.270752 3701.286133 
3336.651611 3485.604980 3437.110840 4448.443359 
3127.433350 3671.611084 3315.293945 3420.903809 
4019.733643 3257.576660 3577.589844 3382.728760 
3347.246094 3518.919434 3396.986084 3337.817139 
2979.175049 3588.319336 3402.309570 3593.285156 
3466.753174 3179.571045 3468.274414 3524.263672 
3753.158447 3943.590332 3624.749756 3690.256104 
10758.423828 8656.271484 5604.018066 22105.892578 
13554.880859 5834.236328 0.000000 0.000000 
6054.604492 7735.270508 7594.317871 7517.901367 
4623.928711 5010.185547 4360.369629 6922.669922 
3245.045654 3307.607422 3298.860596 3258.595215 
3240.573730 3097.901611 2944.948975 2995.593750 
3166.743896 3349.630859 3272.872803 2989.148193 
3247.903809 3189.005859 3355.195801 3165.937988 
3275.248047 3372.820068 3360.116455 3387.241455 
3336.710693 2980.795654 3095.651855 3266.258301 
3052.083252 3051.247070 3139.710938 3056.514404 
3057.668213 3026.223877 2956.359131 3034.823975 
2972.496582 3242.243164 2961.023438 3170.167480 
2978.864502 3106.902100 2999.791748 2931.331787 
3113.831055 3088.034668 3206.085205 3210.875732 
3280.764404 3138.228516 3134.668945 2990.066162 
3214.146240 3586.770508 3129.400635 3119.477295 
3127.675781 3183.675537 3087.803467 3136.190186 
6283.153809 10831.053711 9519.416992 8556.253906 
6142.921875 7784.714844 10040.499023 7205.523438 
3267.603027 4218.534668 4806.494629 5033.530273 
3709.536621 3967.176758 3833.138672 3654.986572 
3342.207275 3201.494141 3425.862061 3420.542969 
3203.218018 3178.492920 3222.588379 3237.521729 
3248.883301 3314.756592 3235.855957 3225.009033 
3295.266357 3235.627441 3273.307861 3251.922363 
3114.545166 3064.069580 3106.508301 3120.106445 
3281.456299 3251.659180 3203.021729 3237.789062 
3235.285400 3282.813721 3300.812012 3185.111328 
3140.909180 3310.069580 3340.592041 3314.779785 
3343.252197 3161.882812 3273.181152 3175.495605 
3225.924072 3093.090332 3221.954346 3136.159912 
3035.559326 3145.313477 3232.454102 3094.628418 
3187.406494 3098.244873 3166.106201 3363.629883 
0.000000 0.000000 0.000000 0.000000 
3000.102539 5063.947266 11465.949219 13263.513672 
7582.634766 5037.507812 8787.111328 8131.294922 
5337.313477 4767.507324 4911.747070 4668.709961 
3638.702637 3631.357910 3622.077637 3466.489746 
3374.271973 3575.941650 3646.931885 3501.216553 
3712.815186 3208.608154 3280.482666 3374.006836 
3782.640869 3825.109375 3530.995117 3217.934570 
3557.623535 3930.216064 3617.952637 3482.445312 
3407.814209 3401.670898 3405.608887 3917.155029 
3315.206787 3285.992188 3396.413086 3582.473145 
3325.350342 3324.610107 3115.198242 3430.464355 
3191.529053 3024.808105 3311.314209 3203.708740 
3260.487793 3378.125488 3060.626221 3508.928711 
11221.867188 8852.254883 10590.437500 12967.238281 
0.000000 0.000000 2957.568359 0.000000 
10612.183594 8966.303711 4658.947754 2678.475586 
0.000000 20177.578125 28881.593750 0.000000 
0.000000 246.663712 0.000000 26472.119141 
8277.327148 0.000000 0.000000 6736.648438 
2166.469971 30369.339844 19880.292969 31639.050781 
3471.285400 574.891541 3470.557129 14951.900391 
5336.914062 5055.252441 6580.238281 9108.732422 
3365.818359 3927.408936 3998.214600 4323.417480 
4227.257324 3591.535645 3910.772217 3808.839111 
3991.421631 5526.127930 3386.521240 3578.356934 
4835.404297 3583.591064 3240.099365 3384.718750 
3060.676025 3299.122070 3291.804932 3193.148926 
3279.082764 6589.949219 3554.675049 3225.001465 
5315.637207 3441.007324 3764.901123 3095.865723 
3818.828613 2184.251953 3713.243164 3470.531738 
3709.005371 3974.608643 3565.546631 4968.025391 
3070.754639 3244.079346 3066.048096 2989.613037 
0.000000 0.000000 0.000000 0.000000 
3121.986084 3105.216553 2927.834717 2994.843506 
3239.654541 3030.692627 3147.268555 3301.501709 
3098.599609 3177.047363 3080.252930 3095.896729 
3292.681641 3288.013428 3241.401123 3644.447266 
2991.171387 2498.429199 3063.743896 3167.949463 
3396.382812 3291.918701 3220.908203 3612.293457 
2829.200684 3168.155762 3159.178955 3220.422607 
3114.341309 3237.500244 3013.675537 3622.340576 
3596.670898 3643.173828 3506.273193 3632.795166 
3303.899414 3160.506348 2989.610596 3303.294434 
3777.530273 3639.835205 3567.250488 3929.415771 
3420.937988 4028.866699 3795.299316 3925.062012 
4963.387695 4747.553711 4609.760742 5660.671875 
5446.133789 5667.916992 5110.313965 4735.064453 
6461.578613 6615.668945 6494.063965 6954.046875 
13062.300781 5301.047363 14481.547852 15278.931641 
2999.097900 3042.635986 2972.133301 2987.280273 
3060.579590 3001.802734 3035.352539 3051.301270 
3026.244385 3089.338135 3085.519531 3115.448242 
3217.032715 3219.851562 3094.803223 3302.037354 
3214.175049 3139.958008 3167.353027 3171.526855 
3295.587646 3491.557861 3429.539062 3326.770264 
3372.219727 3594.146240 3490.985840 3434.523438 
3399.542236 3475.657471 3498.357666 2703.700195 
3474.184082 3418.272949 3163.241211 3459.805908 
3516.615479 3461.439941 3500.065430 3421.051025 
3427.220459 3159.567139 3331.008789 3172.400391 
3954.721436 3629.311523 3899.322266 3964.507080 
4393.760254 4157.894531 4320.338867 4749.593262 
5356.384277 4473.826172 5237.853516 6319.582031 
15596.662109 9832.638672 10318.269531 9413.359375 
17392.279297 18279.156250 15915.609375 24147.673828 
13204.566406 15642.374023 17973.371094 370.748993 
3279.875488 3284.231201 3364.322021 3321.821777 
3195.061768 3049.604980 3081.503906 3093.156982 
2979.978271 3054.540771 3072.778809 3092.509766 
3409.170410 3163.467529 3161.762939 3256.328857 
3193.708984 3228.214111 3214.588379 3271.086914 
3599.936523 3362.092285 3538.113770 3583.553711 
3356.957764 3565.680176 3462.177246 3439.051270 
3631.328857 3613.164062 3604.751465 3598.050537 
3610.396973 3721.229980 1327.927979 3530.376953 
3872.190918 3874.576172 3512.165771 3390.070312 
4251.894531 6002.039062 4279.393066 4307.398926 
10231.394531 12072.340820 12917.710938 10001.729492 
11268.875000 18453.232422 1412.334473 12632.687500 
0.000000 0.000000 0.000000 0.000000 
0.000000 0.000000 0.000000 0.000000 
3505.292725 4138.675781 3506.781250 3867.887451 
3529.570801 3584.696289 3756.974365 3872.910645 
3396.929688 3510.895752 2949.023926 3453.289307 
3062.703613 3273.235596 3210.162842 3152.696045 
3208.611084 3138.547607 3325.114014 3263.585693 
3290.976807 3214.959961 3597.367676 3660.820312 
3928.104492 3757.112061 3334.706543 1291.967773 
3678.323242 3895.704346 3704.952393 4025.325684 
4139.181641 4261.890625 4954.817383 4080.024658 
7390.517578 7044.928711 7750.423828 607.542603 
21495.341797 5535.140137 17353.353516 11969.634766 
1686.747437 0.000000 16611.792969 0.000000 
0.000000 0.000000 0.000000 0.000000 
381.224823 0.000000 0.000000 0.000000 
0.000000 1655.613647 22798.687500 0.000000 
676.961182 871.738342 0.000000 0.000000 
3042.078613 3129.002441 2953.208496 2926.300293 
3020.866211 3373.748047 2997.685059 3047.417969 
3051.528076 3048.343262 3139.629883 3075.747559 
3489.439209 2982.859619 3025.577637 2975.208496 
2992.135986 3059.101562 3028.851807 3035.967773 
3017.946045 2994.285645 2945.844727 3024.019775 
3022.943115 3039.677734 3003.513916 3019.236084 
2974.442871 3004.919189 2952.718750 2985.937256 
2960.838867 2955.757812 2997.610352 2995.388184 
2979.906250 3029.696045 3119.313965 3856.659668 
3159.691162 3169.920898 3160.236572 3163.396484 
3041.580811 3305.600098 3097.659180 3170.102295 
3238.442627 3200.427734 3099.843994 3099.872070 
3160.770996 3188.029785 3197.422119 2992.882568 
3311.487549 3124.851074 3421.148193 3313.956543 
3348.900391 3369.279053 3349.659180 3302.124023 
2992.847168 2939.769043 2941.934326 3140.058838 
2979.812256 2995.158203 2994.751953 3012.209229 
2996.991455 2964.534668 3019.864746 2980.530029 
3087.152100 3037.088623 2965.371826 3030.543701 
3065.634277 3078.863281 3138.410156 3102.177002 
2993.474365 3242.873535 3069.862061 3038.914795 
3067.176270 3196.130371 3259.433350 3015.627930 
3010.844238 3015.758545 3221.352783 3361.630615 
3148.500000 3051.545654 3276.481445 2977.841064 
3156.262451 3180.416260 3300.687988 3036.812988 
3111.227051 3200.662109 3173.619873 3344.191650 
3316.346436 3296.812256 3427.027344 3113.876709 
3301.038330 3416.166260 3248.402100 3348.591309 
4035.002197 3381.178223 3557.515869 3740.957275 
4230.117188 4450.760742 4291.226562 4106.387695 
5087.282227 6916.409180 5045.082520 4798.680176 
364.444153 19801.277344 328.521332 345.377319 
3225.538818 3022.015381 3196.291016 3068.663574 
3090.601074 3174.125488 3073.916504 3061.315186 
3191.235596 3127.421143 3257.422363 3150.596924 
3328.098877 3236.944824 3272.818359 3278.522461 
3146.127686 3414.202148 3384.022461 3181.931641 
3240.241699 3413.890137 3252.403320 3287.944336 
3434.312988 3447.024170 3298.286621 3367.868652 
3517.158936 3338.614014 3403.306641 3373.377197 
3446.976318 3418.272705 3167.279785 3439.110840 
3866.212646 3195.116699 3447.362305 3479.148438 
3684.686523 3338.332031 3506.514893 3086.826660 
3961.400146 4233.890137 3868.052002 3836.210205 
4167.882324 4367.649414 4475.090820 3695.644043 
18280.628906 6183.917480 984.100342 22934.933594 
0.000000 0.000000 0.000000 0.000000 
1329.618530 1168.984253 0.000000 0.000000 
519.547607 11472.649414 5416.174805 9086.390625 
5793.330566 4637.966309 9038.657227 10723.150391 
3081.072021 3576.631592 3322.910400 4106.317871 
3740.759766 3472.204102 3686.110352 3609.805908 
3876.490234 3459.862793 3822.909912 3108.781982 
3543.575439 3354.405518 3544.287109 3490.071777 
3462.805908 3308.245361 3368.871338 3284.581055 
3768.157959 3629.549805 3750.789551 3736.830078 
4193.853027 4147.283691 4050.002930 3862.170898 
2474.490234 7105.362305 14472.400391 9187.311523 
513.574951 7329.257812 9900.187500 12284.525391 
15238.841797 2740.229492 14383.998047 9289.238281 
136.888046 0.000000 0.000000 0.000000 
0.000000 0.000000 0.000000 0.000000 
248.726288 0.000000 0.000000 0.000000 
2930.223633 3034.985352 3015.773926 3106.599365 
3061.185791 3013.811523 3020.234375 3047.790283 
2949.674072 3065.784180 2952.829102 2891.183350 
2904.857422 3038.282471 2926.210449 2997.998291 
2980.419434 3037.413086 2915.226807 2917.096191 
2886.765381 2903.715576 2991.049072 3092.474854 
2933.365479 2991.348877 3309.918945 3127.043213 
2902.955566 3254.404297 3098.500244 3153.864990 
3121.061768 2885.115234 3175.401367 3177.830811 
3085.697266 3370.389893 3135.262207 3143.340088 
3124.177490 3107.201660 3121.673828 3158.046631 
3180.944824 3171.829834 3106.032959 3149.177002 
3221.304443 2987.816650 3069.432617 3159.725586 
3101.287598 3178.115723 3063.879883 3034.931641 
2945.862793 3103.832275 3070.587891 3069.015869 
3206.102783 3071.623535 3019.869385 3213.794434 
2999.824219 2993.847168 3072.306152 2935.420410 
2976.920654 2979.484375 2963.021484 3070.886230 
2961.695801 3000.850830 3022.091064 3041.564697 
3009.073242 2944.981445 3204.201904 3006.253906 
3485.717041 3215.974365 3137.079834 2971.410889 
2909.967773 3068.370361 3073.825439 3096.627441 
3098.340576 2927.297607 3197.768799 3013.562988 
3367.288574 3019.204346 3110.520508 3062.916016 
3028.314209 3712.419434 3164.185791 3491.275635 
3247.868164 3077.125732 3705.549316 3361.957764 
3113.317627 3125.925293 3116.156494 3137.619141 
3116.485596 3380.991455 3322.093750 3464.084717 
3020.177490 3411.508545 3153.906494 3113.437012 
3046.570557 2937.942383 3194.623535 3315.020264 
3111.912109 3116.408936 3413.701660 2998.915771 
3105.357666 3109.407959 2960.064209 2964.372559 
27847.373047 0.000000 0.000000 10849.685547 
3009.833984 3018.982910 3042.792236 2998.297852 
3126.543945 3064.588379 2972.262939 3145.843262 
2994.973877 3619.170166 3468.204102 3155.768555 
3160.910156 3029.060303 3058.769043 3010.575928 
3048.008301 3114.203613 3177.264160 2967.203369 
3280.781494 2992.753418 3067.393799 3041.167725 
3115.210693 3378.942383 3294.285645 3148.596680 
3302.280029 3422.285645 3406.731201 3050.297607 
3416.873779 3415.567139 3271.795898 3469.240723 
3725.833252 3241.550537 3044.950684 3436.729004 
3204.050293 3361.755859 3256.576660 3254.528564 
2940.239502 3111.228027 3580.051758 3372.761230 
3268.922119 3067.000488 2503.168213 4506.048828 
3615.379395 3341.846191 3498.047363 3733.504883 
0.000000 0.000000 0.000000 0.000000 
3290.955078 372.011139 0.000000 1026.192383 
6021.471680 13886.548828 14730.260742 14471.849609 
4877.326660 4619.227539 4501.270508 3486.376221 
4798.920410 4673.972168 4206.972656 5345.685059 
3753.246582 3265.697021 3479.312988 3199.308838 
3177.669922 3073.358887 3073.507812 3233.701904 
3019.518311 3069.120117 3084.462891 3306.001709 
3192.939209 3487.154297 3033.532959 3208.216553 
3179.321777 3190.149658 3145.714111 3275.169434 
3422.732422 3349.372070 3367.979492 3167.125732 
3803.988281 3433.419434 3645.673584 3626.092285 
3720.173584 3942.782715 3983.700928 3734.499023 
4602.117676 3583.664062 3638.354492 3744.210449 
1906.300537 13137.623047 9180.704102 19780.496094 
0.000000 0.000000 0.000000 0.000000 
0.000000 0.000000 0.000000 0.000000 
3026.579346 3128.788574 3004.704102 2988.651611 
3103.874023 2965.710938 2951.179443 3028.196777 
3144.479492 3042.090088 2972.800049 3084.947266 
3038.738525 2987.124268 3264.781982 2978.971191 
3025.179443 3095.252930 2996.460449 3036.805420 
3058.754395 2642.585693 3394.486572 3056.952148 
3036.285645 3117.254883 2937.020752 3047.940186 
3099.247803 3146.980225 3079.527100 3143.667725 
3007.802734 3036.938721 3094.134033 3101.034180 
3142.041748 2987.576172 3007.993408 3107.406982 
3136.109375 3132.903564 2954.182617 3123.872314 
2987.764648 3020.353271 3010.232422 3133.776123 
3157.614990 2929.093262 3258.988770 3036.233154 
3052.943115 3034.369629 3053.025879 3169.909668 
3165.302002 3015.719971 3105.909424 3090.939453 
3079.384033 3013.772949 2970.942383 2983.468018 
3088.740967 2974.489746 2957.107178 3056.271973 
3078.273438 3035.547119 3062.177734 3066.368408 
3509.883301 3129.348389 3221.747803 3097.641357 
3089.316406 2987.505615 2956.060303 2964.941895 
3004.404785 2996.391113 3101.597168 3031.420410 
3179.751709 3241.631836 3195.572510 3134.586670 
3015.420654 3043.326904 3067.944092 3062.989258 
3133.372314 3184.467041 3188.806396 3187.359619 
3178.022217 3147.664551 3076.597412 3049.856445 
3254.913086 3087.469238 3205.077393 3023.899902 
3161.368408 3107.506104 3004.114502 2905.912598 
2973.197021 3071.119385 3195.315186 3091.822754 
3008.263916 3282.934082 2995.990723 3014.158203 
3308.894531 3060.725830 3102.630615 3231.998047 
3209.209473 3142.310059 3196.124512 2968.893555 
3167.268799 3147.775879 3148.935303 3058.830811 
161.316833 0.000000 0.000000 0.000000 
3279.718262 3085.154541 3090.186768 3038.844238 
3027.810059 3322.409912 3522.607422 3121.118652 
3116.444824 3128.439941 3307.530762 3116.814697 
3165.545654 3057.789062 3073.546631 3062.680664 
3096.571533 3133.798828 3254.071289 3158.757812 
3051.757324 3063.065186 3071.658936 3125.372803 
3094.619141 3001.680176 3328.879639 3045.541504 
3178.425537 3173.462646 3141.786621 3121.035400 
3783.999268 3515.830811 3354.388184 3073.770996 
3181.910156 3018.232422 3328.334229 3347.857666 
3031.196289 2956.733887 3156.303223 3111.038574 
3224.577393 3435.867676 3484.239502 3237.335693 
3273.127197 3093.721191 3055.687988 3340.204590 
3405.074707 3295.525635 3445.033203 3183.897949 
0.000000 0.000000 0.000000 0.000000 
0.000000 0.000000 0.000000 0.000000 
3356.018066 3805.587646 3779.562256 3543.916992 
3743.670898 3364.060303 4048.977783 5055.537109 
3808.277344 3942.115723 4001.159668 1671.037109 
8086.705078 6717.922363 4719.261230 7164.807617 
3201.411377 3610.080078 3274.055176 3560.643066 
3036.074951 3079.334229 2778.015869 3093.738281 
3178.845459 2982.442383 3331.535156 3225.686279 
3255.596436 3018.471191 3274.338623 3144.877197 
3354.587158 3221.977539 3808.710693 3209.383057 
3377.413574 3311.469482 3248.943359 3279.854004 
4182.677734 5220.523438 4776.676270 15435.993164 
3521.603271 3398.064941 7732.383789 3259.693359 
7210.913086 13350.007812 7888.618164 4890.895996 
0.000000 0.000000 0.000000 5410.253906 
0.000000 0.000000 0.000000 0.000000 
3096.333740 2972.946777 2963.716064 2975.064453 
3008.048584 3015.922119 3039.308105 3032.194824 
2998.986328 3107.440918 3047.156006 2992.321533 
2962.695557 3209.135498 3056.163330 2995.050781 
3161.590332 3113.737305 3181.704346 3079.804443 
3110.641357 2980.277832 3088.152588 3099.243408 
3089.923096 3130.830811 3122.631592 3083.502930 
3131.703857 3040.174805 3073.552490 3134.262939 
3158.051025 3032.303223 3138.595459 3148.004150 
3048.321777 929.946533 3047.057129 3021.415771 
3102.654541 3017.411865 3031.706055 3069.604980 
3128.333496 2879.121826 2977.220947 3013.341309 
3023.322021 3085.812012 2932.624268 3071.556152 
3063.443848 2995.331299 2995.929199 3061.489502 
3043.385254 3026.009033 3089.982666 2946.566650 
2912.112061 2934.882812 3004.073486 3079.667969 
3058.896484 3109.110840 3043.124268 3024.427490 
3054.264648 3283.299805 3109.824463 3033.999268 
3242.285645 3252.633789 3132.244141 3128.050537 
3002.511719 3111.119873 3085.417969 3174.301514 
3203.245605 3072.850342 3224.145996 3189.061523 
3136.655029 3072.208496 3145.035889 3184.544189 
3097.635498 3132.785400 3142.681641 3459.921875 
3168.065430 3242.771240 3264.730469 3154.848633 
3098.497070 3049.595215 2987.786133 3193.224365 
3013.679688 3044.492432 3021.750732 2918.199463 
3080.514893 2931.383545 2976.768311 2993.680664 
2975.125000 2959.089844 3023.632324 3095.471924 
3079.951904 3060.851074 3298.527832 2980.766113 
3052.447510 3304.053711 3038.312256 3022.514648 
3172.734131 3093.945068 3696.235352 3137.436523 
3052.804199 2765.503906 3066.425049 3126.418945 
0.000000 0.000000 0.000000 0.000000 
3064.612061 3049.934570 3058.458008 3090.046631 
3105.152344 3076.961914 3069.459961 3148.107178 
3230.462891 3129.049072 3292.628906 3222.290527 
3311.663086 3309.342773 3203.815674 3357.119629 
3248.300537 3129.335449 3126.373291 3199.240967 
3255.581299 3239.432617 3236.522705 3135.883057 
3167.166016 3180.593750 3142.424072 3190.616943 
3062.043945 3111.373291 3194.020752 3263.055176 
3144.247803 3039.469482 3017.460938 4309.981934 
3052.754395 3104.766602 3027.532959 3053.617432 
3216.526611 3017.910889 3128.584717 3191.270752 
3312.402100 3060.992188 3147.855957 3091.881348 
3070.323486 3153.652588 3148.248047 4331.766602 
3727.406250 3651.633301 3423.014648 3312.012451 
0.000000 0.000000 0.000000 4719.354492 
0.000000 0.000000 0.000000 0.000000 
613.287109 19346.281250 25266.544922 0.000000 
4351.945801 3547.717285 3418.933838 4426.914062 
4114.275391 4241.099121 4543.502930 3624.538330 
4098.984863 3468.148438 3573.605713 3870.046387 
3294.403320 3269.959473 3291.053955 3180.189697 
3366.474854 3239.225586 3236.403076 3216.711182 
3098.020508 3157.877930 3318.975342 3240.645996 
3029.126221 3123.005127 3090.977539 3105.502441 
3128.631592 3374.473633 3188.592285 3934.312256 
5285.381836 3933.715820 4038.576660 3443.090820 
3652.291016 4335.817383 4361.794922 5053.717773 
4011.813477 3470.216309 3222.798584 3661.612793 
3723.863037 3559.025879 3271.065674 4677.540527 
7600.836914 0.000000 0.000000 0.000000 
0.000000 0.000000 0.000000 0.000000 
3004.948486 3025.413574 3018.079590 3043.008057 
3114.130859 3100.089111 3086.057861 3157.003906 
2671.295166 2992.846191 3108.324219 3074.215332 
3144.976562 2989.522461 3127.984619 3046.430420 
3138.791748 3026.266602 2978.059814 3006.984375 
2995.457275 3058.898682 3113.474121 3024.997314 
3049.538818 3184.408447 3077.102539 3067.552246 
3089.080322 3067.321289 2996.873291 3063.048096 
3008.294922 3295.224609 3052.037842 3302.020752 
2967.292969 3071.895752 2935.180176 2913.945801 
3123.300781 3051.493408 3065.583740 3086.354980 
2966.582031 3001.616455 3028.996338 2944.569824 
3003.229004 2929.288086 3004.384033 2984.067627 
3025.499512 3031.779297 2933.984131 2941.610107 
2989.493652 3028.495605 2990.548096 2959.022217 
2726.884766 2972.970947 3039.912109 3125.357910 
3060.436768 3037.087402 3048.047607 3055.896484 
3094.350342 3094.703369 3081.780029 3084.064941 
3111.554688 3067.996094 3111.976074 3152.652100 
2990.744629 3201.322998 3218.775391 3116.165771 
3050.930420 3055.022705 3098.959229 3079.444092 
3229.457764 3031.300537 3200.300293 3181.446289 
3174.210693 3077.042969 3057.723145 3065.419922 
3419.494629 3238.640381 3366.021729 3242.897461 
3132.236328 3148.716553 3131.300049 3095.212158 
3085.848389 2938.407471 3156.400146 2892.968018 
3069.571777 3036.269531 3161.309570 3024.131592 
2945.466064 2953.481445 3050.123535 3536.345947 
2948.196777 2889.009277 2987.041260 3006.213379 
3059.991211 3044.493896 2975.724121 3122.797363 
3021.562988 2996.368408 2963.117676 3100.989746 
3006.233398 2946.256592 3086.037598 2997.502441 
0.000000 0.000000 0.000000 0.000000 
3155.262207 3158.285156 3162.166260 3109.710938 
3188.264160 3253.733887 3234.129883 3141.738281 
3099.498779 3063.690918 3108.907471 3223.202881 
3333.628906 3100.621582 3351.754883 3006.657471 
3214.707764 3164.094971 3397.546143 3430.484131 
3492.607666 3147.447510 3397.762207 3495.023438 
3084.166992 3233.695068 3270.413086 3023.062500 
3223.399414 3424.210693 3724.106934 3196.264160 
2953.033447 3018.298828 3032.353027 3165.349365 
3026.226318 3101.788574 3345.899902 2939.015869 
3000.308838 3121.123779 2955.464355 2902.593018 
3093.655273 3078.104980 3122.171143 3279.322754 
3069.299805 3158.699707 3061.333740 4368.062500 
3411.749023 3343.734619 3706.229980 3735.777344 
5319.439941 4972.828613 6268.553711 5973.914062 
0.000000 0.000000 0.000000 0.000000 
0.000000 0.000000 2558.746338 0.000000 
6445.609375 3865.189941 3711.471680 5098.478027 
3379.575195 4026.456543 4150.090332 3595.583008 
3861.027588 7104.817383 5353.005371 6051.729492 
3488.897461 3459.549316 3292.453369 3455.703613 
3312.605469 3202.070068 3320.699951 3529.797363 
3159.993408 3165.292725 3555.486328 3363.631104 
3200.316162 3188.050293 3283.645752 2765.241455 
4414.566895 2999.435059 4576.497559 3078.160400 
3049.140869 3137.275391 3180.510986 3267.354980 
3945.884766 5085.199219 3681.761475 3635.576172 
3713.256836 3933.946289 3870.550293 5326.857910 
4486.719238 16242.093750 4567.535156 4095.020752 
3412.704590 12949.124023 591.035034 1228.278809 
0.000000 0.000000 0.000000 0.000000 
3283.130859 3325.758301 3120.321045 3165.066162 
3141.848633 3454.223145 3171.268066 3255.124512 
3088.555664 3246.682129 3008.696045 3176.624512 
3075.213623 3054.112793 3015.413086 3072.571289 
3032.997559 3043.143311 3104.771973 3019.358154 
3059.737549 3124.875488 3016.118408 3048.166260 
3108.072266 2931.146973 3048.541260 3058.689697 
2995.099365 2960.939453 3039.386719 3192.027344 
3084.640137 2981.542725 3066.063477 3035.908936 
2976.429199 2942.257324 3902.066406 2899.577881 
3067.243164 2921.223389 3163.136475 3057.461182 
3727.405518 2937.726074 3462.910889 2975.482910 
3022.415527 2931.607178 2984.557617 2967.718262 
3016.493652 2634.209473 3928.391846 3010.516846 
3023.832031 3116.609375 3030.267334 3102.896973 
3879.235352 2951.051025 3066.689453 2983.562500 
4359.113770 3978.149902 3957.625488 3958.519287 
7064.616211 4401.469727 3747.444092 3812.221436 
3194.942139 3180.258789 3119.182861 3415.653320 
3107.524170 3074.966064 3338.750732 3085.937012 
3339.061523 3020.897461 3090.285156 3391.578125 
3131.013916 3130.316895 2999.733154 3072.131836 
3013.176025 2956.229004 2972.892578 2970.623535 
2994.559326 3095.487061 3010.275879 3209.909180 
2956.902832 2970.784180 3015.474854 2966.185303 
3111.666260 3062.961426 3330.518799 3108.173584 
3102.004883 3086.481445 3371.452393 3085.664551 
3166.135742 2946.971680 3001.116699 2979.460205 
2980.520996 3148.774658 2991.501709 3315.687012 
3085.731201 3364.182861 3840.778320 3109.523438 
3012.050293 3026.990967 3028.811768 3060.482666 
3047.671387 3010.558594 2976.939697 2975.519043 
0.000000 0.000000 0.000000 0.000000 
5781.991211 4669.412109 4231.249023 6000.052734 
4315.994141 4187.421875 3665.799316 3287.949219 
3368.189209 3457.436035 3481.502441 3306.382324 
3188.785645 3135.762695 3341.954590 3416.958984 
3341.199219 3149.337891 3352.510498 3394.614258 
3339.662109 3070.296143 3029.896240 3076.926270 
3619.648682 3579.519531 3124.058838 3263.090332 
3224.762695 3247.657471 3345.982422 3299.248535 
3107.224609 3382.706055 3414.365967 3483.795410 
3279.560791 3283.706299 3312.127441 3408.804443 
3200.011475 3242.388916 3420.854736 3360.947510 
3173.207031 3191.652100 3249.659424 3288.660645 
3077.817871 3053.327637 3072.359619 3129.025635 
5341.628906 3524.643311 5530.731934 5305.597656 
11262.029297 0.000000 0.000000 647.138062 
4634.413086 180.383667 0.000000 0.000000 
0.000000 0.000000 0.000000 0.000000 
32073.003906 23251.537109 4488.550781 0.000000 
10142.687500 8902.792969 8955.246094 9326.148438 
8852.809570 17093.894531 6954.367676 20017.136719 
4908.079102 5337.553711 4182.797363 6253.669922 
3737.861328 3520.789551 3541.215820 3460.597168 
3226.222412 3461.079590 3639.288574 3591.927979 
3284.374512 4886.029297 3771.139893 3532.173096 
3754.251221 3289.550049 3255.150146 3324.479492 
3487.009033 3450.483887 3504.308838 3515.630615 
3217.796143 3335.189941 3365.809082 3239.861328 
3386.859863 3092.331543 3401.638428 4567.743652 
5738.018555 3866.391846 8104.993164 4638.801758 
7035.565918 8111.442383 8026.206055 1443.650391 
0.000000 912.334167 0.000000 0.000000 
7253.198730 6127.977539 9053.711914 7152.806641 
4651.968750 4143.556152 7516.638184 4545.526855 
3941.600586 4297.659180 3503.618408 3840.539551 
3260.468018 2923.853027 3009.390137 3068.645752 
3446.614990 3127.389648 3411.712646 3659.835449 
2971.967773 3121.197021 3119.414795 3179.673096 
3136.672363 3217.507324 3253.447754 3232.696777 
3102.809814 3058.735596 3380.789062 3208.314209 
3136.387451 3268.094238 3155.898926 3168.931885 
2983.507812 3051.427002 3100.271729 3090.913818 
3004.627197 2931.686768 3032.605713 3005.491943 
3008.598145 3228.179688 3023.267822 3082.901611 
3208.117676 2993.446289 3097.844482 3043.421631 
3203.005371 3193.329346 3093.397217 3109.763672 
3002.007568 3014.814697 3128.389893 3146.602051 
3399.436035 3172.968994 3081.605957 3859.216064 
27643.386719 10574.822266 9875.373047 14289.397461 
4704.484375 4661.667480 4427.322266 5577.170410 
4369.148438 4067.451660 4045.738770 4154.568359 
3651.909912 3641.647705 3804.072021 3857.371826 
3328.650391 3378.656006 3356.565430 3377.452881 
3331.085205 3258.015869 3070.035645 3283.856445 
3180.539795 3247.057129 3234.713135 3169.543945 
3063.657227 3178.476074 3118.531494 3222.676758 
3151.565186 3055.994629 3128.197510 3116.901611 
3112.480713 3040.642822 3105.067871 3181.484375 
3150.028564 3226.041016 3191.621826 3310.945068 
3198.770508 3268.121826 3238.993408 3287.203125 
3192.137451 3380.116455 3273.709717 3314.892334 
2956.190430 3206.108398 3142.862061 3417.173584 
3226.560059 3265.523926 3064.511963 3187.793457 
3287.320557 3368.071533 3532.257568 3112.164307 
0.000000 0.000000 0.000000 0.000000 
0.000000 600.033691 10501.810547 2627.123779 
9288.051758 10944.227539 4458.345703 4382.150879 
4443.856934 4252.610352 4864.007812 3830.425781 
3960.689209 3414.120605 3718.627441 3526.021973 
3486.187988 3293.882324 3216.213867 3394.504395 
3382.852295 3372.049316 3350.266846 3265.107666 
3251.848145 3156.058350 3316.454834 3897.719727 
3609.659912 3905.283203 3483.777100 3547.879883 
3379.085205 3409.561523 3488.265381 3347.555176 
3383.098877 3463.768555 3323.816895 3344.451172 
3193.376953 3155.259277 3144.975342 3321.184570 
3172.045410 3356.535889 3070.554443 3141.203613 
3255.134277 3177.616455 3425.560059 3174.298584 
6685.284180 4373.807617 5533.634277 4783.229980 
0.000000 0.000000 316.025177 0.000000 
10814.000000 11940.230469 18297.369141 2471.747559 
0.000000 1276.576294 5791.316895 0.000000 
0.000000 11856.581055 0.000000 15022.287109 
30792.882812 0.000000 6717.384277 9521.468750 
1120.676514 21650.755859 1005.896973 568.296387 
25675.769531 13875.399414 10264.535156 11072.113281 
5678.828125 8507.936523 5046.107422 4622.870117 
4266.399414 4082.154053 3464.464844 3129.044922 
3905.748047 3549.727051 3790.974609 3521.807373 
3419.510742 4545.643555 3139.872070 3810.005615 
4263.074707 3463.282471 3504.843018 3260.144531 
3358.791992 5501.975586 3199.736328 3287.251709 
3322.923828 3708.509033 3585.801270 3156.724121 
4322.211914 3631.755859 3389.794189 3203.717285 
4558.525391 4903.459961 3370.346191 3791.874512 
5133.329102 5267.149414 4137.380859 4804.830078 
