digraph "env.h"
{
 // LATEX_PDF_SIZE
  edge [fontname="Helvetica",fontsize="10",labelfontname="Helvetica",labelfontsize="10"];
  node [fontname="Helvetica",fontsize="10",shape=record];
  Node1 [label="env.h",height=0.2,width=0.4,color="black", fillcolor="grey75", style="filled", fontcolor="black",tooltip="structures et prototypes des fonctions permettant à l'IA d'interagir avec l'environnement du flipper"];
  Node1 -> Node2 [dir="back",color="midnightblue",fontsize="10",style="solid",fontname="Helvetica"];
  Node2 [label="env.c",height=0.2,width=0.4,color="black", fillcolor="white", style="filled",URL="$env_8c.html",tooltip="fonctions permettant à l'IA d'interagir avec l'environnement"];
  Node1 -> Node3 [dir="back",color="midnightblue",fontsize="10",style="solid",fontname="Helvetica"];
  Node3 [label="learning.h",height=0.2,width=0.4,color="black", fillcolor="white", style="filled",URL="$learning_8h.html",tooltip="prototypes des fonctions permettant l'apprentissage de l'IA"];
  Node3 -> Node4 [dir="back",color="midnightblue",fontsize="10",style="solid",fontname="Helvetica"];
  Node4 [label="learning.c",height=0.2,width=0.4,color="black", fillcolor="white", style="filled",URL="$learning_8c.html",tooltip="fonctions permettant l'apprentissage de l'IA"];
  Node1 -> Node5 [dir="back",color="midnightblue",fontsize="10",style="solid",fontname="Helvetica"];
  Node5 [label="param.h",height=0.2,width=0.4,color="black", fillcolor="white", style="filled",URL="$param_8h.html",tooltip="structures et prototypes des fonctions permettant de définir les paramètres d'apprentissage"];
  Node5 -> Node3 [dir="back",color="midnightblue",fontsize="10",style="solid",fontname="Helvetica"];
  Node5 -> Node6 [dir="back",color="midnightblue",fontsize="10",style="solid",fontname="Helvetica"];
  Node6 [label="param.c",height=0.2,width=0.4,color="black", fillcolor="white", style="filled",URL="$param_8c.html",tooltip="fonctions permettant de définir les paramètres d'apprentissage"];
}
