digraph "learning.c"
{
 // LATEX_PDF_SIZE
  edge [fontname="Helvetica",fontsize="10",labelfontname="Helvetica",labelfontsize="10"];
  node [fontname="Helvetica",fontsize="10",shape=record];
  Node1 [label="learning.c",height=0.2,width=0.4,color="black", fillcolor="grey75", style="filled", fontcolor="black",tooltip="fonctions permettant l'apprentissage de l'IA"];
  Node1 -> Node2 [color="midnightblue",fontsize="10",style="solid",fontname="Helvetica"];
  Node2 [label="learning.h",height=0.2,width=0.4,color="black", fillcolor="white", style="filled",URL="$learning_8h.html",tooltip="prototypes des fonctions permettant l'apprentissage de l'IA"];
  Node2 -> Node3 [color="midnightblue",fontsize="10",style="solid",fontname="Helvetica"];
  Node3 [label="env.h",height=0.2,width=0.4,color="black", fillcolor="white", style="filled",URL="$env_8h.html",tooltip="structures et prototypes des fonctions permettant à l'IA d'interagir avec l'environnement du flipper"];
  Node3 -> Node4 [color="midnightblue",fontsize="10",style="solid",fontname="Helvetica"];
  Node4 [label="SDL.h",height=0.2,width=0.4,color="black", fillcolor="white", style="filled",URL="$SDL_8h_source.html",tooltip=" "];
  Node4 -> Node5 [color="midnightblue",fontsize="10",style="solid",fontname="Helvetica"];
  Node5 [label="UI.h",height=0.2,width=0.4,color="black", fillcolor="white", style="filled",URL="$UI_8h.html",tooltip="code h regroupant certaines fonctions pour manier le côté graphique de la sdl"];
  Node5 -> Node6 [color="midnightblue",fontsize="10",style="solid",fontname="Helvetica"];
  Node6 [label="SDL2/SDL.h",height=0.2,width=0.4,color="grey75", fillcolor="white", style="filled",tooltip=" "];
  Node5 -> Node7 [color="midnightblue",fontsize="10",style="solid",fontname="Helvetica"];
  Node7 [label="SDL2/SDL_image.h",height=0.2,width=0.4,color="grey75", fillcolor="white", style="filled",tooltip=" "];
  Node5 -> Node8 [color="midnightblue",fontsize="10",style="solid",fontname="Helvetica"];
  Node8 [label="SDL2/SDL_mixer.h",height=0.2,width=0.4,color="grey75", fillcolor="white", style="filled",tooltip=" "];
  Node5 -> Node9 [color="midnightblue",fontsize="10",style="solid",fontname="Helvetica"];
  Node9 [label="SDL2/SDL_ttf.h",height=0.2,width=0.4,color="grey75", fillcolor="white", style="filled",tooltip=" "];
  Node5 -> Node10 [color="midnightblue",fontsize="10",style="solid",fontname="Helvetica"];
  Node10 [label="stdio.h",height=0.2,width=0.4,color="grey75", fillcolor="white", style="filled",tooltip=" "];
  Node5 -> Node11 [color="midnightblue",fontsize="10",style="solid",fontname="Helvetica"];
  Node11 [label="stdlib.h",height=0.2,width=0.4,color="grey75", fillcolor="white", style="filled",tooltip=" "];
  Node4 -> Node12 [color="midnightblue",fontsize="10",style="solid",fontname="Helvetica"];
  Node12 [label="engine.h",height=0.2,width=0.4,color="black", fillcolor="white", style="filled",URL="$engine_8h.html",tooltip=" "];
  Node12 -> Node13 [color="midnightblue",fontsize="10",style="solid",fontname="Helvetica"];
  Node13 [label="physics.h",height=0.2,width=0.4,color="black", fillcolor="white", style="filled",URL="$physics_8h.html",tooltip=" "];
  Node13 -> Node14 [color="midnightblue",fontsize="10",style="solid",fontname="Helvetica"];
  Node14 [label="math.h",height=0.2,width=0.4,color="grey75", fillcolor="white", style="filled",tooltip=" "];
  Node13 -> Node10 [color="midnightblue",fontsize="10",style="solid",fontname="Helvetica"];
  Node13 -> Node11 [color="midnightblue",fontsize="10",style="solid",fontname="Helvetica"];
  Node12 -> Node15 [color="midnightblue",fontsize="10",style="solid",fontname="Helvetica"];
  Node15 [label="sound.h",height=0.2,width=0.4,color="black", fillcolor="white", style="filled",URL="$sound_8h.html",tooltip=" "];
  Node15 -> Node5 [color="midnightblue",fontsize="10",style="solid",fontname="Helvetica"];
  Node4 -> Node15 [color="midnightblue",fontsize="10",style="solid",fontname="Helvetica"];
  Node3 -> Node12 [color="midnightblue",fontsize="10",style="solid",fontname="Helvetica"];
  Node2 -> Node16 [color="midnightblue",fontsize="10",style="solid",fontname="Helvetica"];
  Node16 [label="param.h",height=0.2,width=0.4,color="black", fillcolor="white", style="filled",URL="$param_8h.html",tooltip="structures et prototypes des fonctions permettant de définir les paramètres d'apprentissage"];
  Node16 -> Node10 [color="midnightblue",fontsize="10",style="solid",fontname="Helvetica"];
  Node16 -> Node3 [color="midnightblue",fontsize="10",style="solid",fontname="Helvetica"];
  Node1 -> Node17 [color="midnightblue",fontsize="10",style="solid",fontname="Helvetica"];
  Node17 [label="time.h",height=0.2,width=0.4,color="grey75", fillcolor="white", style="filled",tooltip=" "];
}
