digraph "learning.h"
{
 // LATEX_PDF_SIZE
  edge [fontname="Helvetica",fontsize="10",labelfontname="Helvetica",labelfontsize="10"];
  node [fontname="Helvetica",fontsize="10",shape=record];
  Node1 [label="learning.h",height=0.2,width=0.4,color="black", fillcolor="grey75", style="filled", fontcolor="black",tooltip="prototypes des fonctions permettant l'apprentissage de l'IA"];
  Node1 -> Node2 [dir="back",color="midnightblue",fontsize="10",style="solid",fontname="Helvetica"];
  Node2 [label="learning.c",height=0.2,width=0.4,color="black", fillcolor="white", style="filled",URL="$learning_8c.html",tooltip="fonctions permettant l'apprentissage de l'IA"];
}
