digraph "physics.h"
{
 // LATEX_PDF_SIZE
  edge [fontname="Helvetica",fontsize="10",labelfontname="Helvetica",labelfontsize="10"];
  node [fontname="Helvetica",fontsize="10",shape=record];
  Node1 [label="physics.h",height=0.2,width=0.4,color="black", fillcolor="grey75", style="filled", fontcolor="black",tooltip=" "];
  Node1 -> Node2 [dir="back",color="midnightblue",fontsize="10",style="solid",fontname="Helvetica"];
  Node2 [label="engine.h",height=0.2,width=0.4,color="black", fillcolor="white", style="filled",URL="$engine_8h.html",tooltip=" "];
  Node2 -> Node3 [dir="back",color="midnightblue",fontsize="10",style="solid",fontname="Helvetica"];
  Node3 [label="engine.c",height=0.2,width=0.4,color="black", fillcolor="white", style="filled",URL="$engine_8c.html",tooltip="Fichier contenant la création des objets physiques et leur modification."];
  Node2 -> Node4 [dir="back",color="midnightblue",fontsize="10",style="solid",fontname="Helvetica"];
  Node4 [label="env.h",height=0.2,width=0.4,color="black", fillcolor="white", style="filled",URL="$env_8h.html",tooltip="structures et prototypes des fonctions permettant à l'IA d'interagir avec l'environnement du flipper"];
  Node4 -> Node5 [dir="back",color="midnightblue",fontsize="10",style="solid",fontname="Helvetica"];
  Node5 [label="env.c",height=0.2,width=0.4,color="black", fillcolor="white", style="filled",URL="$env_8c.html",tooltip="fonctions permettant à l'IA d'interagir avec l'environnement"];
  Node4 -> Node6 [dir="back",color="midnightblue",fontsize="10",style="solid",fontname="Helvetica"];
  Node6 [label="learning.h",height=0.2,width=0.4,color="black", fillcolor="white", style="filled",URL="$learning_8h.html",tooltip="prototypes des fonctions permettant l'apprentissage de l'IA"];
  Node6 -> Node7 [dir="back",color="midnightblue",fontsize="10",style="solid",fontname="Helvetica"];
  Node7 [label="learning.c",height=0.2,width=0.4,color="black", fillcolor="white", style="filled",URL="$learning_8c.html",tooltip="fonctions permettant l'apprentissage de l'IA"];
  Node4 -> Node8 [dir="back",color="midnightblue",fontsize="10",style="solid",fontname="Helvetica"];
  Node8 [label="param.h",height=0.2,width=0.4,color="black", fillcolor="white", style="filled",URL="$param_8h.html",tooltip="structures et prototypes des fonctions permettant de définir les paramètres d'apprentissage"];
  Node8 -> Node6 [dir="back",color="midnightblue",fontsize="10",style="solid",fontname="Helvetica"];
  Node8 -> Node9 [dir="back",color="midnightblue",fontsize="10",style="solid",fontname="Helvetica"];
  Node9 [label="param.c",height=0.2,width=0.4,color="black", fillcolor="white", style="filled",URL="$param_8c.html",tooltip="fonctions permettant de définir les paramètres d'apprentissage"];
  Node2 -> Node10 [dir="back",color="midnightblue",fontsize="10",style="solid",fontname="Helvetica"];
  Node10 [label="SDL.h",height=0.2,width=0.4,color="black", fillcolor="white", style="filled",URL="$SDL_8h_source.html",tooltip=" "];
  Node10 -> Node4 [dir="back",color="midnightblue",fontsize="10",style="solid",fontname="Helvetica"];
  Node10 -> Node11 [dir="back",color="midnightblue",fontsize="10",style="solid",fontname="Helvetica"];
  Node11 [label="SDL.c",height=0.2,width=0.4,color="black", fillcolor="white", style="filled",URL="$SDL_8c.html",tooltip="Fichier pour l'affichage graphique."];
  Node1 -> Node12 [dir="back",color="midnightblue",fontsize="10",style="solid",fontname="Helvetica"];
  Node12 [label="physics.c",height=0.2,width=0.4,color="black", fillcolor="white", style="filled",URL="$physics_8c.html",tooltip="Fichier des calculs physique."];
}
