digraph "action_feedback"
{
 // LATEX_PDF_SIZE
  edge [fontname="Helvetica",fontsize="10",labelfontname="Helvetica",labelfontsize="10"];
  node [fontname="Helvetica",fontsize="10",shape=record];
  Node1 [label="action_feedback",height=0.2,width=0.4,color="black", fillcolor="grey75", style="filled", fontcolor="black",tooltip="informations retournées après une action"];
  Node2 -> Node1 [dir="back",color="darkorchid3",fontsize="10",style="dashed",label=" state" ,fontname="Helvetica"];
  Node2 [label="state",height=0.2,width=0.4,color="black", fillcolor="white", style="filled",URL="$structstate.html",tooltip="position de la bille sur la grille"];
}
