digraph "engine.c"
{
 // LATEX_PDF_SIZE
  edge [fontname="Helvetica",fontsize="10",labelfontname="Helvetica",labelfontsize="10"];
  node [fontname="Helvetica",fontsize="10",shape=record];
  Node1 [label="engine.c",height=0.2,width=0.4,color="black", fillcolor="grey75", style="filled", fontcolor="black",tooltip="Fichier contenant la création des objets physiques et leur modification."];
  Node1 -> Node2 [color="midnightblue",fontsize="10",style="solid"];
  Node2 [label="engine.h",height=0.2,width=0.4,color="black", fillcolor="white", style="filled",URL="$engine_8h.html",tooltip=" "];
  Node2 -> Node3 [color="midnightblue",fontsize="10",style="solid"];
  Node3 [label="physics.h",height=0.2,width=0.4,color="black", fillcolor="white", style="filled",URL="$physics_8h.html",tooltip=" "];
  Node3 -> Node4 [color="midnightblue",fontsize="10",style="solid"];
  Node4 [label="math.h",height=0.2,width=0.4,color="grey75", fillcolor="white", style="filled",tooltip=" "];
  Node3 -> Node5 [color="midnightblue",fontsize="10",style="solid"];
  Node5 [label="stdio.h",height=0.2,width=0.4,color="grey75", fillcolor="white", style="filled",tooltip=" "];
  Node3 -> Node6 [color="midnightblue",fontsize="10",style="solid"];
  Node6 [label="stdlib.h",height=0.2,width=0.4,color="grey75", fillcolor="white", style="filled",tooltip=" "];
  Node2 -> Node7 [color="midnightblue",fontsize="10",style="solid"];
  Node7 [label="sound.h",height=0.2,width=0.4,color="black", fillcolor="white", style="filled",URL="$sound_8h.html",tooltip=" "];
  Node7 -> Node8 [color="midnightblue",fontsize="10",style="solid"];
  Node8 [label="UI.h",height=0.2,width=0.4,color="black", fillcolor="white", style="filled",URL="$UI_8h.html",tooltip="code h regroupant certaines fonctions pour manier le côté graphique de la sdl"];
  Node8 -> Node9 [color="midnightblue",fontsize="10",style="solid"];
  Node9 [label="SDL2/SDL.h",height=0.2,width=0.4,color="grey75", fillcolor="white", style="filled",tooltip=" "];
  Node8 -> Node10 [color="midnightblue",fontsize="10",style="solid"];
  Node10 [label="SDL2/SDL_image.h",height=0.2,width=0.4,color="grey75", fillcolor="white", style="filled",tooltip=" "];
  Node8 -> Node11 [color="midnightblue",fontsize="10",style="solid"];
  Node11 [label="SDL2/SDL_mixer.h",height=0.2,width=0.4,color="grey75", fillcolor="white", style="filled",tooltip=" "];
  Node8 -> Node12 [color="midnightblue",fontsize="10",style="solid"];
  Node12 [label="SDL2/SDL_ttf.h",height=0.2,width=0.4,color="grey75", fillcolor="white", style="filled",tooltip=" "];
  Node8 -> Node5 [color="midnightblue",fontsize="10",style="solid"];
  Node8 -> Node6 [color="midnightblue",fontsize="10",style="solid"];
}
