digraph "collider_t"
{
 // LATEX_PDF_SIZE
  edge [fontname="Helvetica",fontsize="10",labelfontname="Helvetica",labelfontsize="10"];
  node [fontname="Helvetica",fontsize="10",shape=record];
  Node1 [label="collider_t",height=0.2,width=0.4,color="black", fillcolor="grey75", style="filled", fontcolor="black",tooltip="structure d'un objet physique"];
  Node2 -> Node1 [dir="back",color="darkorchid3",fontsize="10",style="dashed",label=" pointA\npointB\nposition" ];
  Node2 [label="circle_t",height=0.2,width=0.4,color="black", fillcolor="white", style="filled",URL="$structcircle__t.html",tooltip="structure d'un cercle"];
}
