digraph "UI.h"
{
 // LATEX_PDF_SIZE
  edge [fontname="Helvetica",fontsize="10",labelfontname="Helvetica",labelfontsize="10"];
  node [fontname="Helvetica",fontsize="10",shape=record];
  Node1 [label="UI.h",height=0.2,width=0.4,color="black", fillcolor="grey75", style="filled", fontcolor="black",tooltip="code h regroupant certaines fonctions pour manier le côté graphique de la sdl"];
  Node1 -> Node2 [dir="back",color="midnightblue",fontsize="10",style="solid"];
  Node2 [label="SDL.h",height=0.2,width=0.4,color="black", fillcolor="white", style="filled",URL="$SDL_8h_source.html",tooltip=" "];
  Node2 -> Node3 [dir="back",color="midnightblue",fontsize="10",style="solid"];
  Node3 [label="env.h",height=0.2,width=0.4,color="black", fillcolor="white", style="filled",URL="$env_8h.html",tooltip="structures et prototypes des fonctions permettant à l'IA d'interagir avec l'environnement du flipper"];
  Node3 -> Node4 [dir="back",color="midnightblue",fontsize="10",style="solid"];
  Node4 [label="env.c",height=0.2,width=0.4,color="black", fillcolor="white", style="filled",URL="$env_8c.html",tooltip="fonctions permettant à l'IA d'interagir avec l'environnement"];
  Node3 -> Node5 [dir="back",color="midnightblue",fontsize="10",style="solid"];
  Node5 [label="learning.h",height=0.2,width=0.4,color="black", fillcolor="white", style="filled",URL="$learning_8h.html",tooltip="prototypes des fonctions permettant l'apprentissage de l'IA"];
  Node5 -> Node6 [dir="back",color="midnightblue",fontsize="10",style="solid"];
  Node6 [label="learning.c",height=0.2,width=0.4,color="black", fillcolor="white", style="filled",URL="$learning_8c.html",tooltip="fonctions permettant l'apprentissage de l'IA"];
  Node3 -> Node7 [dir="back",color="midnightblue",fontsize="10",style="solid"];
  Node7 [label="param.h",height=0.2,width=0.4,color="black", fillcolor="white", style="filled",URL="$param_8h.html",tooltip="structures et prototypes des fonctions permettant de définir les paramètres d'apprentissage"];
  Node7 -> Node5 [dir="back",color="midnightblue",fontsize="10",style="solid"];
  Node7 -> Node8 [dir="back",color="midnightblue",fontsize="10",style="solid"];
  Node8 [label="param.c",height=0.2,width=0.4,color="black", fillcolor="white", style="filled",URL="$param_8c.html",tooltip="fonctions permettant de définir les paramètres d'apprentissage"];
  Node2 -> Node9 [dir="back",color="midnightblue",fontsize="10",style="solid"];
  Node9 [label="SDL.c",height=0.2,width=0.4,color="black", fillcolor="white", style="filled",URL="$SDL_8c.html",tooltip="Fichier pour l'affichage graphique."];
  Node1 -> Node10 [dir="back",color="midnightblue",fontsize="10",style="solid"];
  Node10 [label="sound.h",height=0.2,width=0.4,color="black", fillcolor="white", style="filled",URL="$sound_8h.html",tooltip=" "];
  Node10 -> Node11 [dir="back",color="midnightblue",fontsize="10",style="solid"];
  Node11 [label="engine.h",height=0.2,width=0.4,color="black", fillcolor="white", style="filled",URL="$engine_8h.html",tooltip=" "];
  Node11 -> Node12 [dir="back",color="midnightblue",fontsize="10",style="solid"];
  Node12 [label="engine.c",height=0.2,width=0.4,color="black", fillcolor="white", style="filled",URL="$engine_8c.html",tooltip="Fichier contenant la création des objets physiques et leur modification."];
  Node11 -> Node3 [dir="back",color="midnightblue",fontsize="10",style="solid"];
  Node11 -> Node2 [dir="back",color="midnightblue",fontsize="10",style="solid"];
  Node10 -> Node2 [dir="back",color="midnightblue",fontsize="10",style="solid"];
  Node10 -> Node13 [dir="back",color="midnightblue",fontsize="10",style="solid"];
  Node13 [label="sound.c",height=0.2,width=0.4,color="black", fillcolor="white", style="filled",URL="$sound_8c.html",tooltip=" "];
  Node1 -> Node14 [dir="back",color="midnightblue",fontsize="10",style="solid"];
  Node14 [label="UI.c",height=0.2,width=0.4,color="black", fillcolor="white", style="filled",URL="$UI_8c.html",tooltip="code c regroupant certaines fonctions pour manier le côté graphique de la sdl"];
}
