1550000
0.000000
0.008815
1275.299805 1277.904175 1263.430298 1237.915894 
0.000000 0.000000 0.000000 0.000000 
1139.414917 1137.240967 1263.397705 1144.516602 
1267.697632 1115.730469 1117.146118 1112.519409 
1101.264404 1258.395752 1101.423706 1098.596680 
1140.033569 1128.330200 1232.437012 1130.355469 
1212.282959 1204.274902 1248.646484 1205.854614 
1215.457031 1251.359741 1215.907837 1205.216431 
1175.453247 1175.035522 1242.416870 1175.299072 
1234.661499 1170.468384 1168.730225 1170.370972 
1165.945801 1200.238892 1167.311401 1168.070435 
1196.974609 1245.067139 1202.682983 1187.035278 
1248.512207 1180.778076 1183.935303 1177.271362 
1200.971436 1206.022217 1210.222534 1225.876221 
1261.258057 1270.373291 1264.540894 1270.550659 
1271.139771 1276.060425 1474.708984 1277.643188 
1380.038574 1289.082031 1289.609741 1290.421631 
2052.365967 1305.694458 1305.136963 1301.526367 
1153.114136 1165.253296 1180.209595 1239.498291 
1276.263428 1176.303223 1174.529907 1177.205811 
1231.446289 1131.115723 1132.907471 1131.582886 
1172.879761 1175.489502 1176.930420 1229.077759 
1177.328003 1174.198486 1244.863403 1175.711304 
1170.679321 1229.147339 1170.938477 1170.565063 
1168.751099 1169.118164 1245.409180 1169.155518 
1169.900146 1171.532837 1170.162842 1218.879395 
1253.443848 1208.609009 1188.592651 1205.019531 
1223.941406 1230.292236 1233.355225 1252.582764 
1232.102295 1237.659302 1237.566162 1254.853027 
1256.012085 1252.970947 1255.244507 1264.473511 
1943.376465 1772.406494 1811.156738 1907.128052 
2078.254395 1966.106812 1850.625977 2155.887939 
1723.631592 1713.246216 2557.243896 2490.602783 
4504.421875 2688.433594 2600.527344 2295.176025 
2174.687988 2464.134277 2668.264648 2075.623779 
1145.931152 1163.080566 1147.376831 1145.541626 
1156.056152 1148.985474 1255.396851 1151.837402 
1174.517456 1345.502197 1177.741577 1177.261597 
1308.337280 1307.363647 1308.020630 1280.146240 
1199.004517 1445.944214 1201.588501 1200.114136 
1316.181030 1343.773071 1344.976196 1330.911255 
1205.607300 1205.728149 1257.340942 1202.224854 
1224.579834 1286.172974 1218.729126 1220.467407 
1372.471436 1189.849243 1197.363892 1194.165894 
1273.227417 1266.314331 1268.958374 1263.548218 
1674.421997 1866.682983 1706.943848 1665.925537 
1731.490601 1741.870117 2515.509766 2310.884277 
2571.362061 1877.317993 2119.535645 2715.350098 
0.000000 0.000000 0.000000 0.000000 
0.000000 0.000000 0.000000 0.000000 
1733.907471 1682.760498 1757.724731 1586.395874 
1443.573364 1999.713257 1485.949829 1483.393433 
1395.907471 1854.996338 1382.728516 1388.496338 
1326.205688 1490.374390 1319.269165 1383.921387 
1216.865234 1214.383057 1196.199219 1205.032349 
1447.378662 1417.190430 1476.882812 2080.477295 
1191.621460 1266.089966 1202.520264 1198.502075 
1552.484131 1884.423462 1620.706787 1684.378540 
1944.213623 1589.141968 1883.998657 1986.932373 
2064.550049 1815.744873 1925.245850 2701.157471 
11272.548828 2178.261719 7664.156250 0.000000 
0.000000 0.000000 18164.037109 0.000000 
0.000000 0.000000 0.000000 0.000000 
0.000000 0.000000 0.000000 0.000000 
24976.068359 0.000000 0.000000 0.000000 
12201.697266 0.000000 0.000000 2375.737549 
1108.801636 1287.595825 1117.227539 1112.676880 
1255.180664 1107.673584 1099.761597 1034.398926 
1126.946533 1237.726685 1144.424683 1126.702271 
1117.423584 1176.225952 1048.602905 1114.837891 
1209.961548 1121.687134 1113.317139 1041.866821 
1120.313843 1143.052246 1129.819702 1236.802979 
1134.143311 1127.738037 1122.853394 1266.702026 
1132.677979 1042.865723 1130.288086 1259.492798 
1155.811279 1155.908691 1154.952271 1254.735352 
1133.706543 1241.126587 1132.696655 1135.607178 
1170.753906 1191.911133 1287.737915 1176.969482 
1373.023560 1123.134399 1118.810059 1116.032959 
1107.088745 1344.370850 1114.077393 1110.850220 
1355.660278 1191.151001 1208.195923 1208.795166 
1301.043213 1289.851562 1306.031372 1300.416260 
1619.126953 1419.753906 1438.269043 1412.965088 
1281.751709 1152.650757 1129.709106 1127.797607 
1132.233154 1128.227783 1234.170288 1133.854614 
1188.096924 1052.376831 1136.046265 1122.390503 
1123.898926 1127.258301 1228.348633 1131.797119 
1201.737671 1139.610474 1143.874023 1141.842163 
1270.163818 1178.116821 1210.776001 1144.119507 
1251.399536 1183.704346 1179.054443 1158.418457 
1163.295776 1232.781738 1164.500244 1156.685425 
1239.087280 1198.020874 1185.306763 1192.302979 
1133.793457 1090.418091 1337.724365 1134.203613 
1167.901978 1199.098755 1412.838867 1084.443604 
1212.685791 1284.621704 1328.156006 1200.529541 
1497.688599 1257.350586 1267.306396 1263.177002 
1430.952393 1343.494263 1356.048340 1375.331177 
1478.290405 1427.219360 1497.928711 1555.910645 
1709.101196 1869.219849 1901.478638 1688.248291 
2248.864746 2140.077148 2674.927734 1734.295532 
1224.481079 1230.046021 1222.718140 1217.820557 
1245.824341 1267.899902 1244.115845 1244.533203 
1190.942383 1160.053833 1163.824097 1156.007935 
1180.783081 1187.168335 1186.338501 1278.016479 
1251.567383 1206.939819 1137.539795 1220.480103 
1315.117310 1360.577148 1289.359375 1280.962891 
1314.369995 1378.676880 1374.762695 1361.865967 
1247.760254 1283.227783 1297.224365 1871.973755 
1231.098022 1807.724243 1257.368530 1236.856201 
1299.585327 1284.858521 1253.576416 1354.615479 
1415.506714 1373.737549 1340.928345 1330.229248 
1554.176758 1498.660156 1554.616211 1538.888916 
1674.110107 1717.327026 1625.776733 1627.741821 
0.000000 0.000000 0.000000 9810.346680 
0.000000 0.000000 0.000000 0.000000 
6012.283203 0.000000 0.000000 0.000000 
1840.415771 1965.073975 1850.733643 1726.749023 
1489.545166 1355.763672 1373.638184 1471.864624 
1526.355713 1656.943604 1537.853027 1655.627563 
1406.265259 1586.790405 1396.301636 1378.974487 
1271.572998 1288.955322 1277.362793 1297.324707 
1428.166382 1391.425171 1395.776489 1310.214478 
1381.037231 1267.973389 1256.650024 1403.903320 
1309.668945 1382.948242 1285.827881 2508.859619 
1785.509277 1633.409912 1726.889771 1643.982788 
1997.680542 1824.982422 2070.636963 1905.078613 
3055.000244 1880.681641 1664.563721 1771.488525 
3974.188477 3310.108398 3727.883301 3521.970459 
180.490723 0.000000 0.000000 0.000000 
17401.912109 0.000000 0.000000 0.000000 
0.000000 0.000000 0.000000 0.000000 
1176.776001 1277.227783 1166.855957 1137.158691 
1151.111328 1273.195068 1161.820923 1136.846802 
1271.070923 1079.977051 1188.268921 1120.326538 
1253.792480 1152.408447 1214.191284 1148.911743 
1245.643311 1169.417236 1135.630859 1175.441895 
1258.720581 1193.128662 1200.025269 1202.028442 
1253.923096 1176.303467 1119.593994 1207.618286 
1233.431885 1189.256836 1181.166382 1178.872681 
1209.248169 1249.456543 1201.429688 1200.270752 
1261.640381 1219.345825 1223.448120 1240.774902 
1264.024780 1230.291626 1211.569946 1254.392212 
1157.574707 1183.662354 1243.186401 1176.557739 
1115.794434 1108.125977 1261.076294 1118.138794 
1244.004883 1168.321167 1152.449463 1129.194824 
1158.251587 1173.712280 1221.580444 1205.782471 
1206.068726 1123.768433 1211.203247 1231.589722 
1172.772949 1162.230713 1165.149780 1286.045898 
1112.255615 1146.719482 1159.374268 1266.489502 
1257.992065 1169.864868 1142.453369 1161.791626 
1266.538818 1148.735596 1166.770508 1153.218994 
1253.878540 1192.423828 1171.696045 1185.318237 
1253.996582 1128.011841 1221.516479 1105.870850 
1142.154053 1141.978394 1144.365601 1269.781372 
1220.687134 1241.327881 1213.678101 1227.394653 
1315.855103 1185.090088 1183.650635 1167.463623 
1256.831787 1201.174683 1250.227539 1173.209229 
1219.852783 1227.455811 1255.209106 1260.358887 
1247.923706 1207.972534 1223.899292 1250.300415 
1243.393555 1232.034546 1240.310913 1256.534546 
1216.809204 1211.777710 1231.387085 1233.897583 
1243.994263 1179.983154 1174.737671 1166.903809 
1167.469238 1221.581299 1181.053467 1181.740723 
4468.918457 5559.085938 0.000000 5455.764648 
1138.896606 1192.587402 1140.342285 1145.113403 
1106.581055 1109.404175 1326.070923 1165.378418 
1167.069214 1153.139404 1258.282837 1199.045898 
1422.140503 1187.057373 1146.423950 1137.675781 
1132.441162 1332.030273 1147.969360 1123.130737 
1206.130615 1203.816650 1245.663696 1209.606445 
1232.890991 1228.663940 1228.599854 1643.422729 
1292.885376 1440.255005 1264.785034 1280.001221 
1301.803589 1473.658203 1296.391968 1295.038696 
1507.828613 1173.587646 1169.649902 1173.982544 
1195.121582 1240.618408 1201.525024 1249.083130 
1168.720581 1137.281860 1233.873901 1155.458496 
1189.859253 1257.176147 1233.680420 1196.435059 
1506.663940 1499.501099 1477.020630 1499.304932 
0.000000 0.000000 0.000000 0.000000 
1560.376953 0.000000 0.000000 0.000000 
7875.744629 3007.956543 2366.705566 3401.040039 
1834.943115 1350.300049 1800.204834 1338.384766 
1662.958618 1702.150635 2107.980469 1492.598267 
1657.544067 1504.943115 1535.144287 1482.986084 
1256.776978 1254.144287 1233.801270 1357.590698 
1280.633301 1272.677612 1849.120483 1267.022705 
1820.793945 1252.169434 1307.847168 1356.685303 
1242.457031 1251.112305 1276.896606 1660.186523 
1373.368530 1379.569946 1678.800781 1359.520020 
1541.503784 1539.861572 1553.631592 1476.414185 
1668.568604 1884.154663 1759.187500 1669.424194 
1593.838867 1623.959717 1616.471191 1610.106567 
8874.464844 3990.969727 5257.693848 2624.329590 
0.000000 0.000000 0.000000 0.000000 
0.000000 0.000000 0.000000 0.000000 
1076.070312 1090.216553 1063.569580 1286.296509 
1186.732178 1270.754395 1208.789062 1176.444946 
1130.273682 1154.603149 1163.411011 1296.256470 
1127.334229 1121.768311 1041.161255 1256.706055 
1125.815186 1142.320679 1277.331543 1140.485962 
1131.458618 1149.569946 1320.540039 1137.937622 
1181.447754 1530.354858 1196.481689 1135.265381 
1185.882690 1204.333740 1380.072754 1223.465332 
1176.906860 1566.120117 1168.151489 1176.352051 
1134.579712 1143.013062 1449.447510 1137.729492 
1334.340820 1111.170532 1120.872437 1135.009521 
1258.999634 1216.991699 1180.889282 1160.334473 
1152.860352 1173.390259 1253.803467 1212.028442 
1144.008179 1181.613281 1270.661865 1177.319214 
1156.981323 1161.762573 1059.722656 1257.224976 
1169.604980 1199.425293 1249.605347 1176.669800 
1170.164062 1150.242676 1170.402954 1281.188965 
1169.098022 1172.387573 1180.129028 1290.637939 
1137.000732 1155.470459 1155.537842 1302.984375 
1143.291382 1143.054810 1276.783813 1142.301392 
1317.061890 1168.030151 1163.954224 1165.254028 
1385.998169 1178.272217 1170.154297 1161.941772 
1223.004395 1136.258179 1579.305298 1206.442261 
1284.668945 1272.770264 1283.718384 1903.304810 
1580.421753 1252.393066 1230.122681 1238.421265 
1447.598755 1213.040894 1177.827515 1202.242310 
1449.828003 1121.559448 1118.363892 1103.055908 
1177.995850 1179.399902 1181.507812 1253.846191 
1150.838257 1268.644165 1143.765137 1159.610352 
1160.665649 1263.162476 1160.213623 1158.935181 
1188.901367 1210.708984 1192.054321 1243.992920 
1237.629150 1234.966675 1179.163574 1228.855225 
10835.753906 0.000000 0.000000 0.000000 
1251.812378 1225.429077 1241.591553 1222.945923 
1187.277222 1182.169556 1198.300415 1327.297607 
1344.128174 1163.930054 1148.311523 1153.416382 
1161.191528 1155.677490 1439.773926 1150.962036 
1412.188721 1184.992310 1194.869873 1194.904175 
1226.793945 1213.627441 1809.673950 1249.911011 
1331.252197 1315.763672 1322.956299 2160.203369 
2043.034668 1301.290649 1314.471191 1315.745361 
1205.819702 1627.075439 1210.449707 1189.026978 
1424.958618 1199.947754 1193.860107 1192.195923 
1171.865723 1187.401611 1279.013306 1171.788208 
1185.524536 1183.351196 1284.634644 1183.404541 
1268.273804 1187.278198 1182.085693 1182.298218 
1201.845459 1205.346924 1193.226807 1230.144531 
0.000000 0.000000 0.000000 0.000000 
0.000000 0.000000 0.000000 0.000000 
1459.234863 1473.921753 2134.353760 1607.739624 
1315.409668 1603.835327 1679.805908 1539.088013 
1627.554199 1779.993286 1592.283325 1546.321899 
1599.564575 1639.720337 1585.170044 1575.898071 
1396.823853 1359.830933 1401.905884 1387.520142 
1268.115112 2063.196533 1235.583252 1225.552856 
1197.579834 1188.847534 1236.045044 2645.076172 
1288.927490 2369.952637 1317.882202 1300.652588 
1341.418091 1723.171021 1369.866943 1339.748291 
1400.024292 1588.396729 1410.460083 1279.913086 
1535.121948 1551.557251 1567.684448 1285.564575 
1454.679199 1419.958374 1769.999268 1495.936523 
1562.053711 1339.350464 1344.791748 1346.486694 
0.000000 0.000000 0.000000 0.000000 
0.000000 0.000000 0.000000 0.000000 
1291.068481 1282.936401 1226.571289 1257.857300 
1300.569092 1236.482178 1222.287231 1194.671509 
1248.038452 1336.661255 1219.394287 1221.846313 
1239.429932 1225.996826 1345.141602 1252.270264 
1327.585449 1148.609009 1226.772217 1244.035889 
1485.701660 1128.951416 1149.377808 1147.208618 
1133.317139 1143.001831 1586.662476 1133.052002 
1210.686890 1216.307129 1197.909912 1597.545166 
1164.490601 1156.299561 1165.646362 1205.322021 
1237.711304 1119.335327 1129.487671 1126.005005 
1092.739868 1094.238770 1113.973145 1276.387817 
1119.411499 1104.400635 1265.929443 1112.234253 
1139.277588 1135.465332 1140.254028 1276.497070 
1259.395630 1152.212646 1139.819458 1141.603271 
1162.739624 1178.127930 1259.200317 1141.883667 
1111.838379 1124.937622 1158.324585 1257.374268 
1291.162109 1176.396606 1210.403809 1222.341064 
1137.656738 1329.897217 1139.075439 1183.550415 
1129.036743 1130.775635 1069.981201 1342.664307 
1377.977417 1198.041992 1209.161865 1266.272949 
1327.918213 1330.974121 1342.904053 1385.139038 
1170.178101 1172.170898 1651.131470 1171.631592 
1154.596191 1889.721924 1147.888550 1155.962769 
1315.689819 1785.650513 1337.235718 1308.197388 
1131.561279 1150.639282 1231.180786 1135.381348 
1252.287476 1126.127686 1124.259033 1125.605469 
1065.523804 1066.053101 1064.634155 1253.049927 
1249.839722 1149.013794 1154.160278 1151.126831 
1158.249023 1257.593018 1192.516235 1078.921753 
1161.209839 1162.460205 1236.508057 1163.576782 
1161.980225 1278.133179 1167.233765 1162.709473 
1219.985107 1134.688232 1142.689697 1139.156372 
0.000000 0.000000 0.000000 0.000000 
1331.991455 1199.362549 1175.589600 1189.202515 
1192.386230 1333.153809 1200.194580 1191.603149 
1185.979858 1177.670288 1357.092529 1178.082153 
1329.187866 1257.284424 1469.504028 1219.551392 
1724.559814 1204.807007 1200.654785 1196.965820 
1196.181274 1203.947144 1202.147583 1954.490112 
1291.551270 2238.030273 1276.499268 1278.527466 
1206.183716 1143.898682 1148.063965 1146.635498 
1347.112671 1202.940308 1183.462891 1201.551392 
1152.493286 1155.696045 1154.153320 1275.292725 
1182.352295 1191.172729 1182.056152 1206.069092 
1179.973022 1168.348877 1181.283081 1210.627686 
1256.594971 1199.670410 1198.781128 1211.194824 
1288.418579 1285.933838 1301.431763 1273.493530 
1664.394897 0.000000 0.000000 0.000000 
0.000000 0.000000 0.000000 0.000000 
0.000000 0.000000 0.000000 9628.590820 
1862.317627 1609.912354 1802.620361 1848.527100 
1605.641602 1608.421387 1657.093140 1540.607666 
1322.342651 1323.296997 1318.600464 1317.957397 
1744.557129 1241.111694 1230.696411 1230.586060 
1309.729492 1295.974609 1323.963867 2181.363281 
1302.860596 1309.171631 1172.869141 2281.309082 
2186.585938 1278.733032 1239.216797 1227.107788 
1446.679443 1284.993896 1288.488525 1306.156250 
1319.277954 1370.155762 1426.769287 1435.339966 
1465.397339 1442.744019 1453.270630 1461.533447 
1386.912598 1398.935425 1444.821899 1578.234375 
1388.433350 1402.896362 1382.141602 1451.349121 
1983.200439 2485.861328 593.237244 2356.594971 
0.000000 0.000000 0.000000 0.000000 
1161.476929 1137.384888 1300.224365 1113.482666 
1266.055176 1223.643188 1302.302856 1252.396118 
1243.299683 1225.117065 1311.983765 1290.376709 
1241.612549 1301.290161 1246.321167 1238.973145 
1393.745117 1352.456299 1289.227051 1550.310181 
1513.244263 1617.158569 1328.203125 1370.826050 
1142.520996 1159.233276 1270.505493 1161.381348 
1241.200073 1127.323853 1145.269897 1135.351685 
1116.578613 1245.904785 1160.500000 1124.837036 
1120.869019 1122.811035 1255.355835 1153.282227 
1236.547485 1075.578979 1055.250488 1132.911621 
1257.748535 1030.863403 1078.517700 1055.693237 
1266.093384 1130.692383 1134.742188 1121.759766 
1267.527222 1031.991821 1133.401001 1113.741333 
1114.569214 1134.616455 1266.420654 1116.154541 
1192.709595 1271.121216 1241.533569 1164.815186 
1218.373901 1301.699341 1221.171021 1221.432129 
1296.438477 1217.333862 1187.760376 1158.047729 
1334.128174 1244.902344 1177.831909 1233.556885 
1296.872559 1244.291138 1273.673950 1359.020142 
1447.167969 1357.708252 1353.800415 1390.345459 
1635.109863 1311.063354 1241.061401 1362.537598 
1139.330078 1549.040649 1526.008911 2366.512695 
1148.584839 1137.762451 1506.009766 1140.351562 
1152.537720 1158.621948 1136.731934 1253.870605 
1246.377319 1093.874756 1055.427124 1129.491211 
1185.093994 1247.780029 1203.119629 1153.597290 
1149.119873 1151.257324 1145.886108 1252.233765 
1131.818604 1129.343750 1171.956421 1260.871826 
1124.626465 1135.420166 1060.521606 1260.329468 
1114.232300 1221.531494 1058.020020 1024.785156 
1135.401001 1241.444458 1147.593262 1143.395264 
0.000000 0.000000 0.000000 0.000000 
1230.305786 1232.385498 1286.534180 1232.668335 
1214.821533 1306.860107 1107.534790 1201.254395 
1241.013184 1211.009399 1198.406860 1207.524292 
1192.055664 1186.821045 1245.415039 1191.128296 
1217.193970 1184.062744 1257.429199 1197.250488 
1171.556396 1220.626709 1175.463745 2283.980713 
1597.125977 1330.621948 1658.237793 2375.805176 
1176.527100 1174.535767 1659.644653 1187.023804 
1144.921509 1122.776611 1171.585083 1258.308716 
1142.064453 1234.075684 1143.581055 1140.815430 
1177.774658 1179.326782 1150.052490 1249.027710 
1242.965942 1149.474609 1153.051392 1152.205444 
1233.444946 1176.033325 1185.936646 1182.719604 
1568.191284 1480.245483 1621.156738 1506.929077 
1462.961182 1518.346680 2905.765869 2502.811279 
0.000000 0.000000 0.000000 0.000000 
0.000000 0.000000 0.000000 0.000000 
1896.499634 1623.282959 1611.460938 1608.023438 
1479.714844 1875.099365 1538.632446 1547.333862 
1817.824463 1770.516724 2199.594727 2193.613281 
1303.419678 1291.392700 1299.112183 1376.957275 
1292.804077 1274.344116 1286.774780 2474.427490 
2390.361084 1616.197266 1612.401611 1448.118408 
1517.747437 1300.229248 2399.838379 1483.697388 
2007.132446 1165.145996 1201.130371 1219.468506 
1404.505127 1450.421387 2300.600098 1386.240723 
1584.116699 1590.201660 1676.269043 2270.205566 
1335.097290 1390.980469 1338.465332 1400.116211 
1516.926514 1500.988037 1609.878296 1618.646973 
3639.867188 1565.302612 4141.198242 4151.953613 
0.000000 0.000000 0.000000 0.000000 
1264.082031 1260.488159 1249.459473 1271.160522 
1196.519775 1189.606689 1189.719360 1332.147095 
1228.529053 1226.176758 1224.438354 1219.263428 
1153.581543 1154.255737 1155.357910 1230.609131 
1158.926880 1264.642822 1154.033691 1168.342163 
1167.505371 1282.954712 1174.092163 1161.227539 
1118.822998 1266.372559 1126.207031 1153.186890 
1270.417480 1163.333496 1117.633911 1149.967407 
1269.308228 1132.429810 1150.551147 1162.166870 
1149.761963 1144.542480 1294.950073 1139.693115 
1271.213989 1168.053833 1166.093994 1157.099121 
1229.422852 1140.900269 1131.859619 1131.075073 
1122.534546 1106.974609 1267.796387 1105.844360 
1128.885986 1108.738525 1120.353638 1257.981689 
1120.858398 1118.051025 1203.477905 1122.599609 
1125.092041 1149.987305 1223.280396 1136.292236 
1818.693604 1770.640625 1798.213989 1828.347046 
1491.937988 1515.574585 1482.677734 1425.517334 
1249.521118 1249.322510 1247.742554 1286.135498 
1214.795654 1203.122681 1201.644897 1244.713013 
1152.307495 1135.864502 1123.744385 1253.671997 
1257.756226 1189.720215 1172.886963 1158.166992 
1157.293823 1153.479492 1330.963379 1160.901367 
1389.689575 1172.929932 1168.121704 1176.858643 
1256.408081 1164.772949 1158.329956 1167.950928 
1266.550415 1151.011963 1129.033203 1144.573975 
1148.015015 1148.504272 1211.533325 1150.070801 
1253.000122 1145.010864 1147.711426 1141.971069 
1111.793091 1108.155273 1261.527832 1104.260620 
1099.946655 1119.706421 1119.092773 1266.325562 
1123.705811 1226.186157 1124.476440 1128.816895 
1245.107178 1140.387207 1129.446411 1134.294922 
0.000000 0.000000 0.000000 0.000000 
1626.538086 1655.002197 1649.118774 1655.598633 
1641.906494 1532.533203 1667.082520 1547.406860 
1348.626221 1340.331299 1352.976318 1354.620605 
1216.998047 1235.404175 1223.770386 1226.825317 
1178.336182 1176.697754 1225.613770 1183.911499 
1269.071045 1267.370850 1270.901978 1458.686035 
1491.021606 1188.867065 1187.901367 1185.780029 
1180.589355 1241.354004 1171.832275 1180.052734 
1113.763794 1115.388184 1114.786621 1223.326904 
1242.191650 1209.357300 1208.534912 1212.329834 
1287.599243 1267.776611 1251.834106 1261.589844 
1214.592285 1217.283569 1359.135742 1207.274292 
1162.120239 1086.099365 1084.569946 1184.002930 
1688.681030 1530.634644 1550.742554 1565.351318 
1729.509399 569.677551 0.000000 0.000000 
3502.151367 0.000000 0.000000 0.000000 
0.000000 0.000000 0.000000 0.000000 
15050.758789 0.000000 22042.939453 12519.819336 
4116.407715 6481.279785 4351.483887 3874.163086 
2699.435059 0.000000 3530.111328 3413.159912 
2620.101318 3181.397705 4045.586182 3001.627686 
1349.900269 1370.005249 1348.421265 1336.703125 
1292.180176 1244.266846 1238.866089 1243.452881 
1185.137451 1185.404053 1186.139526 2241.406494 
1126.751343 1455.246338 1135.239868 1115.029541 
1726.425537 1393.380615 1388.255005 1368.926392 
1271.140869 1281.683594 1243.245850 1313.586792 
1442.804565 1410.822998 1420.278198 1407.454468 
1637.740601 1557.765869 1725.342529 1586.085083 
4167.819824 2494.711914 1762.139282 2597.974609 
10926.798828 0.000000 0.000000 0.000000 
1703.948730 1738.950684 1727.921265 1713.647217 
1610.710083 1541.654541 1712.670044 1550.287598 
1654.734009 1675.519775 1649.616211 1503.424683 
1159.793091 1171.731445 1158.219116 1222.094604 
1469.072998 1547.749390 1495.513428 1520.426758 
1196.299438 1194.849731 1197.113281 1275.236816 
1270.873413 1196.242676 1196.783691 1193.078003 
1245.845581 1189.316162 1189.256836 1190.667847 
1208.792969 1209.408325 1270.177246 1206.842651 
1250.056519 1268.728760 1268.897339 1265.356201 
1262.505249 1272.216797 1261.418457 1253.872803 
1202.411011 1215.654053 1193.299927 1251.472656 
1248.455933 1244.037964 1275.718506 1242.123291 
1238.401733 1265.413086 1207.264526 1233.122070 
1212.537598 1250.203613 1206.195435 1217.108032 
1217.592896 1173.283081 1198.608276 1169.048340 
2644.988770 2243.978027 2154.420410 2092.559570 
2122.619385 2301.143066 2049.130859 1958.428101 
1695.848145 1730.009888 1659.808228 1739.980103 
1529.255005 1523.697754 1477.281494 1472.713623 
1208.091309 1268.618042 1203.641357 1202.690430 
1328.544434 1229.701904 1297.468384 1294.707520 
1177.827637 1181.209717 1184.211914 1266.036499 
1283.553467 1291.429199 1290.815186 1196.156494 
1239.428711 1166.165894 1166.079590 1165.503906 
1294.598389 1172.549438 1172.788330 1172.193604 
1167.558838 1235.950928 1168.047363 1168.791992 
1252.749146 1177.436401 1177.179688 1177.454956 
1168.303345 1170.819458 1163.435303 1211.541138 
1153.517700 1253.397583 1152.496582 1158.272217 
1137.646973 1140.021851 1130.163818 1193.799561 
1317.317139 1359.682739 1268.214722 1330.646240 
0.000000 0.000000 0.000000 0.000000 
0.000000 32579.007812 23075.515625 42721.804688 
1793.270874 1674.474854 1687.887939 1663.819336 
1726.327881 1539.220215 1937.136963 2187.310547 
1337.537964 1375.278320 1397.043335 1362.715942 
1174.590576 1227.584351 1173.848389 1171.767334 
1170.575195 1170.522461 1185.405762 1171.669922 
1172.411499 1195.606812 1169.590942 1169.531616 
1252.154419 1270.007324 1249.379272 1259.096436 
1270.890381 1259.212769 1481.107666 1269.397461 
1199.285034 1212.972412 1618.037354 1199.508667 
1186.117188 1179.199463 1180.170532 1176.778809 
1158.687500 1356.023560 1156.170532 1154.633545 
1165.316406 1178.285645 1173.607056 1183.324463 
1576.301880 1735.707153 1592.354858 1676.444458 
0.000000 0.000000 0.000000 716.086182 
2100.757324 2108.441406 2146.905273 1661.070801 
0.000000 5299.979492 0.000000 0.000000 
6824.080078 0.000000 0.000000 0.000000 
0.000000 2490.452148 23367.505859 0.000000 
8065.560059 28165.019531 2653.259766 28863.351562 
2774.351807 3033.697266 2478.653320 2500.100830 
1913.022949 1765.726562 1734.852295 1909.015015 
1700.237305 1946.429321 1805.660156 1676.524780 
1911.685791 1637.245117 1727.050415 1629.408325 
1527.116333 1580.510498 1600.502319 1536.741821 
1370.838501 1405.644653 1982.097168 1344.595825 
1359.093506 1382.375488 1324.531006 1974.409912 
2120.078369 1165.084961 1162.943481 1171.651489 
1204.056641 1225.006104 1228.524170 1646.482056 
1654.805664 1702.110718 1688.783081 1648.709839 
1667.463989 1987.142334 1660.827515 1594.269531 
1278.329590 1223.623047 1239.054199 1250.671875 
0.000000 0.000000 0.000000 0.000000 
1144.233398 1147.904663 1248.747192 1139.039062 
1287.498657 1084.605957 1084.028564 1087.759766 
1116.506836 1244.158325 1115.646484 1118.713623 
1113.513916 1125.246582 1227.329590 1122.951172 
1191.250000 1197.728516 1256.310181 1197.777100 
1205.687622 1247.269043 1203.590088 1217.345581 
1172.647461 1172.960938 1243.540161 1172.747559 
1249.694702 1166.368530 1168.315186 1166.870483 
1170.241089 1208.916138 1169.187256 1168.669922 
1175.449097 1247.143799 1223.656982 1209.519775 
1263.243896 1181.382812 1178.430420 1184.787964 
1207.145630 1203.330933 1199.544556 1215.557983 
1266.203125 1257.847290 1263.695435 1257.938599 
1281.641846 1277.197388 1416.095947 1275.948364 
1387.034546 1285.664917 1285.087769 1283.387085 
1820.755127 1305.143921 1305.754761 1308.126099 
1169.593384 1158.534912 1140.368164 1240.663208 
1276.540527 1183.211914 1184.734863 1182.343384 
1243.528564 1119.202759 1117.528564 1118.970459 
1170.747192 1169.014038 1168.209717 1215.162720 
1171.195068 1174.903564 1248.537109 1172.159180 
1172.260864 1226.020508 1172.126831 1172.425537 
1169.172974 1168.824097 1245.209229 1168.971802 
1170.706909 1169.237793 1170.329468 1221.392944 
1251.187256 1200.613037 1205.258057 1185.278442 
1227.193115 1218.891968 1216.785278 1265.848145 
1246.093262 1240.447998 1240.345459 1245.207520 
1250.882202 1253.756958 1251.746948 1252.935181 
1805.309204 1970.422363 1947.136230 1609.226318 
1992.388184 2116.011475 1857.281372 1916.704224 
1766.239136 1783.804077 1778.837280 2447.986084 
3945.399902 2470.494385 2539.319092 2605.722412 
2619.194336 2158.032715 2681.150635 2708.764160 
1148.753174 1169.289062 1147.560059 1149.415771 
1148.709473 1154.704224 1363.225708 1152.549316 
1178.927734 1326.171143 1176.153687 1176.853638 
1262.576538 1269.600342 1261.905640 1288.420166 
1200.530640 1528.720825 1198.505737 1197.617676 
1318.977905 1350.580933 1290.524170 1298.834351 
1189.332642 1212.053467 1259.770020 1230.847046 
1206.305298 1293.097290 1212.694824 1210.739624 
1413.185791 1190.847778 1183.109863 1185.461060 
1364.554932 1264.253906 1262.681030 1267.483032 
1707.314331 2119.533203 1639.072998 1701.126587 
1696.851196 1690.506470 2386.662354 2089.216064 
2157.412354 2943.753662 2660.480225 2094.438477 
487.505066 0.000000 0.000000 0.000000 
0.000000 0.000000 0.000000 0.000000 
1586.410156 1637.384888 1616.884888 1731.982910 
1533.912476 1927.519653 1498.637939 1490.871460 
1326.816772 1863.895996 1338.646362 1321.066772 
1303.632568 1332.091553 1332.528564 1267.485840 
1188.006226 1190.242676 1234.830200 1196.732666 
1436.471436 1463.572754 1411.434570 2007.091064 
1187.002808 1263.532593 1203.615112 1187.696045 
1729.052612 1607.276123 1649.584106 1594.317139 
1915.299316 2064.769287 1985.912354 1889.505249 
1836.520386 1858.463379 1839.957275 2834.660645 
1996.034180 10878.477539 6023.274414 6094.879883 
16175.361328 0.000000 9280.968750 0.000000 
0.000000 0.000000 0.000000 0.000000 
0.000000 0.000000 0.000000 0.000000 
17475.203125 0.000000 0.000000 0.000000 
5510.307617 0.000000 0.000000 0.000000 
1099.257446 1273.416504 1091.418457 1096.653931 
1266.597412 1011.545776 1113.698486 1139.552979 
1104.112061 1234.855957 1020.338074 1105.444824 
1136.039673 1183.457275 1142.109131 1138.593872 
1227.481689 1104.772583 1113.848999 1139.509155 
1120.555664 1011.687134 1110.830200 1251.875610 
1115.773071 1120.366089 1127.948853 1262.861450 
1137.699585 1161.240845 1138.700317 1255.132812 
1130.573853 1130.358643 1131.073975 1264.656128 
1150.019409 1252.886719 1151.127441 1148.173950 
1204.766113 1183.495483 1264.377075 1194.244019 
1306.498413 1087.081177 1090.440674 1093.830933 
1142.937744 1375.890137 1135.710693 1139.286987 
1315.322876 1203.791260 1185.707031 1187.904175 
1301.479614 1314.297119 1311.817383 1302.385132 
1623.016846 1431.516235 1418.809692 1441.959717 
1284.051880 1040.769043 981.721497 1070.210571 
1103.990723 1107.893311 1225.115479 1102.468628 
1197.651245 1128.328125 1116.338501 1129.916504 
1134.972900 1133.557739 1245.717896 1033.931152 
1187.148071 1134.499878 1130.119995 1132.178711 
1272.348145 1198.097656 1142.940674 1160.683472 
1252.544800 1171.194702 1178.578125 1199.398315 
1168.715820 1236.901123 1169.041016 1176.054321 
1231.135864 1089.527344 1181.211914 1174.248901 
1151.710449 1194.229126 1368.313965 1151.012695 
1152.320679 1079.856323 1380.663086 1174.048096 
1234.917969 1120.021729 1413.822388 1246.825806 
1388.198242 1294.738281 1283.973389 1288.590576 
1419.899902 1390.197021 1379.077759 1359.603882 
1517.190063 1564.003662 1489.688843 1436.407471 
1653.684937 1948.789185 1923.060181 2040.847412 
1781.283569 1906.609375 2363.197754 2250.091553 
1203.981934 1201.626709 1227.353271 1210.218628 
1231.282471 1251.532837 1233.309204 1233.085449 
1207.762085 1170.364502 1166.288574 1174.284424 
1199.399292 1193.244141 1189.156860 1296.176880 
1245.807129 1193.113037 1254.205811 1180.366699 
1244.286499 1359.818848 1268.431152 1280.932861 
1370.682251 1305.360352 1313.102295 1405.144775 
1301.204834 1267.054932 1250.410278 1792.293335 
1280.089478 1916.631104 1259.174072 1280.195190 
1263.585449 1273.378418 1311.030029 1337.319946 
1317.411255 1341.224976 1367.169678 1380.281616 
1450.664673 1508.000732 1454.166016 1462.515991 
1610.354858 1718.149780 1655.433716 1811.969849 
21067.984375 18156.847656 20970.658203 11388.176758 
0.000000 0.000000 0.000000 0.000000 
3798.972900 0.000000 0.000000 0.000000 
1865.875366 2079.584961 1767.804932 1897.701294 
1627.698120 1696.863281 1371.897583 1634.808228 
1523.808105 1371.960938 1505.104370 1380.063965 
1401.727417 1655.759644 1408.317139 1410.359131 
1278.789429 1260.229370 1270.929932 1252.498657 
1413.822876 1288.785889 1298.209229 1418.438354 
1410.272217 1389.917969 1416.275391 1276.154907 
1507.431396 1425.962524 1410.153198 2500.149658 
1684.362915 1819.598267 1717.468872 1816.973389 
1991.231934 2153.312012 1937.033691 2094.006104 
2938.298584 1750.671143 1873.419189 1812.514282 
2736.496338 3407.601318 2981.356201 3355.539062 
35416.000000 0.000000 0.000000 0.000000 
18404.728516 0.000000 0.000000 0.000000 
0.000000 0.000000 0.000000 0.000000 
1129.830688 1279.755005 1092.336304 1114.492920 
1184.834839 1270.951172 1119.315186 1165.407837 
1272.692993 1166.854126 1083.515015 1194.875610 
1251.809082 1125.907837 1130.089355 1143.394043 
1247.448364 1110.317871 1199.975098 1206.179688 
1259.556885 1183.504883 1175.434937 1162.194946 
1251.530029 1191.009399 1200.082275 1128.891357 
1235.191528 1141.794556 1199.839233 1145.187256 
1212.878906 1251.172729 1164.786865 1185.291504 
1263.400391 1230.089111 1160.425903 1201.790771 
1263.656738 1231.481445 1205.149048 1218.148560 
1130.157837 1168.111328 1244.202393 1157.428223 
1097.427856 1105.272583 1251.905029 1095.240967 
1227.651367 1128.063232 1173.846436 1147.861328 
1153.822388 1180.388550 1237.788452 1092.310669 
1194.072144 1212.958862 1219.259521 1215.497070 
1184.984253 1219.997437 1110.699219 1283.777832 
1156.408447 1117.647339 1144.443359 1264.250244 
1260.156372 1122.962524 1149.812622 1162.888428 
1264.519897 1206.476562 1092.406250 1166.574219 
1252.111084 1092.123657 1130.324707 1162.153442 
1251.633911 1219.527100 1198.959351 1186.352051 
1149.509766 1062.850342 1146.540283 1271.329834 
1209.684204 1239.622925 1168.210938 1163.674072 
1308.444824 1172.450806 1174.300171 1188.223267 
1255.153076 1236.984619 1119.859863 1190.885498 
1244.832397 1234.277832 1255.629028 1205.867920 
1194.370483 1228.182739 1237.300781 1249.546387 
1240.122314 1219.660522 1217.587769 1153.916260 
1202.004639 1221.754517 1210.261841 1250.250000 
1227.659912 1187.614624 1180.552002 1178.041382 
1198.004639 1237.769775 1176.286377 1200.556763 
4809.784668 1822.666504 0.000000 3966.043457 
1155.606201 1192.811401 1154.253296 1149.577148 
1074.987183 1071.556396 1332.017944 1003.028381 
1171.352051 1158.966187 1260.232422 1196.002686 
1447.067871 1076.526245 1146.858521 1154.829468 
1125.986694 1357.922241 1111.931152 1136.429810 
1213.606689 1207.332031 1247.556641 1179.673218 
1231.168701 1236.146729 1238.338745 1488.655396 
1262.208618 1514.432983 1290.590576 1266.924805 
1302.564209 1528.891235 1307.692749 1308.388062 
1339.321899 1126.618164 1130.502319 1174.638672 
1236.314453 1204.809814 1208.612305 1254.061646 
1204.912354 1226.905884 1250.248413 1198.762939 
1181.683105 1241.546753 1138.315186 1176.024292 
1464.160767 1484.931885 1486.672974 1487.324585 
0.000000 0.000000 0.000000 0.000000 
11055.732422 0.000000 0.000000 0.000000 
2181.305908 2118.479492 2772.220459 1764.152588 
2142.322266 2202.136719 1786.325928 1597.500977 
1487.482666 1456.031128 1675.979248 1139.215942 
1900.266602 1558.253906 1534.666748 1569.776123 
1225.996216 1225.286377 1248.159790 1349.972900 
1257.070435 1265.634399 1693.748291 1271.113647 
1976.038696 1349.322266 1222.859619 1224.437500 
1244.682861 1223.067871 1208.694946 1629.787720 
1354.823608 1282.456055 1589.177368 1368.115112 
1529.385986 1547.462158 1529.174683 1601.354370 
1647.854004 1637.371338 1768.495972 1854.878296 
1565.378540 1540.314331 1533.637573 1542.639282 
0.000000 4999.603516 3634.835938 6058.626465 
0.000000 0.000000 0.000000 0.000000 
0.000000 0.000000 0.000000 0.000000 
1113.964966 1097.201172 1131.630615 1276.251465 
1099.023315 1272.684814 1153.568237 1150.133545 
1121.762695 1087.654419 1113.793091 1297.319336 
1135.359253 1139.971436 1155.800537 1267.115967 
1134.847900 1118.421753 1289.400879 1122.555054 
1153.916748 1134.117310 1358.186157 1143.981323 
1184.771973 1468.319702 1169.233887 1224.846802 
1206.310791 1186.567017 1398.667358 1164.261475 
1137.307861 1557.252563 1149.372192 1140.428345 
1137.284790 1128.238770 1404.549927 1132.736328 
1368.809448 1118.640747 1100.471802 1032.885986 
1259.730591 1187.944702 1149.195435 1192.428467 
1186.408447 1162.562256 1252.266357 1154.303955 
1175.822266 1089.030640 1272.500488 1167.610107 
1147.984253 1148.153320 1213.931763 1269.228760 
1196.480835 1218.235840 1253.031372 1201.493164 
1166.460327 1188.281128 1168.067017 1305.777588 
1175.949951 1173.406982 1165.411621 1288.035034 
1150.912842 1138.230469 1139.271729 1303.449829 
1150.588501 1150.373291 1300.146240 1151.600708 
1287.254272 1142.843018 1147.392944 1145.609131 
1364.008423 1165.609863 1177.302246 1183.681030 
1207.636597 1255.660889 1649.917725 1223.636353 
1325.493042 1332.494263 1327.391235 1737.845337 
1667.191406 1249.789185 1251.775146 1244.618408 
1535.494263 1189.062012 1226.537598 1200.146606 
1385.928955 1107.036133 1124.746704 1103.109985 
1143.784180 1179.359253 1207.162354 1252.287720 
1169.174805 1271.779907 1174.769287 1158.884399 
1158.012939 1268.821289 1158.579468 1163.471191 
1177.123901 1227.004517 1197.191895 1227.649414 
1250.794922 1120.802368 1179.194702 1118.319214 
9073.006836 0.000000 0.000000 0.000000 
1238.462646 1251.118408 1238.834473 1252.542480 
1227.191528 1234.473511 1214.509521 1299.362915 
1286.632080 1066.282593 1157.212158 1151.684204 
1164.959961 1170.609009 1497.007935 1173.782227 
1430.480469 1197.719238 1185.672974 1186.817749 
1255.840698 1268.236206 1751.779175 1234.880127 
1287.027710 1301.068115 1294.303467 2183.653320 
1933.595825 1312.426758 1296.968140 1299.935913 
1234.920898 1546.240479 1229.201538 1236.031860 
1384.633301 1190.902588 1194.817139 1195.919922 
1165.229858 1164.334351 1293.176636 1165.018555 
1173.387695 1176.296021 1268.502319 1170.860596 
1265.043823 1151.645386 1156.592407 1157.087280 
1203.572998 1199.796021 1212.042114 1240.975342 
0.000000 0.000000 0.000000 0.000000 
0.000000 0.000000 0.000000 0.000000 
1755.227295 1708.000488 2005.645752 1574.595703 
1555.118530 1536.435913 1480.022827 1612.553589 
1588.275146 1471.197266 1644.314209 1677.368042 
1543.302979 1484.516357 1584.997681 1638.324951 
1363.041870 1396.558716 1443.620239 1366.063843 
1127.042603 2203.496338 1155.974243 1168.254395 
1205.583984 1214.919067 1169.642700 2560.324463 
1251.513062 2434.895264 1225.409180 1244.768433 
1324.305542 1803.257568 1255.271729 1325.712891 
1390.730225 1502.420410 1260.552612 1383.993164 
1517.569092 1503.419434 1459.903931 1734.499268 
1452.309082 1419.393677 1708.084473 1425.338745 
1615.857178 1623.119629 1620.362183 1645.993286 
31063.636719 0.000000 0.000000 0.000000 
0.000000 0.000000 0.000000 0.000000 
1291.591187 1245.404663 1275.443604 1254.303833 
1302.331665 1216.776855 1230.414429 1255.366577 
1178.885132 1339.073486 1196.549683 1178.230835 
1211.296631 1181.439819 1343.591064 1273.690796 
1321.436279 1200.527588 1178.875488 1139.899902 
1540.496460 1074.292969 1064.990356 1063.787354 
1129.196167 1117.055054 1488.408203 1133.223877 
1190.087646 1184.124268 1202.730957 1763.069580 
1153.059204 1161.114014 1152.154175 1199.785645 
1247.353760 1110.966431 1104.238037 1107.766479 
1063.334229 1062.783447 1042.125488 1269.384155 
1024.330200 1038.402832 1270.928101 1029.086792 
1148.051758 1152.258301 1149.523438 1283.453979 
1270.798828 1126.935181 1136.561768 1135.172852 
1133.379150 1117.535767 1264.408325 1155.498413 
1118.489746 1110.120728 1041.912964 1277.012573 
1289.636963 1241.371826 1203.234375 1242.860107 
1129.290405 1321.720947 1127.897095 1079.909058 
1134.708374 1142.307007 1164.065918 1340.649292 
1376.843750 1243.744751 1173.998291 1131.005737 
1311.182007 1331.902588 1305.924194 1382.927124 
1166.475586 1165.060303 1658.307983 1164.246460 
1163.499268 1853.882935 1170.675781 1162.504150 
1276.027710 1759.673584 1201.459717 1285.216431 
1139.426025 1141.164917 1213.705811 1141.628662 
1243.348755 1066.493896 1067.683716 1067.254761 
1119.896606 1118.715820 1120.431396 1249.839966 
1243.591064 1159.664551 1154.475342 1158.494751 
1171.405884 1256.554199 1089.480103 1174.883301 
1173.910034 1172.594849 1237.480591 1171.397339 
1166.061768 1257.736816 1162.200195 1166.794922 
1236.769653 1139.544678 1135.469116 1139.038330 
0.000000 0.000000 0.000000 0.000000 
1325.644165 1151.575439 1178.832520 1164.953369 
1190.928467 1338.423584 1182.608154 1191.672607 
1163.195679 1171.316162 1358.164673 1169.800171 
1315.931396 1226.244141 1447.167358 1309.424805 
1732.664062 1210.160034 1213.804321 1220.495117 
1200.640503 1192.589233 1194.994995 2079.604980 
1319.127808 2214.914551 1332.185913 1332.917603 
1254.621948 1144.269043 1139.985718 1140.919800 
1368.447388 1180.881104 1200.012085 1181.301758 
1141.496338 1138.043457 1139.968384 1296.634644 
1182.913574 1173.606079 1183.866699 1216.852295 
1145.381348 1156.851318 1142.021606 1234.831909 
1233.210327 1159.425537 1156.655518 1148.773438 
1317.326416 1319.626099 1302.862305 1331.980835 
1955.524536 446.779327 0.000000 0.000000 
0.000000 0.000000 0.000000 0.000000 
0.000000 0.000000 0.000000 7732.172363 
1644.892090 1667.847656 2002.807251 1627.556519 
1493.658936 1475.224854 1440.500977 1563.494019 
1330.872559 1329.642212 1334.281982 1334.953125 
1900.172485 1217.999146 1229.276855 1229.331543 
1299.815552 1317.242310 1289.391846 2174.685547 
1220.704224 1217.697266 1234.695679 2260.373047 
2296.078369 1142.334106 1180.994263 1201.016846 
1484.030151 1295.495239 1285.307373 1284.951538 
1387.785156 1331.401611 1334.553833 1320.614258 
1426.765747 1473.945435 1428.561523 1378.151367 
1487.942993 1462.525146 1409.224976 1616.986084 
1338.500488 1324.382812 1345.676880 1499.501465 
2083.118896 0.000000 1808.934692 2177.895508 
0.000000 0.000000 0.000000 0.000000 
1172.264404 1204.709839 1299.041016 1221.263550 
1264.348877 1251.241455 1303.837891 1245.208618 
1270.473755 1298.670898 1307.409790 1266.354736 
1213.290771 1309.681396 1214.424194 1201.234497 
1197.968628 1381.514648 1347.575562 1527.148438 
1368.201416 1638.311646 1468.439087 1517.450806 
1139.044189 1156.713257 1272.641357 1166.686768 
1239.736450 1123.858765 1148.433594 1147.498779 
1131.276855 1247.511597 1176.510498 1168.464600 
1110.101196 1106.416992 1248.274048 1079.261841 
1241.537720 1157.671021 1161.019531 1157.928955 
1258.059814 1101.651367 1070.972046 1072.217407 
1266.918823 1110.994995 1106.757812 1050.679199 
1275.607544 1136.293823 1097.612427 1118.111938 
1174.733154 1159.406128 1264.192261 1165.262573 
1194.359497 1272.506592 1173.195557 1199.974365 
1181.950195 1310.520752 1179.437744 1178.705444 
1297.096191 1217.035767 1218.764648 1237.144531 
1343.222900 1238.867432 1263.576660 1233.317749 
1260.234131 1293.245850 1228.720459 1333.358154 
1482.529053 1345.097168 1323.661133 1358.090942 
1603.468140 1358.504883 1327.525757 1256.362061 
1424.721802 1230.497437 1635.060303 2364.047852 
1150.977173 1160.957886 1571.593262 1158.859375 
1117.065186 1124.167236 1153.056274 1252.099243 
1250.264160 1169.429565 1146.839966 1131.317993 
1189.324219 1242.738647 1182.061035 1190.629150 
1139.640869 1138.370850 1142.977539 1248.153687 
1108.431641 1110.842163 1065.069458 1251.977539 
1128.736572 1118.645752 1163.751099 1247.074585 
1138.302612 1231.267944 1163.772217 1149.753906 
1108.037476 1239.446899 1101.077515 1098.193359 
0.000000 0.000000 0.000000 0.000000 
1224.860596 1223.454346 1250.826782 1222.774170 
1208.268311 1309.943359 1232.355469 1213.218506 
1239.252319 1205.426147 1201.216797 1202.323364 
1198.438599 1204.946289 1247.316406 1223.579468 
1199.408447 1215.228027 1259.727905 1206.494019 
1185.514282 1111.516602 1180.403931 2183.594971 
1195.395996 1350.660034 1406.885254 2378.441650 
1153.910645 1155.729492 1700.585449 1142.850342 
1110.221069 1131.666870 1138.636963 1260.226562 
1156.363525 1256.604492 1155.258301 1158.041992 
1194.860107 1145.832031 1141.971069 1254.053711 
1245.406128 1147.826538 1144.442261 1145.068970 
1235.645508 1180.584595 1171.702881 1174.631958 
1499.121094 1602.285889 1475.912476 1575.530396 
1521.670166 1473.202393 3239.611328 1455.891479 
0.000000 0.000000 0.000000 0.000000 
0.000000 0.000000 0.000000 0.000000 
2140.315186 1595.021240 1964.603271 1616.817261 
1618.591309 2038.891357 1545.176025 1537.153320 
1979.816650 2016.188965 1623.471069 1611.048584 
1289.206909 1300.172119 1293.601562 1347.860596 
1272.986206 1291.595703 1278.798706 2431.814941 
2387.626221 1596.811279 1531.974243 1675.017700 
1527.317505 1558.628906 2402.231445 1419.834717 
1966.519287 1236.765259 1206.582153 1195.496094 
1340.726807 1298.980713 2334.099121 1366.845581 
1552.786377 1542.869019 1457.072021 2183.441162 
1447.563232 1383.695435 1441.090698 1366.560913 
1594.471191 1612.607300 1529.323730 1494.114136 
5738.145508 7303.220703 5545.480957 6167.896484 
1311.685303 0.000000 0.000000 0.000000 
1233.725220 1282.442505 1249.262451 1225.923340 
1172.891968 1177.913574 1181.219727 1314.073242 
1220.360229 1214.512573 1216.422852 1221.579956 
1164.057495 1166.593384 1165.276001 1260.871460 
1135.489746 1228.864746 1138.990356 1126.159302 
1137.882568 1275.714233 1134.820312 1143.770752 
1117.589478 1263.960815 1147.784058 1108.727661 
1272.574219 1164.787720 1161.182617 1119.822632 
1289.410645 1158.182373 1138.024048 1127.634155 
1128.039917 1133.210449 1284.639893 1136.597778 
1272.784058 1164.278442 1125.565308 1127.033813 
1245.073853 1103.360474 1111.510986 1112.893677 
1101.657959 1116.820801 1257.127686 1118.758423 
1104.106567 1149.020264 1114.661499 1260.029907 
1112.358887 1120.720337 1194.814697 1111.801025 
1085.833984 1016.583435 1235.637573 1076.582642 
1659.884155 1713.759033 1685.002441 1635.472168 
1467.198853 1438.395020 1473.043823 1519.231934 
1261.640503 1262.370239 1261.850830 1361.369385 
1199.299316 1210.371460 1211.440186 1234.945435 
1172.832886 1182.411377 1181.727417 1251.585083 
1260.042969 1140.891602 1129.239014 1146.023438 
1151.702026 1155.767334 1356.574463 1148.183594 
1277.261719 1169.893555 1174.944946 1165.682861 
1259.224243 1171.854370 1174.486694 1169.138916 
1264.584351 1167.519653 1134.073730 1181.918579 
1146.611450 1146.111938 1223.664795 1144.400879 
1268.205688 1147.036255 1144.687988 1150.040161 
1128.266602 1132.286133 1256.886719 1134.215210 
1126.900879 1149.811523 1147.241455 1264.137207 
1133.374390 1218.065430 1127.583618 1127.920776 
1271.375732 1112.589233 1124.187988 1119.352173 
0.000000 0.000000 0.000000 0.000000 
1662.682495 1658.051636 1643.555664 1630.825806 
1491.061157 1594.505615 1462.411011 1542.800171 
1359.899170 1367.706421 1357.748169 1354.617065 
1209.608887 1206.414429 1202.822388 1200.397461 
1178.198364 1179.555176 1283.479980 1172.875854 
1260.826416 1263.176636 1257.341919 1501.740356 
1416.479370 1185.211304 1185.668701 1187.849243 
1169.270264 1345.495972 1178.051758 1169.745850 
1108.597290 1106.885010 1107.240845 1224.585571 
1255.282104 1211.039185 1210.517456 1207.140625 
1229.925537 1245.895752 1260.644897 1255.241821 
1192.221191 1191.987427 1358.290894 1199.461670 
1142.619507 1218.668091 1220.650635 1195.070190 
1400.139893 1597.095337 1470.886475 1474.616333 
1674.439209 0.000000 0.000000 0.000000 
7597.437988 0.000000 0.000000 0.000000 
0.000000 0.000000 0.000000 0.000000 
19576.876953 0.000000 0.000000 14516.300781 
4440.336914 7685.025391 4142.946777 4640.799805 
3448.238281 5238.193848 3496.618652 3196.337402 
3883.894531 3363.664307 2527.273193 3527.948975 
1341.910278 1328.762939 1342.282471 1361.010620 
1274.554321 1222.416260 1215.015137 1210.645630 
1184.838135 1184.621094 1183.851440 2123.947266 
1118.025391 1504.618896 1108.393433 1128.040405 
1708.787842 1350.541626 1358.493286 1376.754395 
1308.911255 1293.462891 1351.388550 1275.864380 
1352.699707 1381.991699 1377.508545 1390.321777 
1600.876465 1657.607666 1639.705933 1640.724731 
168.611664 1968.488892 2591.072266 1878.111328 
0.000000 0.000000 0.000000 0.000000 
1789.110352 1754.770630 1762.442871 2044.237793 
1474.937256 1544.386841 1663.558228 1547.771240 
1616.187500 1588.112061 1483.883911 1758.011841 
1142.169434 1132.379028 1144.523315 1265.914673 
1532.551636 1466.537598 1501.450439 1491.413208 
1194.484253 1196.037476 1193.914429 1259.094971 
1288.578003 1190.109985 1189.674194 1193.505981 
1223.598145 1191.311279 1192.061890 1189.822144 
1215.320557 1199.960083 1272.296021 1209.003174 
1286.696411 1270.206543 1269.958984 1273.580811 
1257.114868 1247.440918 1257.869385 1265.118408 
1216.507812 1202.325073 1222.924438 1249.777222 
1243.947144 1250.864990 1272.182495 1250.793457 
1210.286255 1254.542480 1244.357300 1215.083374 
1198.496948 1257.600220 1205.729858 1193.879028 
1230.340332 1177.716431 1153.110229 1180.869385 
2473.302490 2085.732666 2256.243164 2350.942139 
2151.539307 1944.468872 1847.110840 1773.944946 
1747.158813 1709.473267 1786.117676 1708.078979 
1506.696411 1514.998535 1556.978149 1558.050171 
1204.057861 1252.357422 1208.017700 1209.048584 
1332.849121 1330.339111 1316.002319 1319.260254 
1198.329346 1207.321655 1203.966675 1263.579102 
1282.890991 1275.361816 1275.978394 1312.485352 
1269.452393 1169.464844 1169.588989 1169.818970 
1378.780884 1165.535156 1165.266602 1165.892822 
1174.855103 1246.897583 1174.375610 1173.646362 
1253.876343 1169.296021 1169.432007 1169.190186 
1176.833618 1174.025513 1181.768921 1211.989624 
1141.769043 1250.747559 1141.930908 1136.128540 
1153.662842 1151.858154 1161.882324 1222.919434 
1267.978516 1225.298950 1319.196045 1266.489136 
0.000000 0.000000 0.000000 0.000000 
25986.062500 9320.639648 16088.724609 621.528015 
1778.631592 1940.247681 1924.017578 1972.561646 
1702.735718 1872.828857 1250.140381 2182.040527 
1377.270264 1340.898560 1319.209961 1351.107666 
1173.226807 1178.086304 1173.618652 1175.861816 
1173.110107 1173.524780 1273.986816 1171.900513 
1167.658936 1186.634399 1170.711914 1170.384277 
1266.514526 1247.590820 1267.654053 1258.678101 
1277.991577 1284.728638 1398.290527 1272.446899 
1219.533447 1205.368896 1579.824097 1219.245117 
1191.794067 1172.886719 1171.047241 1174.960693 
1164.115967 1346.900024 1167.235718 1170.266602 
1186.296997 1173.633667 1178.904175 1168.337524 
1755.432007 1617.306274 1747.272339 1657.912842 
0.000000 0.000000 0.000000 3311.608154 
2093.477783 2081.096191 2046.682983 2096.574463 
0.000000 10301.103516 0.000000 0.000000 
2969.240967 5224.797852 0.000000 0.000000 
21748.720703 24395.902344 5796.772949 0.000000 
27213.650391 0.000000 24355.886719 4307.879883 
2505.942383 2164.484131 2751.069092 2734.341797 
2003.692627 2021.929932 2081.427246 2001.663818 
1657.086914 1443.968018 1652.581299 1701.453369 
1916.011719 1650.418945 1559.249878 1657.994019 
1560.651978 1498.556763 1124.580322 1546.985718 
1462.237305 1329.722778 1978.703125 1484.714844 
1299.158813 1274.143066 1328.383545 2117.725342 
2094.229248 1187.134766 1187.724243 1179.692261 
1368.230957 1340.708252 1342.371338 1551.415771 
1492.675049 1531.704712 1499.457764 1586.489136 
1671.816162 2229.643799 1668.442749 1717.742920 
